region_name,address_line_1,IP_address,customer_surname,date_dim_2,Date_Employed_From,user_ip_address_v6,postal_code,city,salt,date_year
address,address,other,name,date,date,other,address,address,other,date
address_part,address_part,other,name,date_part,date_part,other,address_part,address_part,other,date_part
New Mexico,2908 N Bankers DR,176.185.29.73,MAHELA,12,22,fb3c:af0e:9815:2422:8258:7096:4c37:36eb,N1H 4J2,Dothan,K2O24G#Mow%djwneE@r#Pc&E&vgMR,1997
NC,200 CLAIR RD W,25.85.191.35,Suzanna,7,22,fb3f:c708:697d:bd2a:5ec6:ff8a:f62d:626f,N1E 6W7,Methuen,1QHc*tI6@s1Y(_#6$M$I_Ac)30#K_,2016
Illinois,9 BUSHMILLS CRES,52.222.127.183,LARISA,7,20,217c:2714:7970:1e2e:5c17:2a10:a180:7ea2,03676,Halifax,cgTbCcc)m46b#eqASgKP!bkz)EvkR,1986
ID,701 E Wilson ST,14.170.37.33,GUILLHUME,12,31,30b6:4e13:9d93:4805:ba8b:1e9b:d94f:f0a8,18757,East Meadow,+^wIETb4n2H$#0I*jd7RN%N_awHOP,2017
Iowa,3 THOMPSON DR,20.75.156.82,VIBUSHAN,11,23,f722:d56f:4c6e:5d01:faa8:d255:4ecf:87e8,N1E 3W9,Millbrook,KH1X31R&i@gD9HWAxt2bXrm6*dcAK,1993
NC,83 DAWSON RD,90.4.8.4,Cathrine,11,27,4b7f:fd97:4957:e535:4fab:e9fc:c6ef:25b3,70323,Wareham,6KUE4$N5ZGdvdn@x+M!_UFlI4RXi@,2016
CT,407 N John ST,52.94.202.227,MILOUCI,12,15,4db0:27d3:9155:dba2:7c54:6c8:4bda:75c1,99391,Newington,UWy4uOHFiajXSZMzLWc^!G5H%fH+u,2015
Alabama,159 FIFE RD,180.64.149.104,Virge,3,11,a66d:247c:c14e:ad6e:f59c:6303:2462:9137,N1E 3K2,Phenix City,!r0+1dnZk@126Li#jcbL^6P%pz*q%,2003
CT,10 PETER AVE,69.170.183.105,BISMA,2,28,7866:bc3c:f9e5:49b:7aa1:7954:4318:fc27,83429,Cobleskill,#zc3tetMrNF%3%HmBGaM)h*jJ$%hN,2006
LA,3753 E Villa Glen CT,145.88.193.164,LANCELIN,10,3,203d:7867:6bb6:6d13:9242:c506:1e44:fc6e,N1H 1W2,Cobleskill,WbCY6FpH_j7uBRB3ghJD*&FqRdfgS,2008
South Carolina,807 E 1st ST,95.79.228.178,ZACARIA,5,24,b31c:245b:f1c:ae84:611:4990:3413:ef42,N1E 2G3,Putnam,DC^70Jgy(%JGQq7Mk6nwvGs66mMWX,2011
New Jersey,3002 E Daniel ST,76.141.201.216,Whitley,12,8,7c73:7fcc:2ba6:b285:f979:5e33:c487:3853,N1H 3R4,Demopolis,9hu2_lEDn7Q+T42d%$V(Zk8Yq&IV3,2004
SD,1418 W 13th ST,208.158.229.201,SORIN,5,11,4db8:3cc5:33dd:2b4:d93a:aa82:51da:57c9,23886,North Reading,cfF^v0BtAh(HeA5u^&)DuWw_&7A7+,1994
HI,89 MERCER ST,196.52.83.157,Torey,8,7,1174:4cd6:f622:6dff:9a47:d90b:ef81:9988,84867,Hornell,^ms8%Mvz1Wo*!#jZv5!vjjXR7I@lI,1979
New Hampshire,134 CURZON CRES,8.134.236.169,THAYANA,4,3,77d5:183a:d62e:7703:917c:66a2:1b3f:607,32916,Wareham,#I&Jy0l#2myREiy4y8Q@ut22PINxv,2010
Indiana,3112 S Coppertree DR,2.158.111.92,MATTHEU,7,19,9091:4196:6ea7:ee5f:81cc:1850:b9a:ec76,55791,East Syracuse,V6A$g^_keK6J2$Ve@^F5DaOCvHQ_M,1992
Maryland,14 CAROLYN CRT,190.20.104.225,ILHAM,7,10,92e8:5963:b8f2:f2ef:9d64:71ca:476f:e6bc,94476,Oxford,4dl167zMu_S+@WQ%9l+Ydn60ZI6a4,2017
Virginia,60 BALMORAL DR,178.193.210.72,HOUDE,2,19,17f6:69da:cf15:43b8:80fa:fb6b:feb7:57c5,26458,Adamsville,pXJ431Qfczt@T99^PN2ZEa%Br9r+*,2010
TN,39 MARKSAM RD,185.220.71.22,Eula,6,18,9636:59bf:c584:660a:4dfc:e107:39b2:4e6,93738,Torrington,FfNxh_%31XK)PK*q+7eP&GyvoX_3e,1977
AL,1307 S Basswood CIR,91.103.132.76,IORDAN,6,17,d31c:17cc:8716:4471:e2:5f06:1783:a689,14490,Clanton,SJ!_#V9*$!6^O3g2&LkkFK)$PwLUc,2000
New Mexico,44 BOND CRT,58.215.36.75,SCOTT,12,21,8783:42a1:a159:a803:856c:250f:8881:1ed9,31725,Gardner,i_(c27VXmE_d9B+pJgK&z19CRE**C,1996
North Carolina,29 HALES CRES,141.133.155.196,Electa,6,24,926:750b:1168:413e:ea98:e56e:c483:a51d,04551,Jacksonville,tN%(l9#6NI@vToEfq0B)Dtqr$99sk,2003
Missouri,1720 N Jordan AVE,80.58.227.180,RAULINE,7,7,13ba:8298:d468:6103:bcb1:a347:831c:7481,71643,Amsterdam,i0uWlVcLo#*WAcOG!UmDmAZr1h1kg,1998
West Virginia,37 RASPBERRY LANE,217.136.240.4,Roxy,4,18,40a0:a163:5237:caad:f854:cdb1:523f:7f28,48500,Pelham,@xD@SsZmR3cLA%z)*d8PIEF&3V1Ni,2004
OR,2602 N Skyline DR,155.36.209.139,Linsey,3,29,e483:5199:c38d:8b9a:44f3:9b61:583e:51af,N1H 7S9,Malone,V1&17rO)GlTGpJq2aGvbt#Vqcam40,2019
OK,55 PLEASANT RD,84.70.117.131,Lenord,6,3,2134:a860:9dde:ecf:1b3c:3df3:d341:88b9,N1H 1R1,Hamden,oPQBzT%T9pGGMm2U^5*IRgMu@)kdv,1982
MI,939 S Basswood CIR,194.130.154.202,COLAS,4,24,c2ff:2734:1793:cc67:581d:e731:7ad6:2466,N1H 2X6,Brockport,$qia12y39fgo6oFOZ$$SjJLW_5ou),1984
KY,2559 S Addisyn LN,193.248.217.137,ILHAME,3,26,adfc:2780:bf79:6b5a:b10:7944:5f06:7030,19383,Sylacauga,Vx0@GHIWsG4KWCo6u$CDsU%fd+b9@,2010
Nebraska,60 LAWRENCE AVE,53.221.129.161,PHILIPPIUE,11,12,1745:4bdc:a39d:8c9b:5016:763b:e381:7757,84045,East Falmouth,SE%vQU8JE8QfIQje)ig6rd@yngIQE,2011
CT,8 HALESMANOR CRT,186.147.35.86,Merna,12,4,4f3a:a1c6:98b1:d960:eb87:79bb:cf47:28e8,48940,Salem,@@YIaIeqnjCzC+bPmk*CfFD%y)6+u,1990
West Virginia,426 E 10th ST,57.213.244.76,JILOU,1,4,e9d6:f3e:fca5:184:74b:b983:8aa:9ec2,19140,Danvers,Iw9W&fH+cdXehai+csZ9m&SR_nR4R,1994
IA,19 CREIGHTON AVE,19.193.32.149,Beckie,12,28,ed1:f915:d01e:4978:70cc:4688:63c3:34ef,91543,Chicopee,A)63v1Ir&zBpPN!L6fL&VUKn+GbWZ,2011
Florida,1493 W Allen ST,72.196.107.55,MOHAMMED-ISLAM,5,11,f595:b5f7:8753:1fd8:c48a:98dc:af6a:ab57,N1H 6J4,Gulf Shores,2HJi8i3uVyMJIzPu#uB4@G&z!@_sI,2010
WY,1612 E Matlock RD,200.155.43.191,NILAKSAAN,7,9,a736:de53:a4b5:c5f3:866:c491:56dd:d4d7,N1H 6S7,Groton,!XAyyo@np92$fE@6#y8A)U&^ltdde,1981
New Jersey,9 THORNBERRY CRT,201.96.242.217,Stephanie,1,27,e86b:e191:c4b7:b0e2:f9da:5517:bd9:f2ef,78767,Enterprise,S!4NMc90JRJ^2Q#o2!hGSh$9$n2qV,1984
Delaware,137 SILVERCREEK PKY N,4.246.89.23,Leticia,7,10,c61f:1e00:9b4c:ec0a:161b:c25d:9003:7799,91460,Norwalk,Bg0shXb!KYIQtv%$m6*(zFRz&WRyG,2017
Indiana,1007 E Sheridan DR,116.222.68.191,ILOUNA,10,16,7162:7579:e0a4:e106:7210:19dc:e26c:5129,28611,Guilford,k(+bu)0ZDb*44gFN%y@i&rkKR9Ouq,1981
Arizona,211 E 15th ST,196.224.102.228,Madora,11,17,322e:edbe:f08d:ade5:b603:da4c:f5e0:343a,57834,Pell City,7y&LqKzf#uuses*mL2Dan#$UoPqG4,1981
AK,8 WOODBOROUGH RD,102.2.43.56,MOUNIA,2,5,d4c8:d2e8:e603:cceb:5f1:47a7:6dca:844,69219,Gulf Shores,PI6KxXxTOC#trQarQ^w98Y3&J&6sC,1987
NV,1600 E 2nd ST,150.252.248.242,LISANE,7,12,63f5:3198:5806:39fa:6913:42d4:f51e:8a35,03833,East Windsor,y86R*p7(@1#BXWLx%K8tQ8cC%W@6h,2001
WA,121 S Bryan AVE,132.155.117.27,EUGENIC,2,24,4f28:ea42:26ba:db90:6b05:138b:eae0:4f3,32927,Latham,Bc246rl2RYKOgcC*)ct7RRykBRV3m,2020
New Hampshire,1837 N Kinser PIKE,210.144.212.201,BONNIE,6,30,c3c5:6e0d:7191:f606:42db:26d6:e8e5:22d0,95141,Haleyville,t3^IiIPf0mFJ4y8VNjYhDTmW$xTU6,2007
OK,2504 E Canada DR,86.217.25.193,NAS SAME,6,16,ae21:9aa0:ab77:15d6:7a3c:5f83:d6a3:973d,78027,Greenville,fq0DyOOq2A8ZSvxJ*TS!+)oIPx2Bo,2019
Idaho,21 CONROY CRES,58.184.244.3,EMMMA,11,13,59fe:98e5:1741:d3ff:f806:7541:4c3c:826d,60673,Gardner,6oLclnvf7sc4UCqn$hXxcB&*0Co1n,2007
WY,201 DIMSON AVE,169.145.58.209,SHERYHANE,2,2,1929:583d:50f4:64b1:8380:2773:8cd2:1bca,N1G 1P5,Jacksonville,MOJVOf6bYWu(^615lAUDF@F!n!ToP,1998
CT,62 KEARNEY ST,192.181.11.51,LYSANGE,10,8,739d:5347:71d8:3627:523:9f:b01b:80b5,75344,Arab,a6IiDiDat!MM$Gc@+ga)Jb4wTTp#4,1987
Montana,72 BALMORAL DR,5.22.126.76,Kirsten,12,8,43fa:8092:3cf3:1a10:469:c51:f447:ce1,69610,Mobile,lnv@T!QjdXq7qod6Zs3+MZjV&o$%v,1982
Rhode Island,1424 S Fenbrook LN,192.199.211.62,MAINOUNA,4,19,bf81:e12c:5ccc:c7b3:b4bd:c230:88d1:f55c,N1G 3B4,Daphne,@XBGtMTUQ1UtuFw*DklJr6Dx&CdUp,1976
OR,1412 W 11th ST,2.1.187.87,THAMARA,1,19,f483:f3b7:53b7:4f01:8083:851a:69bb:fce4,61653,Lancaster,17NFFuLxsF6qjECx!Y9s8Y8*5OLaV,1993
MS,872 E Miller DR,215.86.238.137,ELUAS,9,6,c261:7ee1:653e:5c2d:14c7:907d:99a1:cdf3,74771,Bessemer,#f^GXoJq0bH_C%VS^TVexhz$%8@U^,1993
