AccountID,user_ip_address_v4,SALARY,ContactPersonSurname,ip4,UserID,DATE_OF_BIRTH,EMPLOYEE_ID,Customer_IBAN,Sum_PROFIT,SID,y,dy,date_dim_2
other,other,other,name,other,other,date,other,other,other,other,date,date,date
other,other,other,name,other,other,date,other,other,other,other,date_part,date_part,date_part
45940,213.192.147.172,-8.47,DIERRICK,216.97.157.239,13605,10/21/2013,17168,GB14SUZJ14245285092147,-6391.46,jackson therapy partners,31,3,1987
45941,8.211.199.127,4.9,HARRY,46.15.76.204,13606,10/12/1976,17169,GB83GABS64963592255893,-96160.6,mvp realty®,24,1,1976
45942,187.166.61.173,-5.29,SHAY,208.161.216.163,13607,06/06/2011,17170,GB18XRUP42062931587144,-1560.95,"heartland financial usa, inc.",5,12,2017
45943,201.134.37.21,-3.0,SOLANA,16.100.129.162,13608,04/03/1986,17171,GB91ALJT97180612822776,33931.18,ainsworth pet nutrition,7,7,1985
45944,100.221.37.67,3.0,MAURYNE,31.63.24.102,13609,11/14/2014,17172,GB71SVDM06816523824464,89443.34,partena ziekenfonds & partners,16,3,2010
45945,144.197.175.207,-4.0,MYRIEM,177.101.24.198,13610,03/01/1989,17173,GB57SWPJ28730002516729,2309.0,nothing ltd.,20,11,2016
45946,177.82.142.46,-8.63,WALID,129.181.18.198,13611,02/22/2008,17174,GB06JBSB04203679761616,74792.0,mcc,23,8,2004
45947,43.170.135.213,8.0,Robyn,104.135.210.241,13612,07/18/2018,17175,GB05KPZS58824135731618,41330.0,kapsch trafficcom ag,26,11,2006
45948,102.85.109.154,8.0,EUGENIE,60.129.147.48,13613,05/16/1982,17176,GB09VNGX73425741861275,-3065.41,telecom fiji limited,8,10,1995
45949,155.182.95.63,-8.99,EOM,193.187.117.14,13614,12/14/2011,17177,GB21XDDS90062436261181,51935.54,boomerang tv,7,9,2013
45950,206.176.204.46,8.39,SIDIKI,18.170.15.218,13615,10/06/1979,17178,GB63BIMU16339665135919,70945.0,asteelflash,31,5,2000
45951,143.20.68.87,-9.0,FREYA,83.22.87.37,13616,05/31/1997,17179,GB10EDJS84999090449213,-36343.11,karahisar un yem san.tic.ltd.şti.,12,9,2006
45952,180.132.69.188,10.0,BISMA,201.19.199.54,13617,06/17/1998,17180,GB57FACK80406138097266,71576.81,bv financeira,12,11,1986
45953,11.111.153.253,-5.0,Marinda,180.182.52.131,13618,11/15/1980,17181,GB44GAQT68605213953810,-73286.0,university of ulster,27,12,1996
45954,141.92.120.243,-8.0,Glennis,89.168.106.145,13619,06/04/2021,17182,GB52RTNR22356558395165,-18820.76,holcomb behavioral health systems,4,4,2003
45955,5.146.98.95,-9.0,PACO,64.204.70.26,13620,05/03/2010,17183,GB23PMJA60954856225319,22515.88,comunidad de madrid,10,2,1989
45956,72.33.201.92,-1.0,THAYANA,52.44.28.0,13621,12/13/2013,17184,GB50BHPQ32189290720180,13595.0,w.r. grace,9,8,1999
45957,58.90.175.26,-0.65,MANOU,191.171.115.141,13622,07/01/2015,17185,GB26CEVG03293089446400,-43730.75,"welltok, inc.",4,6,1992
45958,129.20.53.184,9.2,YLANA,41.146.59.236,13623,09/21/2005,17186,GB71YGOQ48168930241419,88881.0,ics,22,6,2012
45959,48.91.178.118,4.92,Ainsley,37.122.24.139,13624,06/05/2015,17187,GB67CPAP18506475686375,-44910.0,ultimate staffing,11,10,2021
45960,138.225.215.186,-6.0,SOUNDOUSSE,75.66.85.200,13625,10/06/2014,17188,GB64RKQV73704747399050,-38757.4,afs,26,2,2004
45961,107.178.9.224,6.0,EDWIN,109.181.69.192,13626,12/14/2013,17189,GB35RZSN40821615291327,3479.0,rusnak auto group,28,1,2005
45962,171.89.103.207,-0.0,Torie,72.104.235.4,13627,08/12/1981,17190,GB66CHOT79216868059193,-35782.0,ohio department of education,8,8,2007
45963,35.185.161.47,-3.99,DALIA,22.237.147.132,13628,10/20/1988,17191,GB37WJPA45089746802236,-53987.97,global knowledge training,12,5,2022
45964,59.208.159.71,-1.0,CLARIE,1.153.50.140,13629,10/18/1979,17192,GB93RIJQ52324153355887,-84546.27,liberty ltd,5,5,2018
45965,124.199.222.123,6.97,Allen,179.194.102.253,13630,06/03/1984,17193,GB48OWQJ19022598982615,-78211.0,wood group mustang,29,9,2012
45966,86.89.225.200,4.0,ANNABELLA,48.31.124.163,13631,07/05/1979,17194,GB52YNFH88701117411812,-91571.59,kajaria ceramics ltd),17,3,2022
45967,95.14.251.5,2.24,Lillie,162.31.150.6,13632,07/19/1983,17195,GB31XZCI55716072508743,-50136.88,mercedes-benz france,26,9,2010
45968,186.82.219.0,9.72,Mahalie,20.177.77.42,13633,06/20/1978,17196,GB87ECCT63487039196435,32668.64,corniche hospital,26,3,1999
45969,155.51.67.99,-5.15,Rillie,40.162.183.129,13634,03/02/1986,17197,GB94GOVO63819538241589,82942.5,provincie west-vlaanderen,19,7,1973
45970,153.128.150.27,-4.8,ANNE-ALIA,38.80.221.205,13635,05/01/1994,17198,GB54TEWD86676165339295,47377.78,forge industrial staffing,25,5,1990
45971,187.51.121.172,-6.87,BOUCHRA,12.224.229.174,13636,01/24/1986,17199,GB10MICM51121866207965,-85944.0,ccr,2,2,1992
45972,201.7.102.5,-6.12,ZACKARY,144.19.66.160,13637,08/30/2020,17200,GB67GSPJ29184857614769,-59784.46,imperial s.a.,30,12,1984
45973,160.112.243.85,4.0,OZALINE,14.236.106.131,13638,02/23/2019,17201,GB54COIC69097328516752,-57204.0,empresarios agrupados,16,9,1974
45974,5.8.116.28,3.52,DUCAILLE ADRIEN,192.87.226.164,13639,05/10/1999,17202,GB86WJJV90797503375586,-52293.0,del mar college,6,2,2013
45975,109.142.231.232,-3.56,WASSIH,69.174.249.140,13640,12/06/2005,17203,GB33CCSN55828879850250,-5128.0,vip realty group,17,4,2020
45976,12.40.140.138,-8.32,Allie,116.39.116.57,13641,01/13/2015,17204,GB73JMZO71069940389978,-96280.0,globe express services,24,11,1999
45977,52.13.193.158,-9.0,CHERYO,144.133.126.204,13642,06/12/1978,17205,GB53NCRB30215005878112,-60661.0,unity bank plc,9,4,1989
45978,110.99.57.110,-7.0,NINA,190.184.35.36,13643,04/21/2012,17206,GB81XOHM12251969985198,86591.0,ngo recruitment,25,5,1975
45979,161.159.141.143,9.0,Adriane,142.146.180.116,13644,05/02/2001,17207,GB87JWTH71896193024961,-1091.96,nizhoni health,12,1,1978
45980,181.249.116.62,-4.0,Sheridan,132.116.169.169,13645,12/30/1980,17208,GB54SYBO65788423074249,30766.53,reunica,12,3,2017
45981,53.252.61.227,-10.0,EMILIO,132.126.159.196,13646,09/07/2021,17209,GB16KXNT09139200076384,51597.35,dallas county,24,9,2018
45982,115.223.28.92,-5.75,AUDELINE,165.65.166.56,13647,09/01/2013,17210,GB89YKUU70630813084983,-79085.63,which wich superior sandwiches,18,12,2001
45983,53.220.107.76,5.0,SYDNEY,96.43.186.223,13648,07/20/1989,17211,GB11UGBZ22411591951762,-2561.36,zhongrong international trust company,12,5,1986
45984,13.192.24.115,5.0,BOULET,59.58.51.9,13649,12/15/2020,17212,GB30DNPK24661655225292,27732.32,medium.com,17,6,1976
45985,141.233.37.176,6.0,ROSIE,121.36.62.249,13650,01/02/2010,17213,GB27QDCY59066748405444,-13487.6,rocky view schools,15,1,2002
45986,139.247.151.111,-9.0,Victory,120.15.170.30,13651,11/04/2016,17214,GB90GCJF13628691119997,-6857.0,oxford brookes university,2,3,2013
45987,158.2.97.69,1.5,LINO,216.12.235.49,13652,12/29/1975,17215,GB16RKXK40014787999497,24691.17,tmk ipsco,5,9,1998
45988,67.185.187.157,3.33,AMRINA,73.4.201.143,13653,01/06/1974,17216,GB81PGID26061040304996,-76243.9,idaho central credit union,23,2,1971
45989,54.203.233.123,-7.0,AKINA,44.247.111.224,13654,01/10/1982,17217,GB04FGXX13923087521187,-33694.59,upf barcelona school of management,27,6,2002
