lname,person_name,SWIFTNo,social_security_number,Total_Price,store_id,monthly_earnings,DOB_ID,EIN
name,name,other,ssn,other,other,other,date,other
name,name,other,ssn,other,other,other,date,other
GOUBAND,Reuben ZANGEL,JMTDGBLKU6O,186-34-9983,661531.71,30757,223170.11,25/05/1970,CPTG69706624488567
FATTORI,Tamara LAALA,FHVYGBHR,567-16-4714,-570471.64,30758,353840.0,17/12/2018,CTOY72647392822445
BUIRE,YUNADAVY GOBIN,OAOFGBWKA5H,878-82-2534,-450139.15,30759,185618.0,7/02/1976,ILEU45204936712316
DANESSE,AMEL MERRANT-BAUDOIN,COHQGB8U,056-38-8388,-602252.0,30760,-510310.29,6/06/2015,XOZQ23906120708501
SILBERMANN,Deric BARRANCOS,KVPSGBZO3GY,377-73-5153,674673.0,30761,877432.61,30/06/1975,SGHT74448969764805
MITHOUARD,ABOU KOKOSOWSKI,TFKVGB3RHD6,109-57-2687,489522.57,30762,391861.0,4/02/2018,FIRB75835984035791
NAUDON,CANDYCE SAUNIE,UCPZGBDM,375-60-8737,-50769.0,30763,168510.0,11/02/1981,QFEL13435783294376
MEILLAN,MARYNE BOURGEAIS,VRQPGB6U,742-52-6233,71308.24,30764,234344.27,19/10/1976,LVFI53095717100330
LEITE  DA  SILVA,CAMIELLE BENATIER,GXMTGBL9,847-70-6009,536920.0,30765,-665464.65,12/03/2003,RGVM99731084023529
YARNEL,ILANN DESBORBES,GPYUGBQC5BZ,158-02-8251,67314.0,30766,-752921.57,18/04/1975,KMCI76357757210178
CHERPIN,PIERRE-VICTOR MEHADJI,KCCNGBAG,142-43-5096,-159242.0,30767,-985827.11,9/08/1993,IIFI94308229059500
SHALABI,CAMILE VOINEAU,TBPVGB0OV5X,062-15-4990,-523736.0,30768,-69899.96,26/11/2016,OHYN27838648829334
FALL,TIMO CUILLERON,TCTDGBRFE08,332-84-4481,538715.62,30769,571777.0,9/05/2005,RHBC08664148043004
BAUDOT,Dorris SEGRANSAN,AFFJGBBO,546-46-4703,-408122.77,30770,19993.0,21/08/1992,WHAH30026399611093
HENNEBICQ,LABA KARABETSOS,WYTVGBCARWX,560-19-1014,-374320.0,30771,194376.0,6/04/2004,FQKY11517361889022
BURCKLE,Ellyn SANNAC,GNHUGBPLK9V,859-89-4140,-924462.0,30772,-430234.58,8/10/1982,YSVO87251123745663
CHANNAC,JEANBAPTISTE BLANCHANDIN,HLBSGB9VXBN,023-07-2501,156488.0,30773,-968313.64,20/05/1989,RAWO75893586285161
WERQUIN,Jordi MU,BPDUGBI0L6G,553-23-3575,537816.46,30774,423941.46,18/03/1987,BZLJ74459837807635
DE LANVERSIN,Benjamen TTTOUT,YULVGBKTSP3,628-58-7498,781938.0,30775,837393.41,24/12/2019,VOHD55090581373899
VAUCHEROT,Erling GIRODON,UHTHGBXB,502-97-6732,60479.72,30776,-773327.0,31/05/1996,MFAF25440758728131
OUDAER,Tiesha HYARDET,AYXXGB57,626-61-5113,757233.0,30777,16955.74,10/06/1989,HBBX26826152176557
ROESS,FIRAT HENOH,RVBXGBASREB,057-85-3731,-438228.31,30778,656592.2,3/11/1998,QLTO78282430962889
BEDEZ,Onie BERTHOULE,HYUUGB1B,458-57-2898,-950995.6,30779,-690441.0,12/01/1983,TAAJ72926032042853
VOUTA,AURIAME HONCEAU,OCZSGBEAXR1,109-60-4586,600602.0,30780,-528425.0,30/03/2006,AJAY65413949775016
EI CHHOLTZER,SARRA AROLES,MTOUGBZC4XI,452-09-7321,-245088.0,30781,-775050.0,17/08/1991,FSRQ90995199826579
CLAEYS,GENGUELOU LE PECHEUR,WULLGBUU,825-59-1712,-452118.0,30782,-214710.61,2/07/2017,MSUD93050972820378
CHEMILA,Zeb MOUNAERT,XXXLGB7K,422-62-3878,-430852.0,30783,-256535.0,4/11/2009,PLXT01384484556958
GOUGAUD,ISSA LE COURRIC,LUMPGB0Z,556-83-4030,-500715.0,30784,-878025.0,24/10/1987,MBIW86682819479753
MREJEN,Mathilde TEYANT,CXXRGBI5NHQ,094-86-4839,-249571.41,30785,-994030.86,25/04/2008,WVYF36686042654619
BOURLIATOUX,AYMARD PUSEL,YZNIGBROTO5,895-34-1008,912534.0,30786,174914.82,28/12/2000,PXTF20996532654954
BREAN,Megan ROSA SALGADO,AJSFGBM70KG,719-59-7492,-513789.7,30787,348935.0,16/05/2020,AJTF50303636702346
DEIVA,Wallace KERRIOU,OWZMGBAOURM,173-31-8435,-525957.0,30788,368343.0,20/06/1975,QLAZ40403310708923
CHAVAGNAN,BAILEY ANGEVINE,IJMIGBS4,385-51-8855,297483.0,30789,622749.0,12/01/1975,UQUN19062702901649
PORTEFAIX,Savion LOTFI,UTDGGBWU,168-50-8397,-531711.0,30790,-900396.0,29/06/1991,KDAI78672444489460
CLERY,Judi SILVA NUNES,IXPAGB21,261-52-5801,533673.0,30791,-760718.0,4/03/2004,MORB03477511882733
AL QARAOUI,Karsyn OIETSCHE,GHIRGBCNJTD,751-11-1456,-733928.0,30792,883269.0,2/09/1981,LAKO89449399284083
DALMIERES TIFANA,Arron TENAILLEAU,WYBGGBQ4HH8,296-62-4529,813381.8,30793,-621606.0,20/09/1992,WRQL33715935793044
EGGERMONT,JACQUES-JULES SIMONETTI,PHXAGBDW,782-16-7329,248336.51,30794,205879.66,16/01/1991,IDNK44605163967546
CHANUT,SEPHINA MOTIE,WRKIGBWYP9J,733-25-2660,-963955.5,30795,-167961.5,30/12/2005,OUBN66787897325215
BERGONIER,MAY-LEE CICUTTA,ZBQDGBLGVPZ,322-01-8242,-701714.8,30796,-838887.91,10/11/1972,KCZU08711371054622
SANTIN LE CAER,Kaiya DURUPT,OPVDGB868HW,530-12-2645,560346.18,30797,809381.45,4/07/1985,EADG36376735606749
DUNO,Ximena DRIGENT,SBTVGB54F6C,085-51-6837,-921209.27,30798,426712.0,28/05/1993,KUSZ45240844471064
NEBOIT,VITALIE PLUMET,JLOLGBBU2T6,470-34-5369,326110.0,30799,113229.94,11/12/1975,QZPG70360585232311
TRIPOGNEY,Rayburn TYDGAT,UHFFGBVR,207-14-2055,-349994.68,30800,-527112.0,25/02/1999,HJGS50603949028153
BOURGUIRA-HATIRA,Kaylan CHARLON,NNFYGBCO4RI,123-98-2266,226707.0,30801,-414285.82,14/04/1989,QFOY23601677173242
CHORIN,Agusta COUGOULAT,CWTPGB7VADA,184-12-7772,-446198.0,30802,954568.6,7/12/2014,OEJM17669607778436
APERCE,Makhi LETOUZO,VVXBGBE9,820-04-4966,-886017.99,30803,-80160.0,20/07/2003,BCWL74830112041797
PRUNET,Fronnie BELIJAR,SZDCGBVV,867-97-7797,412779.0,30804,475657.0,4/08/1982,VFQO22806084742623
PODEB,THAMARA YAYMAK,XYDBGBC9,529-58-0652,637406.0,30805,-772230.0,15/08/1972,PNKX97470599956185
KACZALSKI,LILOYE GOIFFON,DYQCGBJHJMJ,545-74-6630,-523231.33,30806,945209.0,30/06/1984,QGUH10586387077273
