done,relationship_status,payment_card_number,swift8,works_at,DateUpdated
other,other,other,other,other,date
other,other,other,other,other,date
Yes,Bank transfer,348657781386121,YVWFITTO,onet sa,11/08/88
No,Credit card,3508806986402239,WFQHITUD,infousa,12/06/01
No,Credit card,343401073019982,NZYHITXD,advocate condell medical center,24/06/74
Yes,Bank transfer,3511256586547113,FMJKIT2S,bcge,06/02/06
No,Bank transfer,30395266805066,RQGZITLX,grupo clealco s/a,11/11/91
No,Cash,3570712612281505,BKFVITC7,mach,26/06/18
Yes,Credit card,377795017239070,HQLFITVX,dansk politi,29/08/08
Yes,Cash,503874744181,KYHJITSB,prent corporation,23/12/10
No,Cash,2342416219285955,EQIBIT0Q,universidad militar nueva granada,28/12/70
No,Credit card,4469803032113832,VFHSITI4,softway medical,22/02/20
No,Digital service transfer,562246778814,ORGVITIA,erste group,14/04/12
Yes,Digital service transfer,349117806945590,GJFOITFU,abb,30/05/92
No,Bank transfer,6011248346104341,NQKEITMB,ffe transportation services,15/09/85
No,Credit card,4967833261869865250,ZDNZITY8,bumble and bumble,07/02/08
Yes,Credit card,5140306828126822,AAYXITOY,flacso ecuador,22/06/90
Yes,Cash,180041718546431,KDNRITIX,seda,21/11/75
Yes,Credit card,3538522073119644,NUHDITSS,oconomowoc area school district,02/08/10
No,Cash,213116598437702,VWZZIT2O,the henry ford,19/10/98
Yes,Credit card,6011230313330885,ICVXIT1E,igd,13/02/00
No,Digital service transfer,5312887347106454,GQFWIT49,blue care network,18/07/76
Yes,ATM Cash,3540009360965364,OCZXIT62,grupa energa,16/12/95
Yes,Bank transfer,4422830184950,YHDUITB6,house,12/03/94
Yes,Digital service transfer,675978602489,WRVHIT06,andhra university college of engineering alumni,02/04/78
Yes,Bank transfer,3591484454027405,ERZNIT90,charlotte maxeke johannesburg academic hospital,08/04/70
Yes,ATM Cash,30101924921034,PUTEITAZ,plymouth public schools,24/01/05
Yes,Cash,3510755633387184,VPXAIT3R,condé nast italia,31/01/70
No,ATM Cash,502058211975,ZSKFITGC,mca ingénierie,24/11/84
No,Cash,3582020830774319,CASMIT3K,"inter-con security systems, inc.",07/10/96
No,Cash,213175753089831,ZSWDITQL,"intelliswift software, inc.",29/03/13
No,ATM Cash,3575377631428753,RNHNITSL,mag aerospace,24/03/05
No,ATM Cash,180058309226124,UYHQIT3E,company 3,24/11/13
Yes,Credit card,2243410249556519,OZMIIT3J,maricopa community colleges,20/10/13
Yes,Cash,6011732612127664,KBZZITLL,dewhirst,07/01/82
No,ATM Cash,38423904412301,OEGAIT7R,microchip technology,05/11/75
Yes,Digital service transfer,4853185385560999,BKDAIT8B,colorado business bank,17/08/92
Yes,ATM Cash,3546549627318729,RZWPITKL,defense health agency,10/02/22
Yes,Bank transfer,2224370974466263,VKXTITNU,habitat for humanity restore,16/09/93
No,ATM Cash,3515458137344851,KLJZITQY,fangdd,29/05/84
No,ATM Cash,6011856215057331,JMMVITRV,fod binnenlandse zaken,16/10/83
No,Cash,213171558367787,PBAVITAX,csea,25/08/01
Yes,Bank transfer,4315995895748010368,WXEBITX5,the arts club,14/03/96
No,Bank transfer,4036507058357645,PFQJIT45,cefco convenience stores,16/01/01
Yes,ATM Cash,3511042145792840,PGXNIT29,tufts university school of dental medicine,18/10/20
Yes,Cash,3599397126788166,FRSWITRC,aujan coca-cola beverages company (accbc),27/10/81
No,Bank transfer,344735833274489,NAJDITUT,valuefirst digital media pvt. ltd.,16/02/00
No,ATM Cash,38102281834218,SCBHITV1,the boston globe,06/11/18
Yes,Bank transfer,4375187932308,FCXLITWA,matrimony.com limited,19/06/09
No,Credit card,30202181071891,GUSSITWI,yakima school district,15/07/22
No,Credit card,180024973182126,ZJDQITNQ,ecproductions,04/11/04
No,ATM Cash,2262788173273581,IFPBIT7B,hospital erasto gaertner,15/07/09
