postal_code,active,zip,CNTRY,cellphone_number,UserID,DepartmentSID,location_of_residence,DEPARTMENT_ID
address,other,address,address,phone,other,other,address,other
address_part,other,address_part,address_part,phone,other,other,address_part,other
67018,n,837 S Morton ST,OK,113-268-1554,25762,9650,Greenville,46584
30023,y,2615 E Poplar DR,New Hampshire,287-213-3449x1014,25763,9651,Milford,46585
98342,y,51 BOND CRT,DC,923.815.7190,25764,9652,Haleyville,46586
72971,n,98 MCELDERRY RD,MD,977-923-0489x6553,25765,9653,Bellingham,46587
10015,n,363 STEPHANIE DR,Colorado,292.047.2702,25766,9654,Waterbury,46588
11454,y,413 W Jed ST,CT,244-212-2647x5176,25767,9655,Moulton,46589
30942,n,3652 S Sowder SQ,Kentucky,309-347-1008x429,25768,9656,Tewksbury,46590
67173,n,22 UPTON CRES,Connecticut,727-558-4746x880,25769,9657,Torrington,46591
03504,n,3904 N Whitewood WAY,Arkansas,925-959-1895,25770,9658,Commack,46592
61363,y,157 MARKSAM RD,Michigan,925-371-1044x295,25771,9659,Northborough,46593
61307,y,70 SOUTHGATE DR,Rhode Island,300.074.1704,25772,9660,Hadley,46594
N1L 1R2,y,770 WILLOW RD,LA,688-195-7817x81064,25773,9661,Northhampton,46595
28128,y,145 MACALISTER BLVD,Minnesota,278-353-2017x17796,25774,9662,Eufaula,46596
N1H 3Z2,n,121 E 6th ST,California,948-276-9308,25775,9663,Oxford,46597
08349,n,699 SCOTTSDALE DR,Michigan,313-660-9307x81778,25776,9664,Oxford,46598
79028,y,57 WILSONVIEW AVE,IN,170-520-6708,25777,9665,Guilford,46599
19329,n,2826 E 3rd ST,DC,422-417-3916x4308,25778,9666,Geneva,46600
06904,n,61 NOTTINGHAM ST,NM,002-113-3238x23816,25779,9667,Dothan,46601
07174,n,570 EDINBURGH RD S,Alabama,1919672349,25780,9668,Sumiton,46602
07242,n,404 E Melrose AVE,CT,(260)434-6879,25781,9669,Centre,46603
71278,y,51 DOVERCLIFFE RD,FL,(225)680-1644,25782,9670,Central Square,46604
N1G 2M1,y,3808 S Woods Edge BND,IN,905-674-7008,25783,9671,Clay,46605
N1E 5C1,n,3212 S Abby LN,Utah,(076)233-4672,25784,9672,Moulton,46606
N1L 1M1,y,3805 E Callery CT,OH,989-580-4134x56075,25785,9673,Jasper,46607
49919,n,621 W Kirkwood AVE,ND,514-827-3657x2069,25786,9674,Tallassee,46608
11053,y,42 KAY CRES,Michigan,699.407.6077,25787,9675,Horseheads,46609
98986,y,120 E 6th ST,Missouri,722.568.7822,25788,9676,Wareham,46610
N1L 1G1,y,2 FRESHMEADOW WAY,Oregon,8006294470,25789,9677,Hamilton,46611
87655,y,319 E Brownstone DR,Alabama,230-218-3672x704,25790,9678,Daphne,46612
83770,y,192 GLASGOW ST N,NM,829.193.9167,25791,9679,Canandaigua,46613
32862,y,64 DURHAM ST,AK,664-593-9082,25792,9680,Daphne,46614
N1H 7L8,n,1332 N Woodburn AVE,Ohio,307-087-9096x440,25793,9681,Hartselle,46615
76052,n,180 MARKSAM RD,Pennsylvania,684-384-9565x2177,25794,9682,Brockton,46616
25229,n,40 OLD COLONY TRAIL,NH,(571)473-1371,25795,9683,Waterbury,46617
N1H 7T5,y,51 DOYLE DR,NE,763.283.6073,25796,9684,Northhampton,46618
N1H 2N3,n,6 GLENHILL PL,North Dakota,349-094-9105x0010,25797,9685,Bristol,46619
71714,y,75 ABBEYWOOD CRES,Louisiana,628-626-9143x01519,25798,9686,Canandaigua,46620
38154,n,50 WALKER WAY,Massachusetts,647-232-8858x52058,25799,9687,Geneseo,46621
50253,n,1417 S Monon DR,Washington,070.213.9124,25800,9688,Gardendale,46622
14490,y,27 EUGENE DR,NV,678-175-0509,25801,9689,Camillus,46623
11299,y,34 DUNHILL CRES,Delaware,042-683-3875x1214,25802,9690,Ozark,46624
21376,y,1271 S Fenbrook LN,IN,(390)161-3429,25803,9691,Cromwell,46625
90809,y,130 SURREY ST E,CT,296-311-5193x3673,25804,9692,Fredonia,46626
89814,y,2300 S Brown AVE,VA,3815883890,25805,9693,Vestavia Hills,46627
53185,y,25 COLONIAL DR,MS,939.688.0185,25806,9694,Greece,46628
N1E 6N5,n,910 E 17th ST,Indiana,044.044.7044,25807,9695,Millbrook,46629
22272,y,44 TERRY BLVD,WA,827-749-9866x874,25808,9696,Springville,46630
N1E 5S1,n,367 E Varsity LN,Rhode Island,171.790.6614,25809,9697,Alexander City,46631
N1G 5C7,y,58 RENFIELD ST,Hawaii,628-104-2013,25810,9698,New Haven,46632
N1E 4M3,n,2551 E 8th ST,Kentucky,401-387-8879x00573,25811,9699,West Haven,46633
