Name,international_bank_account_number,DateUpdated,traffic_SID,BenefitLifeInsurance,D,dim_m,DateCreated
other,other,date,other,other,date,date,date
other,other,date,other,other,date_part,date_part,date_part
chemeketa community college,GB77OBOT80954798078663,05/31/18,21051,n,10,5,1997
software express,GB29TGWW04370098524041,02/18/90,21052,n,4,6,1985
"hks, inc.",GB30UNBY97362005475611,09/18/99,21053,y,22,2,2022
yukon government,GB84KLPE82412539795603,04/27/74,21054,y,30,12,1975
wesbank,GB88HRCV68741132952182,06/05/73,21055,n,26,1,2013
international company,GB40PGLH20003799528063,09/29/78,21056,y,11,3,2003
medquist,GB15ZNGK28015764099872,03/25/17,21057,y,3,5,2006
royal borough of greenwich,GB51PZMD06871953519350,06/18/18,21058,n,24,4,1976
gwangju institute of science & technology,GB64XBFH07931467372648,10/20/17,21059,y,19,7,1990
mesilla valley transportation,GB03BODT83246755028534,05/17/19,21060,n,24,8,2008
tata bluescope steel,GB10BVRE84518519607950,11/13/75,21061,n,2,7,2013
pms,GB26GWBV85765455186292,01/02/99,21062,n,26,12,2019
oxiquim s.a.,GB37YVUU99284756423295,06/05/77,21063,y,9,12,1980
meijer,GB35YHOS22527490431511,06/02/06,21064,y,29,12,2011
coveo,GB45AXKN84602200427659,01/23/95,21065,y,1,8,1989
better homes and gardens real estate gary greene,GB17LFIW25059896959297,01/07/98,21066,y,3,12,1984
oil search limited,GB82HYTG25436667939783,10/19/84,21067,n,10,5,1977
yeahmobi,GB97SOVA57378226570475,08/08/84,21068,y,26,7,1997
state of minnesota,GB50SZXY27935725866089,10/20/18,21069,n,9,4,2004
swiss life france,GB59DAJX30258685649676,06/03/02,21070,n,16,11,1971
nos portugal,GB67RAXX45692937676257,05/21/89,21071,y,9,10,1990
"group five ""structured ingenuity""",GB25LWVU23540013475162,11/22/96,21072,y,5,9,2015
acl,GB03EPWC80174431949446,02/26/90,21073,n,15,1,1982
iss hicare pvt.ltd.,GB12DRUU46656540588114,01/26/96,21074,n,18,5,2021
techno q,GB56BASA51772690347763,05/03/18,21075,y,14,11,1999
sportz interactive,GB83HRMT66514941882055,03/04/74,21076,y,4,10,1993
infibeam.com,GB80GNDP22595060479159,11/01/09,21077,n,16,1,1987
"neel-schaffer, inc.",GB65WMVG91228295020711,10/23/82,21078,y,11,1,2001
city of oklahoma city,GB53HRIC36386463904442,01/01/19,21079,n,28,1,2020
virgin media business,GB14ECQU32264148229498,11/10/79,21080,n,10,12,1973
hitt contracting inc.,GB19YJPE25097551674820,03/21/16,21081,y,22,2,1974
elan it,GB51WYMU36699284582342,08/26/90,21082,n,13,11,2008
acm - autoriteit consument & markt,GB03GRUJ10910609392537,02/22/86,21083,y,18,9,1995
berkshire hathaway homeservices,GB85KDFD30851637778409,07/03/09,21084,y,15,4,2002
yaskawa,GB28DJQB92672985403923,11/18/91,21085,y,10,3,1988
riopaila castilla s. a.,GB26CSMF26245426516688,03/15/89,21086,y,21,9,1984
landmark graphics,GB90DYHA92126829326792,01/12/95,21087,n,25,10,2001
tomtom telematics,GB76FMQQ28432934436316,08/03/86,21088,y,30,6,2005
avega group ab,GB59YAJA03771626338334,04/12/78,21089,y,17,9,2005
zopa,GB05HUJT06333609128988,05/22/96,21090,n,21,11,2005
baumer,GB56BNYG14672028221794,11/23/82,21091,y,12,5,2018
northeast arc,GB27LDAT40052053566651,03/25/76,21092,y,26,12,1994
dumfries and galloway council,GB85IWVV15485485721600,05/29/71,21093,n,22,6,2012
psa healthcare,GB31OLQU65651778213594,10/19/81,21094,y,7,4,2019
a-plan insurance,GB08BYSY17662656012271,06/05/83,21095,y,10,1,1977
clinica santa maria,GB86UZRC27506872831181,06/21/03,21096,y,28,10,1995
american public media,GB78XHBG37282536202589,05/04/96,21097,n,28,1,1974
guc,GB47CDUG66880789070000,12/15/71,21098,n,25,11,2017
vicunha têxtil,GB32XFKU68714004809096,09/13/81,21099,y,25,11,2017
nabors drilling limited,GB75ZKIX11210054012308,08/22/16,21100,n,28,12,2006
