id,salt,transaction_id,dim_d,BIRTHDAY_ID,BIRTHDAY,First_Name,fname,DEPARTMENT_ID,EmployeeSID,EMPLOYEE_ID,sms_identifier,DOB_ID,Date_Employed_To,m,dm
other,other,other,date,date,date,name,name,other,other,other,other,date,date,date,date
other,other,other,date_part,date_part,date_part,name,name,other,other,other,other,date,date_part,date_part,date_part
sctv,c5a29bd74371a9e6060284a21a7a72199f08d46db1c951d4,38859,24,6,2009,BARILLER,SAMIFI,8238,36083,31885,4462714871481082336,12-30-72,24,7,1984
britam,ebb8309ea73e5a82ce82a4aee13465e108012214383f4db8,38860,18,8,2003,Cherryl,JULEM,8239,36084,31886,5138141164277408,09-09-78,9,1,2001
riken,985ab376606ac70aa8c2e3d16a874da6e9ca699f4555bcc9,38861,6,9,1990,EMMIE,WIPSON,8240,36085,31887,213147255538284,02-23-92,6,4,1976
traction on demand,ab4cff45470e98686e958c553bd7d0ea5d80e74a93885d33,38862,9,2,2011,Tracee,CLEA,8241,36086,31888,213116392514862,09-22-98,28,12,1997
smartsource technical staffing,a8d448d7e7f9d8c39b34532fce83102e494675b02c4a096a,38863,21,2,1981,WIEBKE,GEADA,8242,36087,31889,3533855447219509,07-23-96,14,4,1978
university of bolton,41e687221dd7cef75e8af45bb07a62477a77aa3fdcb77ec7,38864,2,7,1995,AMDRE,Olen,8243,36088,31890,30357584544884,01-01-05,1,11,1986
nb,5a31a5c8ee3fd9d8bead8cb81b24e573025a9733677ae3bc,38865,30,11,1970,MANDU,Chin,8244,36089,31891,3543830043209160,10-05-15,15,11,1988
rosgosstrakh,06ce576756fe191cccb8bb1a9503a50626465d2d3a0ae511,38866,7,8,2003,RASTICO,Junie,8245,36090,31892,4399598072142585,07-06-79,2,11,2012
selcuk üniversitesi,a2a87622db2eb1e97ad62ff55a4c258bd43e9574cf16cd63,38867,10,4,2011,TRAVIS,KHADIM,8246,36091,31893,213157902611632,11-11-73,30,5,2002
amlin,cc91e2e56351ba43c6d8f5dabec89c3a452cf18aec9c9c8f,38868,31,7,2015,ILHEM,ZEYNER,8247,36092,31894,30569035570025,10-21-15,27,8,1998
"propia co., ltd.",0beb31b7fb0ba38cd1ba2447e81705a273143a853814df0c,38869,25,5,1980,nan,TUBA,8248,36093,31895,3596832605415405,09-25-21,28,9,2011
stellar information technology pvt. ltd.,67c6ba28374fddc5067b19842cee2913195fc73f8de89422,38870,23,11,1996,THALIA,Denine,8249,36094,31896,4952607166442,01-09-81,12,3,2002
chu sainte-justine research centre,de6aaddee7e0844515fbaed98131973042b5eb89fb5e1a62,38871,16,12,1988,Rohan,Samuel,8250,36095,31897,38502199762007,07-29-12,21,12,1976
bay cove human services,c4cfe7279ddcaa93b925809b84477f20b3890fc92a34c53b,38872,21,5,1996,TALLULAH,ABDELKARIM,8251,36096,31898,379304971730766,01-12-70,18,9,1988
people's association,a269f274545f254d47c95d01f579d56a68b6ede2be7a5c51,38873,16,1,1981,Jaslene,Jerrie,8252,36097,31899,4980353028148350,09-02-82,25,10,1979
fursan travel,d2d62c059a81e08efaa5c36cc1572ce3b52613c9a47796e7,38874,6,7,1983,GOEFFROY,Ethelbert,8253,36098,31900,6011662470044869,02-08-05,14,9,1981
mercatone uno,7daf27b65fc28afd74795a6db2fb0071c3ee72f13408f935,38875,14,6,2020,BLEDENN,EURYDICE,8254,36099,31901,4338385436778490442,04-02-98,24,10,2011
"hubrecht institute, developmental biology and stem cell research",6272e277a54b2673bab774751ae6bb55aa2dcc705fdf89ff,38876,19,7,1987,Stafford,ALMIN,8255,36100,31902,3534022895865791,09-18-12,21,5,2000
defensoría penal pública,d9f567e16fee31c849f9c1ac40e8e255ef01be8bbe58372a,38877,21,6,2017,PETRONILLE,Tawana,8256,36101,31903,30105382798461,04-03-00,7,11,1973
"blackman plumbing supply co., inc.",c2e25db0dd6af65f9dfc757db8cad6c017985229c02dbc1a,38878,25,7,2006,INOLA,ALODIE,8257,36102,31904,3589558470046392,11-07-21,2,6,2000
"bojangles' restaurants, inc.",b3548dcca7f7536d249f80a2725881e3da704808cc9aa79b,38879,10,4,2005,Mikaila,PAUL-OLIVIER,8258,36103,31905,4540970049490447,11-22-71,23,2,2020
"h&e equipment services, inc.",4f875e2aac0fc3f95a5b8e9d83327180d9b80e1159bdbab5,38880,21,5,1987,Arlin,ISKANDER,8259,36104,31906,565462914252,01-28-04,2,1,1993
san francisco superior court,07344133b335dab80fc83391832ebe9b4bbeb04e6f5688ff,38881,23,12,1985,KEVAN,IHEN,8260,36105,31907,4402687099006,01-16-77,30,11,2000
constructora el sauce s.a.,d9d774171d4f3f8f5a40554c1365f81de91a3555f2a979b5,38882,16,7,1989,SIMEO,YELENA,8261,36106,31908,30364468391598,09-27-74,18,12,2005
amsc,6bc864145979839d74a624fee57971809b2bd6d459e8e700,38883,11,9,2015,ANINA,Itzel,8262,36107,31909,30161244990119,02-23-83,27,3,1994
first advantage,5bfcc310f50037f2fd2c0da9420d0b4d84ef331a178771fc,38884,21,9,1999,Nayeli,STEVER,8263,36108,31910,4932143623783,02-22-87,2,12,2013
health info net (hin) ag,07d5ddc0271c59fa67daf3c947c2335e5bcdc794ebfdc230,38885,21,1,2006,Garrison,COUANE,8264,36109,31911,676317117866,12-17-00,26,5,2000
uniqa asigurari sa,1791d27adfc6cedad29596c3f13e9e2e9fab511dc45800df,38886,27,1,2019,Henry,Bird,8265,36110,31912,4062270448964899553,08-25-96,26,9,1978
ls retail,9ac214cb7c6e10a06f601b73b3441335e2d51556dbcfef2e,38887,2,3,1972,VICTOERE,BRITTANY,8266,36111,31913,4459275940872035,09-24-96,5,10,2003
victoria independent school district,6017b2413b568b838239e2406aa2afe86b7d5adc21386549,38888,14,6,1972,GAIANE,YUONNE,8267,36112,31914,2269198105825180,03-30-70,25,2,2019
pch international,014067e7e06d4d0f39ef8335ff96e41d1a4d36d8a6f1cce4,38889,27,5,1980,SABATIEN,Ballard,8268,36113,31915,4639401453646607,02-01-18,9,2,1979
gunster,b1ad49862c070f61c285be87005eb4c94dbe164c1278afca,38890,22,6,1999,SEVRINE,Gabriella,8269,36114,31916,4463518138595,06-23-92,26,6,2007
legallais,e3563acac7b551779b25d15f8b7311bf477ae19d0d1ecbf1,38891,3,11,1979,Nathalie,Tawny,8270,36115,31917,5582323220375969,06-19-77,11,11,1981
ed&f man capital markets,4c153bc8334c6754e3ccea569fb1f63b04c6f07d323a6ca6,38892,29,1,2011,PICOES,Tory,8271,36116,31918,4590271412449087639,10-23-01,29,5,1993
helse nord ikt,9f1bb231f75408c369adf27700cc9c8a2bd8eea51246f6e6,38893,20,3,1976,Evelin,LOVELY,8272,36117,31919,3503401628296531,04-01-10,3,12,1984
ebury,665a77cde38e440a3d72b56038f61f76334ac7ffb4a420bb,38894,10,7,1980,MEHMET JEAN,Aaden,8273,36118,31920,6559193678702940,12-04-03,28,8,2013
l&l products,04d660df7e1068753c2d630c0fe8f2b0de99cba74f509a0f,38895,18,5,2019,CASPAR,Marlene,8274,36119,31921,3575644036129157,11-05-91,22,10,1995
"worldstage, inc.",a287ae57809192c1573aa525334c880d70c74348eb128c12,38896,2,6,1994,SILA,AWENA,8275,36120,31922,6598402278362580,11-25-73,14,8,1973
hccs,7152378f9db6b6803dd99703c6b0885d27575e7d128f164b,38897,5,5,2014,Casimer,Loretto,8276,36121,31923,30378120470202,08-03-12,25,8,2002
"royal botanic gardens, kew",b4bf7fa085d834a733a6d95ab873d2fcf22926b9ec8f4ff6,38898,23,6,1998,YLANN,MAHO,8277,36122,31924,4864903667591293,05-05-82,24,9,1979
mitsubishi turbocharger and engine europe b.v.,548f3ca68040b2998008eeb4db9eba6f70297082b30b3ca8,38899,19,6,1994,ANAMITE,Malakai,8278,36123,31925,3589800513839247,04-15-21,27,11,2018
versalis spa,feb96198cbc257e07247569081a988cc604d83c08f5721cf,38900,7,2,2015,LISENN,ARTHUE,8279,36124,31926,4714204322875884680,05-14-18,24,8,2020
waves audio,a3e311b8ebb2f10df2c50f51648855758593cb277263e8fc,38901,22,2,1998,Bessie,Vilma,8280,36125,31927,6011569589740537,05-21-75,29,3,2001
intertrust group,6cc31bb3fddd66fa33df7c37e8124038a1b170cc1e74d595,38902,28,7,1986,SANOR,Debby,8281,36126,31928,4685038922740,11-11-16,28,10,2020
access: supports for living,b84d7362f161e3a556a976d9394744cfc718b4d3caeb8f63,38903,8,9,2019,TYFANY,RADU,8282,36127,31929,6538207079003108,04-09-15,12,12,2018
orkyn',ce2949141ac364ace5368c02fec7915bf50f0c26a6d04622,38904,16,4,2000,MASSYLES,Jordyn,8283,36128,31930,4280783412269,05-06-70,27,11,1998
roth staffing,2b500241dbfdbf7932f9ad0e4a4eaad577b01f0a98eb8033,38905,8,4,1996,Ethan,Rohan,8284,36129,31931,180046686992715,01-06-07,9,3,1973
tom wood automotive,71973795ee5afbf51e80661dc9d3ae0ed1b5cfca6b462030,38906,17,7,1997,KOLIANE,Aniyah,8285,36130,31932,4045525984781836,05-16-84,11,10,1994
oxford learning centres inc.,c94ec93be2b367c58e644eea3f936ee3aa5ca5ea63612e43,38907,14,7,2000,Vicie,MELINA,8286,36131,31933,3567415338892242,09-24-15,2,6,2000
endel - groupe engie,4cbf3c8e6ed05a650228cebebab9e2fe397dfb22f672cf1b,38908,9,3,2021,DINNUJAAN,CLEMET,8287,36132,31934,5135807397015285,07-28-08,8,6,2008
