from,EmployeeSID,number_called_type_SID,consent_given,bban,d,dm,Date_Employed_From,City,residence,zipcode,state_or_region,AssistantName,telephone,AssisstantLastName,IP,DateCreated,DateDeleted,Y,swift_code,SocialSecurityNumber
address,other,other,other,other,date,date,date,address,address,address,address,name,phone,name,other,date,date,date,other,ssn
address,other,other,other,other,date_part,date_part,date_part,address_part,address_part,address_part,address_part,name,phone,name,other,date_part,date_part,date_part,other,ssn
"1918 E Ruby LN, Cromwell, 31921, Tennessee",42498,14021,1,KHSQ38127786103614,3,4,1995,3272 E Moores PIKE,Bay Minette,N1H 3Y1,WA,XENIA NNOUG BAKODAKEN,973-912-2137x5972,REMI-PAUL,600c:53a4:9631:3676:78a6:b69b:f7d:7611,2,4,2014,XQKFGB04,473-51-7814
"5 GOSLING GDNS, Wetumpka, 86804, Missouri",42499,14022,1,RCGM44739826021203,17,4,2001,3337 S Acadia CT,Bristol,86911,AZ,Jerry DUHOT,573-692-5513,Merlyn,3ee9:c195:e7ba:295c:7134:27bf:c209:cfe3,27,12,2013,AZMKGBIZ,781-44-6816
"3233 S Walnut Springs DR, Amherst, 91161, Utah",42500,14023,n,CBYR45918910046044,12,12,1995,2637 S Milton DR,Valley,94938,NE,LOUEVA GOUX,1838001899,GUILLEMETTE,af77:5362:55de:585f:dd06:a1cd:8f6c:d014,31,12,2007,JGSCGBSM,077-65-4245
"1055 S Basswood CIR, Evans Mills, 74762, Indiana",42501,14024,1,VXDS71711923946146,5,5,2021,1777 S Park AVE,Old Saybrook,N1E 1G6,Nebraska,IPHIGENIE HILLEREAU,891-651-3393,Chauncy,6f2:9712:b5b2:cc85:dde4:cab1:a583:4911,12,9,1996,BBGHGBEI,304-83-3849
"4405 E Stephens DR, Quincy, 39645, DE",42502,14025,n,VLNO50178486123547,3,2,1995,490 E Varsity LN,Calera,57607,CT,Marylin CARTAYRADE-CAUREN,467-429-8420x9053,Dannielle,7fe7:dd08:3a7c:c3a1:fc6d:3a70:9297:1fe4,5,3,1996,QHMZGBNA,718-90-9728
"21 RALSTON DR, Monticello, N1E 7E3, MA",42503,14026,n,HYXT37193923650684,12,9,2016,40 MASON CRT,Brent,37710,KS,DOAAMARTOUBA MICAUD,7641965086,Tenisha,902d:2fbb:cbc6:2239:84fb:4b37:727d:f43f,13,2,1998,NBDGGBVW,584-22-1443
"575 S Patterson DR, Bessemer, 86575, Illinois",42504,14027,n,TJLV79334885520957,18,9,2012,165 RENFIELD ST,Greece,74790,Iowa,London ZUNDT,589-813-0751x8845,Webb,9c09:ba56:a265:8f5a:44f5:90bc:978:8321,2,9,1970,LXMIGB8X,430-76-8394
"5 OAKWOOD AVE, Gardner, 03736, Vermont",42505,14028,n,ZGZE72672516249016,18,12,2014,12 BRANT AVE,East Windsor,N1E 2E1,IA,Elian CABAU,(871)334-3823,IBRAGA,3db0:8c74:79b:d1b4:6a2a:665f:d46f:ee6c,30,4,1997,CCMDGBYH,101-10-6450
"4400 W Iris LN, Monticello, 15106, MD",42506,14029,1,JBAB45350969404927,31,8,2018,512 E Graham PL,Prattville,61146,NC,BASSEM GIAOCONIN,378-405-6702x633,LEE-ANH,b35e:7f90:943:cf0b:8a8b:1c29:3f03:9a54,13,1,1976,LBGFGBGM,361-20-4644
"212 POPPY DR E, Lisbon, 05404, Florida",42507,14030,n,IARR35719702162566,21,6,1978,116 DUFFERIN ST,Pell City,09511,MA,HANABI DURIEU,4935791653,ODESSA,e70e:e066:4645:cf1a:ece4:7b14:8164:3c5c,14,4,1980,JSILGBF7,189-89-8744
"26 RIDGEWOOD AVE, Bristol, 71361, UT",42508,14031,1,LGGF01212302625102,6,11,2012,44 BRAZOLOT DR,Lockport,18886,New York,LISE-CHARLOTTE MAITTE,413.871.6548,ELAIA,3b47:f944:eaca:d346:5ec1:c31a:8be3:9bfd,16,6,1998,RBQHGBPS,276-92-2292
"1243 E Matlock RD, Pelham, N1G 2N6, Alaska",42509,14032,1,UPYX21784366478085,1,1,1988,68 KING ST,Lancaster,54659,VT,RUI-PENG YARLET,357-953-4722x323,Orla,7954:d287:7ff0:63cc:3121:675b:4c46:f924,24,8,1990,KXPWGBEW,771-30-3610
"45 LEWIS RD, Demopolis, 50235, Vermont",42510,14033,1,QOIL20594432443898,11,8,2003,16 THORNBERRY CRT,Derby,55737,CO,Aubree WATRIN,684-187-7450x6930,ELYA,2b2c:968:8745:8c96:cadd:dc6c:9f2:dcf8,28,1,1975,ZLWLGBJ2,470-04-3133
"3325 S Allendale DR, North Dartmouth, N1E 4W2, Montana",42511,14034,n,XKFU56396054445852,8,12,2005,167 HADATI RD,Walpole,41586,Nebraska,MOHAMED-ALA MESLET,689.412.7243,Griffin,55cd:6e0:202d:ab9f:a5ee:bc9b:6c09:ee13,14,7,1993,EOCIGBNY,208-15-4609
"6 MEYER DR, Sturbridge, 45245, Minnesota",42512,14035,1,EJHN13589904470842,24,12,2016,110 NORWICH ST E,Homewood,N1E 2W9,Hawaii,ANSQUER DESPLANQUE,(528)469-6218,Alverta,c928:d8e0:69e9:40a8:bbb3:9afb:9afd:d746,20,5,2002,QYRYGB78,468-92-2254
"1311 S Fenbrook LN, Walpole, 06097, Indiana",42513,14036,1,NWFX53511205559589,8,12,2012,3932 S Emilie CT,Jasper,N1E 2R7,NJ,Wyatt DEVENDER DAUGE,331-338-9413x614,GLORIANE,712f:893a:45de:9be6:b62b:e8d3:baa:ab9d,16,9,1996,DMCFGBB1,376-73-9247
"273 IMPERIAL RD S, Manchester, 27843, North Dakota",42514,14037,n,UBBV98986395684702,17,11,2002,91 CEDARVALE AVE,Methuen,N1H 1L5,MO,WIJDENE IVIC,947-822-4769,Cassondra,b301:c12c:688a:fea6:5b7f:960a:a52a:4124,20,8,2000,IPSZGB7X,635-01-2629
"128 CREIGHTON AVE, Birmingham, 83322, Michigan",42515,14038,n,KCYV33719146825646,16,7,2021,3800 S Christa CT,Hueytown,61307,Oregon,MELI PIPON,789-711-0433x434,Rupert,c66:334e:6e43:1d9b:7b46:de96:1733:94e7,17,5,2021,DQJRGBHL,671-35-4998
"70 HASLER CRES, Attalla, 06000, Hawaii",42516,14039,1,GPBA38312280976899,6,8,2001,2710 S Adams ST,Avon,N1E 2E7,Alabama,STEFFEN FLINOIS,353-703-9247,LOGAN,2ca8:e161:1d67:5f0d:2356:f98f:cc27:3e98,14,9,1971,RJGTGBMY,100-08-3428
"412 1/2 E Hillside DR, Cicero, N1E 4T1, AR",42517,14040,1,NYTB06633091797901,3,5,2002,253 AUDEN RD,East Meadow,20817,AZ,DEMBA CORBREJAUD,044-963-5064x59429,BROOKLYNN,1e50:202a:781e:aabd:5439:7d05:3947:c00e,2,6,1988,OXAUGBAD,088-49-8388
"76 KEARNEY ST, Central Square, 38598, KY",42518,14041,n,CETI11063976088406,16,10,2011,29 LONSDALE DR,Naugatuck,68353,IL,GEOFFROY BLONDON,179-086-4466x4295,CLELYA,3fda:3cc7:cca1:6f1:1159:2eea:f302:75f,23,2,2014,JBSZGBXJ,142-10-2448
"336 WOOLWICH ST, Fredonia, 60113, CA",42519,14042,n,YPUI52483593804587,29,5,2010,788 SCOTTSDALE DR,Brockton,41637,North Carolina,ADHAME KROTNI,989-905-1380,ANAKIN,2a81:a698:9369:8ec4:c498:bc64:d3d8:ca6f,28,10,1980,IITQGBSX,031-45-1320
"45 ELORA ST, Johnson City, 48993, MD",42520,14043,1,APTV54819686360359,2,7,2020,97 EMMA ST,Fishkill,79838,Oklahoma,NOHER DIETLIN,719-123-3506,MAOSA,75ff:4d89:6706:faab:33d0:49a9:8039:9d0,26,1,1973,NLTIGBTN,608-93-2966
"181 DALLAN DR, Salem, N1E 6K6, New Mexico",42521,14044,n,ZHBD05963666530000,16,10,1994,390 COLE RD,Seekonk,N1H 2X7,Arizona,YSALINE VANHECKE,970-511-8563x8416,Brad,540d:f5a1:3db6:985c:21d2:a892:3352:cf42,16,1,1992,GYLSGB8H,806-89-4794
"164 COUNTRY CLUB DR, Albion, 94975, Rhode Island",42522,14045,n,IVHP04785094898696,10,4,2003,31 BLUERIDGE CRT,Fort Payne,88056,AR,HUGUES MASTROBATTISTA,800-447-0574,NOERIE,5ad:721e:a700:b4ff:5841:96da:54d9:e059,2,3,1970,WEBQGBLM,317-38-6939
"65 FREDERICK DR, Monroe, 67989, KS",42523,14046,1,NTXE80742397033542,9,3,1971,14 CHESTNUT PL,Airmont,17756,MD,HAKIMA SOULABAIL,550-521-7014x601,SOKAHINA,c811:f6b8:45d5:aa82:416c:fbf9:702b:4a4f,21,7,2011,MQAVGBCX,255-18-8177
"732 E Bayberry CT E, Amherst, N1H 2P2, North Carolina",42524,14047,1,YJTY24211871031955,9,11,2004,3523 S Westminster WAY,Mohegan Lake,74779,UT,CHAIMAE BORIAS,592-721-4787x74490,LARS,c2c8:373e:9513:4f18:83d6:dab1:b87c:9f78,26,4,2010,DJBOGB3C,006-05-0337
"37 MOSS PL, Abington, 55417, VA",42525,14048,1,OHOW90479285492164,8,10,1987,163 SUMMIT RIDGE DR,Bessemer,94345,ND,ALEYVA SELVI,764-128-5614x307,SATINE,c4f8:b6f2:c01f:2485:a1b1:2e48:c3c8:bd6,7,9,2010,HZYFGBF5,135-08-2914
"386 WESTWOOD RD, Attalla, 61761, SD",42526,14049,n,SFWH10246675720290,11,12,1984,921 W Cardinal CT,Bay Minette,75429,WY,ADIM DANCHIN,627-790-2031x606,GREG,39b1:a465:fcee:e68f:8e:5dfb:5521:b150,17,6,1970,TKKEGBOP,232-76-3846
"507 N Smith RD, Foley, 83959, Idaho",42527,14050,1,XVBK66092680404284,15,1,1993,98 WAVERLEY DR,Springfield,43370,Vermont,Dayana DARTENSET,9936616440,MICOLAS,7880:c98f:61dc:9426:a8d6:219e:82d6:7c2f,24,1,2019,WVGFGB1G,428-04-2316
"1007 S Grant ST, Oxford, 23557, AL",42528,14051,n,XJDH74922065193244,21,8,1984,71 HARVARD RD,Shelton,N1E 6A8,DC,ZEMZEM NAGEOTTE,063-904-4168x07315,Theodora,b302:ec9e:3bbe:1fbb:af4d:797f:f06f:6d19,31,1,2008,FCXUGBRB,057-75-3390
"3 TERRY BLVD, Fairhope, N1L 1G9, Mississippi",42529,14052,n,ODSM52309787394238,15,9,2002,4422 E Bridgestone DR,Geneseo,94292,AR,ENOLA ZOUGGAGH,678-449-6909x00108,Sabina,633b:2c4f:fa7c:8525:2239:cb1e:abad:70d,8,3,1976,ACQWGB7D,547-70-5743
"397 S College Mall RD, Centereach, 10599, CT",42530,14053,1,NOAZ49228212067075,14,9,1997,4 ROSEDALE AVE,Lynn,14372,OH,LILYLOU DA COSTA MARQUES,748.276.8722,DEYNISS,2f83:8e7c:f3e0:e0be:badd:ae5b:31bb:7065,4,7,1993,JHAYGB4F,020-40-4486
"2851 N Old State Road 37, New Haven, 97554, Tennessee",42531,14054,n,CMOQ18131105729129,21,4,1982,3423 S Oaklawn CIR,Kingston,39275,GA,ZAKARY IDRISSE,578-826-1504x4455,ALLAN,fc65:865b:e82c:4191:8222:73:58a2:7d89,3,5,1981,YQNHGBNG,534-29-8007
"99 WATT ST, Wareham, 75106, North Carolina",42532,14055,n,QVTU01259107008735,18,5,1979,28 MOSS PL,Tuscaloosa,92920,MO,CORALIE PONSIN,6416506877,Icy,6875:122b:823:e7e1:d23f:bfcf:458b:2024,10,10,1977,EQOZGB5S,769-91-2314
"571 E Waterloo CT, Farmingdale, 17344, NJ",42533,14056,n,DYIY39301036966015,8,6,2010,1040 E Chris LN,North Oxford,61564,Mississippi,Sheyla HOFFMANN,926-375-9391x625,FADILA,2296:8a85:d51a:46f9:d8ec:c388:d3cd:c107,4,10,1979,TMJUGBDG,057-61-7118
"859 S Coriander CT, Gulf Shores, N1E 1B6, OR",42534,14057,n,JEYN85821838315713,14,1,2006,1022 E 1st ST,Norwalk,59768,New York,COLENTIN LASSUS-PIGAR,3017191511,CRISTAN,e191:3047:7321:4747:4dc5:bce2:3c83:d952,19,1,1977,ZXNGGBOU,466-53-5235
"511 N Plymouth RD, Chicopee, 18856, ME",42535,14058,n,MCVR05460529902597,12,3,1976,3952 N Rosewood CT,Wallingford,74708,Hawaii,THALIE RECOTILLON,390-667-6499x5052,Maverick,1d74:26cc:f83b:fc15:a37d:f492:b6ba:3d35,16,7,2005,FYHTGB0M,210-79-3537
"603 N Park Ridge RD, Hudson, 06362, Nevada",42536,14059,1,MGYZ88996604416204,26,12,2003,34 GAW CRES,Russellville,94204,California,JOSUE HENNECENT,565-397-1253x05299,MERYDICE,1df4:6def:d609:23cc:1abe:1cb1:bd0e:3fca,19,4,2005,CBHLGBVM,590-46-3570
"246 ELMIRA RD S, Waterford, 42820, UT",42537,14060,n,VPMQ57185465481062,30,11,2021,3 GARIBALDI ST,Waterbury,06764,New Mexico,ENEA KKKK,459-192-6221x55471,MARIE-GABRIELLE,705f:3fef:778d:7618:954f:56e6:bb1f:f8a7,13,6,2019,VKWPGBWC,222-67-6905
"269 COLE RD, Derby, 79951, NC",42538,14061,n,OZQG08518253724054,23,6,1975,824 S High ST,Manchester,71975,Vermont,Rita DSILVA,727.935.3420,LAO,5361:51e7:816:6b34:e9e6:a5fe:d482:cad0,31,1,1979,GHISGBWM,475-94-8543
"11 UPLANDS PL, Talladega, N1L 0L1, MO",42539,14062,1,ITUL87885847055497,8,11,2007,6 VERMONT ST,Lisbon,30207,KY,IDAL ANNALORO,133-168-0114x069,Tatyanna,89b4:52a8:1e2:15f:7a91:a949:6cc3:e7e,23,6,2021,HZXTGBSO,500-36-6967
"85 BRANT AVE, Athens, 71943, Delaware",42540,14063,n,RKXR00341084629054,10,1,1995,88 MCARTHUR DR,Abington,63059,AK,NOELIE GRASSER,259.278.7363,Mintie,5789:26dc:5ecf:992e:9985:5101:1a98:286b,17,5,1990,PBAOGB1O,744-12-1781
"126 CLAIRFIELDS DR W, Bay Minette, 80032, MN",42541,14064,n,JGRI56429788540892,12,6,1973,169 GRANGE ST,Jasper,N1K 1V9,New Mexico,IRLANDE OKBA,(971)359-2617,Cassondra,9a17:8b3c:572:acd3:421d:602f:b88c:dab7,31,12,1989,NXAUGB6F,695-12-9846
"3401 S Cedarwood CIR, Muscle Shoals, 04569, CA",42542,14065,n,UCGD17072593303324,8,7,1970,361 VICTORIA RD N,Wetumpka,28575,NJ,SHELSY HABOLD,458-004-1341,VMAN,3a4f:3508:8eb6:6c79:81ba:40ca:a821:ef51,7,12,1982,MYCSGBBJ,676-74-1362
"2650 S Paiges WAY, New Milford, 60167, SC",42543,14066,1,LFXK51371476356376,17,10,1975,107 SIMMONDS DR,Cheektowaga,N1E 4K9,WY,HARRISH HAMMOUTI,3257612935,Lisha,9268:d845:f34d:9ae8:25fb:99ce:fa22:cbf3,22,2,1989,QLMNGB2M,732-49-5524
"466 E Melrose AVE, Norwich, 38913, MS",42544,14067,n,XSOZ90997072260402,11,7,2021,34 WAVERLEY DR,Brockton,86733,New Jersey,JADA-LIU KORBI,552-304-4679x0610,Aldo,7af6:79c9:c4dd:292f:e7cf:60cd:5471:d74f,27,4,1971,UAAJGB01,019-05-2982
"163 KEMP CRES, Greenville, 85882, Florida",42545,14068,n,DBJL05985364685238,14,12,2016,113 GOSLING GDNS,Commack,N1G 3K1,NH,GREGOIRE GUILMIN,534.969.8757,Tami,b83a:8990:2992:aad5:ce47:92d4:474d:285f,1,10,1982,YRGAGB4L,753-49-3227
"417 E 18th ST, Glenmont, 61414, ND",42546,14069,n,FQIR17926374277768,26,12,1971,64 RODNEY BLVD,Amsterdam,17108,CO,ROCABOY DE LAPORTERIE,(104)415-6071,Beecher,c59c:91be:3125:f44c:e9a9:aa78:7d24:2d24,7,5,2003,GITBGB8R,750-81-4157
"1119 GORDON ST, Seekonk, 45475, WV",42547,14070,1,HLBX77548686946896,14,3,2015,1033 N Orris DR,Methuen,24030,New Mexico,ENEE MARQUESGOMES,(241)513-4446,SIONEY,7fd1:3493:2f1d:c383:bec1:9633:4ee9:82cb,7,11,1973,NTIQGBT5,669-73-6941
