account_id,pwd_argon,IP-6,SMS,Internet_6,customer_name,Person_Name,DATE,employee_id,IP,Customer,date_year,hash,SWIFTNo,ACTIVE_FROM,staff_id,customer_id,AssistantName,Personal_identification_number,account_number,user_identifier
other,other,other,phone,other,name,name,date,name,other,name,date,other,other,date,other,other,name,ssn,other,other
other,other,other,phone,other,name,name,date_part,name,other,name,date_part,other,other,date_part,other,other,name,ssn,other,other
university of denver - daniels college of business,90d76d63b11d6896496ae8d398e423f76f75a97539d7c4abfb06,a716:3f00:b9ec:16ef:84df:f0e5:c134:ec35,751-585-1115x3828,47bc:915f:502e:fa11:7d90:9845:52ed:32ee,Paige CASIN,LE RAY,9,QUELENN,78d9:4bcc:c68a:d2f0:cb1c:83dd:1277:4668,HAESSA,15,7172fbc4d58690a807202825abf84f675890eac2ea080aba98,BVYDGBH3F7P,1999,22735,3160,LOUIS-EDOUARD LE GRATIET,387-48-7388,GB52QFOK92525917774196,cervantesjoseph
mentors4u,34c6a83707317b14a598a52f9e3a7ab25837898885a2eaf341ae,e578:9344:33af:c37f:a0cd:e581:1c52:9442,141-790-6995,b9e8:458:5381:cde8:ada0:689b:cf67:32ea,SANDY SINIGAGLIA-VIAN,LENNEVIPPE,10,CORDANI,d587:4959:f160:eb8b:651a:4e0e:1eba:7d72,Kristyn,20,94f7a75e6bae51aaa36f3a34fda6c444b2ab2a5c5595a03c81,LQAFGBKSF6T,1986,22736,3161,MARIEL GOYENECHE,116-97-5216,GB64APEK50741342220328,smckinney
university of bielefeld,55feb86b2134942b4072ba219a7ff502b4e8da3c0475287999a4,75cd:7661:aa3c:ad3:6ee5:eaec:4c2b:ae95,780-540-2593,1b9:ec4c:d39e:1627:f571:1e69:2cea:55c1,VASSILI SEVENIER,DEUDON,7,BOVE,de17:6425:5924:5e11:ab8e:4dd9:d725:1833,YURI,3,2c150a70e1162a76f9a0256432cafbec9780c3efcd784fffb8,AWHKGBDTUO5,1979,22737,3162,KAENAT FARGAMEL,738-59-9671,GB65AFMP35805387486876,marvinlucas
second cup,ab6c4252eb62a0f87959590882aaed086b7f69798140678cbae9,59e5:4e91:e3a4:16e5:7648:6f3b:698b:6741,195-847-3873x75238,45e0:dbbe:7f22:4847:af53:104f:b515:908,Rinda DRIEUX,BELHADRI,7,GIGOT,68b4:6687:fe79:af18:d511:f853:f338:8396,SACOME,29,284f4558423b76ab323a5afb14b075b60107410dbb2935319c,GMJGGBS7Y8Y,2009,22738,3163,Maida JOUGLEH,579-42-3182,GB70IQDZ62940300432384,michael83
nomura,3871201fcbe735634765c3bd7a9ceb1f0b87f4d5c506ec95dcb8,b78d:192b:8667:ea37:c2cc:9608:b813:c96e,0470515074,32e6:adf4:9f7a:699f:1e35:9511:a743:2332,Eino BENCINA,LEK,3,BODART,e168:c33c:96f1:b9fb:350d:9c52:7110:4f1a,NENY,28,caedef4ed1006459559f1cd1a870a04082cc867692e4f2439d,UCBOGBHOVY3,1970,22739,3164,Agnes YAUEL,092-75-2419,GB37YOFL23291406838268,angela25
tekelec,2716e102e70c617f6bc946a5b89e845c319abbc3c546c87f83ce,c16a:bd80:cc51:e3b7:ad9f:f4b0:1c13:a1b1,673-599-4540x42589,1408:3755:46f8:fcb2:1240:13e4:ba7e:abf6,Lorene SCYNAEVE,BEMRICH,5,MURACCIOLE,a8a4:62d5:ffd6:6ba0:48ac:5581:f450:92b5,HAXE,26,765d2ac63f1457d7b177430a4a524a360b68bfeed5254bbe08,NAEDGB1PHR8,2021,22740,3165,Pearle RAMUSGA,814-85-2471,GB53KWJI21368386529897,williamsjoel
wonderbox,149fd914e8e94b3a69b635d225708c70925564ad8a744fc41b62,ca:4084:7546:44cf:2c13:d1b6:30f6:f41a,2385681374,4e83:6330:ef35:9375:2822:b77a:b10e:737b,HATDIN DIVIALLE,GRUJICIC,1,BLEVIN,7ebe:47dd:b70b:d9e6:bc19:10a7:41c2:5b29,Regina,8,fda1c8d19730810a66cec538cc207ed49610da289d63b34c48,MFMAGBYWAOD,1983,22741,3166,HAXIMIN PEROL,077-38-3416,GB07QUKG74306685158726,jerry99
orange bank,d8255d715ad8a1bdac17f8daa20edd603cd3b1e33de9223f0d0b,f958:6d25:f12:f77f:537e:8018:b3bb:bf78,3721500888,2e92:c5b2:5dd1:86f8:ca06:10c1:42e9:4b08,TANOUY SARINAS,ALHASSAN,12,MOOTHIEN-PILLAY,9218:b5a3:b919:c5df:6018:2a23:9c7c:afc2,MARTIN TOM,9,5f472d6bedce405444287822ee52055f0bafa6c0ce2c8e2d67,OZWLGB9HBES,1999,22742,3167,Terance JOZWIAK,718-30-7748,GB39RMBU08692678935543,julia40
abitab s.a.,d7a8d7b73d23816b7875de190ed60cf019d796e92ed6e957b555,b82b:f9ae:996a:10b9:8090:b13e:7a0c:40e,293-112-1836x8863,6ac7:1a83:3624:890f:9b6b:677:64a7:b9fc,ELYSEE BOECKLER,SAMBE,8,GOETSCHY,4390:8b10:d182:5a44:f471:5b4:3607:976e,ALISSIA,28,300f7d8c056505e120667becfe78aa5114508bf3e97962c07d,PBWKGBACSJ8,1983,22743,3168,MIKOLAJ MAGNINI,098-76-3134,GB47BLEQ61252538786708,danielcampos
esquel enterprises ltd,22752ecc1dd7153c3ea018b572b121eef02d56e3a4b47245e479,a915:a1a2:c12e:188d:f28a:6f0a:c872:62ef,682-523-0902x05622,f34:3902:7a94:de5d:d6c1:2230:5f01:2fc9,BARTOLOMEU LEAU,ABDELKAMEL,10,HINI,5a33:640f:2973:f6c2:2208:4256:ac7:a1b,Annemarie,10,d3101a58b1f68df80afc647019a1e8a9e975b3a8c238f5c5d7,CLWFGBBBQDE,1998,22744,3169,ALEXIA CLOUZEAU,718-56-1438,GB61OQVS65512782311889,markhawkins
butler america,9ca13d4da54898e996c160b30824617eafdb455471e8bcb1b0ce,8cde:666:5a2b:d330:82df:6688:6964:5a2f,201-090-7564,9f7e:6669:6524:d477:61d5:909f:239b:23ae,Nevada ROULOT,MARCHISET,6,LARBAUD,2910:26bf:76bc:6837:95e5:ea49:a04c:91d1,Jayne,27,352eb25ba362e3b0fffe947c829aa96be1428af9f9fba6eb9d,VXRWGBG9M1L,2011,22745,3170,SOUHA MALLEK BAUDEL,443-73-5675,GB32KXSQ08950358383364,jessica03
alberta health services,92e84822b338cb8a892693e6a20e2c31d858012c25bea0db79f8,2bec:3267:7032:11b8:bdf1:b5f0:4c2:c702,069-849-8872x38136,9620:d977:b88a:b6d7:6bee:2921:3539:e52d,Morgan ACHIOU,AMIMER,2,GUEU,928:603e:cba0:2426:8989:cb6e:9b:612c,ASTRIO,4,07fba74b50dc424882f7b473b46c7bda2eb791c5a71498e2e9,XNMPGBNF6FP,1978,22746,3171,AVRIL WAN,402-23-7674,GB52RPKU06614540460521,andrewjames
bateel international,aa864c0fd978bdec8c29b64b412f17c313c7ba12afa3a789f968,6a72:cf39:133d:233d:d8a2:30c3:72ce:a02d,797-148-0266x62733,900b:27ec:a92e:64b9:fc0d:942b:65f4:88cd,RAGULAN LALOUETTE,HEVERT,11,GALEOTTI,cc6b:8c5c:63e0:558b:7a19:9206:59dc:d700,Harve,26,004aa048604b2bf4c6a6bd009b287351bef074ba4bc25455ec,WOOZGBGCQ59,2006,22747,3172,DIODORE FLETE,677-17-4492,GB96NHNR08926389637696,fullermichael
harley-davidson financial services,d1b87bd618d1bd12f49764712573f0fa2e86b22b7f1bad6bc9a3,fff5:9e3:8e51:6c3:8485:7607:af86:8a27,790-210-4055,98bc:2ad:4428:783f:e924:66b7:1cc5:b0a7,TALINE BALUHET,FUDEZ,6,BERNARD CONSIGLIO,120e:6c53:692:1e37:7ae9:2224:6fd6:73e3,HAY-LEE,5,94acda41c7c3cb6aa26372f2291112c745566f594b0a0cfee7,JOIUGBV9ZDG,1972,22748,3173,Dafne DECOURVILLE,721-92-1413,GB14VUDE32503173994441,vcraig
kompanija dunav osiguranje ado,cacf5b6ac3f58b1f888101adc4eaaafffac81d6f108e34ba6c2a,9fd9:5689:baf1:9dba:89da:38b2:48c6:f9e3,(570)265-3854,45dd:41c6:1f73:8fc0:3692:dee1:e43a:e93,KEMPF SAPI,LAMIRAL,1,LEYMONERIE,c072:8cb4:36e4:dfac:211c:49d0:e2ee:f903,Elana,7,17105e8bbf4ce926fe5f4229744bb6810c0a9e0e887fabf00f,DEUQGBU00UZ,2000,22749,3174,ELEMEMT BLAMPIED,648-25-3006,GB52JAOR18368632291091,dbell
centre for sight,45e7e912726353781d40fbdb5b06662face93c21d9633b918649,2c42:ea62:e63b:7733:f65:8d20:1311:8d7f,990.027.4030,726b:5717:3974:f5ba:f4c8:3989:729b:c693,Nallely CHANET,HESRY,11,REVEBCHON,1610:749d:f075:28c4:11a6:1399:eb9b:4a36,CATARINICCHIA,4,137459e55185674415142558077eae8ebf8c5e52f22986352d,RQFUGB4PGIT,1989,22750,3175,LUKASZ SICOT,840-78-4392,GB17OXBE54542641785208,maria84
genuine parts company,dfedd857dd2d8a5a0d4fe11baf2a66364d61a5f0f7c5651fc740,f439:c7a5:fd66:3eca:d9c2:e0f0:3db8:48e4,707-116-4587x283,118f:646e:bbdc:be92:d310:538b:251:8f5e,Marinda MADELAINE,DUMONT,5,BIGET,5861:39c3:acd6:1e84:6d89:1cb2:e988:211,Kade,20,cec6974cb07abdd3083bb57a8b3fc3c1daa28ee6c9224e2748,YUILGBKGHBE,1991,22751,3176,Yasmine MARIANNE,618-93-8199,GB38BFQA18159877676288,karensanchez
"bell techlogix, inc.",726499facdc47033ceeff486fc2546298cfd24c7ef15905c3332,d63e:b02f:90c8:2f7a:d69d:5b9e:2ce5:1b1a,248.640.5925,d2e1:39d7:f287:240:ca89:e638:4c11:8675,Boston BARRE,BDIRI,11,RABATE,2f90:9716:d117:2890:b469:fcd4:502a:7b80,Hamilton,19,1fc19099d4e31c44b5475a6ad72b08148629d207116d890056,DAMAGBC1LLB,2016,22752,3177,Chase LESTER,537-79-7613,GB77CIZD53267219992617,william40
otto-von-guericke university magdeburg,05c07b7d99bc94ca4dcd085a5ac97f8655af88466f52684af925,aed8:f2f7:44fa:1897:c4fc:e79c:1d07:96eb,747-298-9756x2649,2baa:d88d:bffc:1b12:1a7b:980c:6209:40a7,MILAN LEMBEZAT,KEUSCH,3,SCHENEIDER,63a5:6e92:b772:c2bb:ee48:5ec5:eb8f:c470,Zeta,15,df162fcdf2fdc37395407e94237f53f530c351848a8e9fca98,WUZEGB7A2IQ,2015,22753,3178,ALANN LABUSSIERE,803-59-5902,GB14AIYJ93277692223870,justin37
air france industries klm engineering & maintenance,f6bef9d347fe4d95c3613d51add506f3411237467cacf75313b3,5180:bf8:6bee:e953:f37c:5d11:7db2:c962,324-897-5722x880,6d59:c1bb:e0cd:671c:42e1:c05b:284c:434e,CHARLES-EDOUARD BOUATTOUR,MAUNOURY,4,BEN YAHIA,4254:d1d8:ee96:a40f:17dd:cd70:acb4:6b8b,MARCELLO,1,42e6d99f152190a014a6dadbe7ebfb42abba8d33b216789f25,NRNBGB1NVHQ,2005,22754,3179,TELMA TROCELLIER,754-21-4107,GB65OMGT89405008018323,mbeard
commission scolaire marie-victorin,11828232807aada4eb333a9ba3529ab43afe197a94c96f20fc59,83e4:95e3:df12:9e16:c719:dc05:511f:b36e,3630111459,3d32:8e90:9378:150c:b313:7552:5f05:7dd4,Lashawn CREVALIER,SURAL,8,RATHUY,54aa:aaf3:af00:469f:363f:bffc:dd99:1136,ARENE,10,df16040ed2593be3c187bdc071bb220beba8b5d4e0da75081b,UKGRGBTNWDV,1976,22755,3180,CANOICE ROFESSART,433-69-0085,GB08IMMU96421471925042,benjaminsullivan
berkshire hathaway homeservices real estate professionals,0d200761bdc37c10d2b2e5ddde4d37dc4647113c5e753ceea3d9,7169:28e0:f267:40fb:6de7:9a7b:f21d:2850,200-107-3666x35177,ad78:4034:1700:209f:1d82:10f9:5ed8:48ec,Blossom ALLAGNAT,SCAVUZZO,11,PERTHUE,132b:2d2d:9351:b364:762a:c9cc:aed6:c33b,GOURDAIN ANTOTNE,3,2cfe451bab900e5e15d68a78149f152a737829cb645474a2c2,SBLKGBEL1WU,2004,22756,3181,MAZENCE TARCHER,805-05-8062,GB26MRCE43504435568513,lewisjoseph
group o,28119e933abf6fca184e3b0a5738246542990a4408601cb9ef95,2c93:6af4:c1a8:b2c2:a660:46e7:2621:cf6f,005-124-4619x914,99bf:a431:7f0:2707:d459:b16c:f674:8999,TESS PICAVET,CASTRO,2,KHERRAZ,11ee:8aff:ba20:1911:e0bd:8198:5078:185e,Mckenna,23,3a9e1ad76f8487c8016ca94552eb3d32070d5dc808b103602d,FHCOGB9NWRN,1981,22757,3182,MEDI SARCEY,110-49-0729,GB87GNNU09916359159984,ballomar
canada life,c652bdac3f47b6c6cda287fa38cd52a8289b37b682d7869c3f85,7099:ff55:9c7:be20:28ec:392f:33eb:eaf9,557-051-9948x0931,f773:6c0b:309e:e63f:a22f:4ab:7dfb:a54f,IMANI BEAUFRETON,REIGNAULT,12,HADIONE,a756:1766:3e2d:21be:1cc9:608d:e826:cb8,RAPHREL,13,9c0183e20be045cdcd8c04a33646f513a72cfc28aedaade4b4,DGTIGB1GIV1,1992,22758,3183,Debrah QUETU,049-52-0166,GB02HUTT66001708266539,becktroy
'business works',23f73408557211ccd681b82e9d9f9078f467dc5c76ac81a9e0dc,3c9a:3401:6602:87b9:6619:a68c:4c3e:6ae,143.404.0010,a4ce:71d6:bde0:10b9:b34a:29a4:8a2a:bd08,Anibal HACK,ESSIFI,7,HORECCOU,b843:40df:a500:a417:6e32:28b2:cef9:e1f8,LEODAI,7,764baf32a9de2327805c9e6393c9c1667e672651c2da026cae,MIHTGBCZ0T7,1980,22759,3184,Mettie RAPOSO,435-52-2418,GB29DEVH02831165870768,michael84
kildare county council,a22ab46d4c5576ba2c663673e6b92173d8f48bd6ab266e851440,1605:22c4:560d:ab6b:f4c9:73a2:ac8:9ed5,799-283-3142x00319,a5c0:7d5e:5120:cffe:f376:21b2:81d3:524b,ZACHARY CESARI,MAISONNAVE,8,BOURDOLLE,eeb3:5521:fdb2:aab2:9651:3cb8:dd8a:6540,Sanaa,7,08ee1f76ac203928ac13fbb69dd1cb56cb5c04787cfff76429,FXNOGB21I20,1995,22760,3185,MERINE FREL,342-93-9341,GB14WUQO49153092499735,linda07
smiths detection,832f1af5028822c6e6e4b5a232dfbbf1c396aa00f391fbec57a0,a194:407f:4da9:78a1:7cf3:4c37:c5bc:7061,8777570165,4c7f:a37a:3876:84b7:9c7d:de6e:5dda:5948,VALENTIN JOUNDAIN,OUHANNOU,12,RUFFRAY,b3ed:38f6:d733:2614:8f2d:363e:aaaa:a457,PAUL ARTHUR,1,7847ac23df44c5b766e59d60cad4175d780b28af3fecce34b6,GVEFGBRD5CN,1973,22761,3186,Torrie POILANE,009-69-5507,GB67RDBT63363867967453,leerobert
bureau of reclamation,5edc60b76110ac6af2396c004884e1119ffde8f9d0ba9915a8ec,694:7af3:c0f1:471d:1481:ca26:bd2e:6ca9,396-626-1213x26744,da7a:218d:f355:254e:2119:4fdb:2500:fe50,ELTOT GUENIN,LE CARRER,12,LE PORT,823d:b9a6:c96:7bd7:5ce3:5405:3e72:eed,BILL,15,d5998fd822a9c37457c5c2d43d41883ed60cd28ed3727c688a,JFDUGBKI8B9,1985,22762,3187,ILIESS ELIBRAHIMI,616-41-0578,GB59VUDH20322353722796,heather83
parrot,25da5c36cf431a8a4df252087670b69e5258d102ac30ded73637,a3a0:a4e4:ffca:d7ad:d9e7:585c:7b4a:a00a,721-311-4085x7956,14b1:38c4:f549:d56e:81d1:7311:36f6:78ef,Simpson BEMAGUE,LEFFTZ,1,MIGNET,8702:a3d1:5516:a302:3a6c:86aa:4e4d:d015,Susannah,2,39442f814eda6432152caea4b0b7cfc2474df26f44e23a0c0d,ZPBAGBWC70P,1987,22763,3188,Alison ILNICKA,532-22-4694,GB20XAHD06034870340225,amanda48
dsquared2 spa,b770f52d931e3d6a194dab13c82545e08f5b4e44ba2663ff6642,ac91:742d:84f1:500d:f092:e29d:ae9c:8070,873-583-1999,59e5:8052:775d:3579:98bb:6f93:3569:7d71,Odalis GRUJIC,BERTELOOT,11,SABHI,1b40:6c26:6cf8:8e81:8a9:2033:616a:f98e,ALICYA-PEARL,21,2f71cb988e2c3079d5cece08b8129c042a69cfc134ce43780b,IXJYGBHW3XD,2001,22764,3189,Buford TAURAND,496-11-8677,GB45ZHQS25848421063712,carrollkeith
ppi,107119a24d66d81289357d35cf541a3f3cf194e094bba684d237,223a:32b9:2d0a:91ce:d604:2251:bad9:4e0c,534-174-4290x53659,a525:1528:4195:3bcd:2a73:71f2:3e17:be8d,CHAHINA HERMIER,PESCIC,11,IVAIN,9b44:be7f:eca2:e618:2be8:347c:59c:f3e9,SASHA,16,0ee2b83e6036c387852bfe1ca28cebbc6b349b57e5b34c8164,RSBDGB2F563,1973,22765,3190,Senora WYSOCKI-BOUILLON,870-83-0810,GB20BTEU50799744506871,olivia91
university of valencia,2ab8ffdb59aa4ce2a4e474ee41e14b81a75de8dda3e61e851670,4504:7a93:81c0:5a91:926f:d269:ef98:b59a,013-515-8471,2a8d:6084:1787:7ae0:c153:5af2:cf40:7485,ELEONA TITON,BELOVAR,2,CHASSERIEAU,65be:8c84:749c:f45e:7799:9149:2356:15c9,Nobie,25,4f3c66b224e0d742336d11795a21d5fecf479c59484f04d09f,HAUMGBUPCUF,2015,22766,3191,BOUZEAU FLAVIE FOURCADE-JANOT,442-77-7570,GB72QJRD70178359687363,dillon32
northern ireland water,cdcdaf0d82d8efe0bac48b37a8ab6eac9a8f1167e7855152b3b4,10bc:c67f:235a:7080:2429:ac35:3ea4:20e9,023-878-2831x52300,495f:9add:64ba:1197:40b8:5921:759b:2d6,CYBECIA COTTO,YONOU SENGA,2,PERFUMO,6b49:46f8:898f:e794:4ed9:eafc:5bb1:df9e,VICTORIA KIM,15,1c1458f3e2a6a36bd14c3fb37f2f5642ab417681317a638e33,PCASGBF5KSG,2007,22767,3192,Kimora LIBAR,030-39-3389,GB89DUPV34206490909324,cohentiffany
stephen f. austin state university,1e513b2e82999246be56a5b456d2901fbe16b94f1a6a7c21ea57,b9a7:ebf7:ede1:9e0c:1ccb:52eb:3a9e:714d,946-914-5718x2642,2f8a:f914:f17c:a74:a769:df96:4c9d:48da,Maebelle KSON,GIDOIN,2,FAUCHEBUGAN,f108:ad6d:165c:3efd:9de6:799e:572f:a4db,Neoma,26,8fa65f37b13ff42db866ecebf1f295d817844e323f900ba7e3,VBFYGBFECLX,2022,22768,3193,TIZIANA KADDOURI,462-10-5385,GB63IFTY36035143729110,kimberlyvelez
"reinsurance group of america, incorporated",f3939cb4bae7398e6d5c0fecfbcb9ec0eaea1958686e84bbec69,288b:9ded:4f05:6feb:64a6:7dbf:3824:3c7c,(204)192-0353,35fe:3788:3b15:94c9:ec7e:346c:d3f0:49a6,THEA SAPPEY,SCURI,1,BOUFERMEL,f801:eef2:306e:2079:5baa:8095:af2b:9cf4,Dionicio,31,1e8eb37f99f1556b04e86a2d9ecfc724d86a89f60ad8ca75c5,WNFQGBLRWDZ,1995,22769,3194,Hayley LACOUPELLE,892-49-2067,GB59WDVX06216438602837,kevin50
nisum,ee4a0d6801fa8c703fd80346e4fcc1ceabd15583e2c5952bbebb,beba:41b6:c055:b241:94d4:cf73:d12:f859,450-016-5589x5400,c383:1c8f:cad4:e5f7:8999:95d1:4bb5:ea91,KESIA PELTRAU,PAQUIER,2,TREVIL,9f04:a094:c4fc:ce52:bac:b7ed:35fc:ce18,Pasquale,9,fd7c8d85d684af4e21e0e9481f80c6d82d700504d9f843c000,YIRZGB3O7PX,1985,22770,3195,NOLWENN DERANLOT,401-63-9737,GB36IMHC90372906529478,phillip37
bukalapak,cbe72f1e33518488fd32c93a7336df1962d0832ca93b028e33c0,45c0:fedf:4998:3e69:b4:677:ac91:2d1f,212-040-1780x4297,7a9f:d08d:3f6b:c02a:a228:9c6:fa7d:8c33,YONY BONFILS,MERILLON,9,SEGARD,9964:4d05:8a4:6187:d9d3:277d:e27e:a312,Denese,19,4f4996bf95ec8b9c3819b5bcf39987f1730493d6a658c4b011,FUZMGBCDPHX,1986,22771,3196,Jo PINAULT,124-94-4034,GB47NYPQ82710755380108,acarroll
img worlds of adventure,30b1f681e4871473cb9a1e137e80f28d5dcfbd268e2e7d6fb3ad,99de:ded2:6bd6:a4c3:1b42:3209:ba0e:a491,309.043.2085,f86c:fc8f:b472:bbce:ef8f:a7bd:933:1bd0,KAYTRINE NOURY,FILIPE ALVES,6,LETEURTRE,43d1:24af:fc59:4391:600d:297b:6d2d:1eb4,THEOTIM,2,571df85f9e74ffbc9a036b255f4505b5a93fdba848cebd04cf,KHAPGBB1KLL,2000,22772,3197,Devan DELAHOULLIERE,819-60-2299,GB09WNZF50049094703619,qharris
eqt corporation,c77b7e619175ecde3ec24f6047e11fb1092c41b5f83feaa22787,9de6:5341:e0f0:62e2:6e90:51c2:afcc:a37c,9644939858,698b:277b:9e6a:f17a:753b:4558:43a9:480,Scotty BOOGARD,ABDOULINE,2,TARROU,3cda:1c90:55f6:5a:e577:f4b3:7d69:35cd,Ingrid,7,9ed2a0721eab0b2a3b7977b91f886c806cd34e4bb4c75e968c,NBBKGB36EL7,1980,22773,3198,MAREKA LEPERETTI,010-59-6511,GB30YAUB79479218099670,michelle57
cbiz,07e85ddacabe43d86a1b5116235d89d4acf914339fd9d1001ae3,66f2:eea8:134c:d021:4239:47cd:3c17:7301,(620)693-5846,4110:92ed:e12b:255b:2913:4277:3823:c10,Dusty JALU,SCHLEISS,2,MOIRON,aec1:e1c8:bc7c:8fed:b5ad:774d:1923:48d4,MAR,29,db8bc53035835401ae545b7c11ed68bdf2e5adb3f841344756,MEZDGBTMISP,1996,22774,3199,TRYCHIA STRIFF,351-54-8331,GB03YHUU93282164576820,robert67
bigge crane and rigging co.,718755db4b9fc2b4061e1d2d863466e1fe0e847a99a49f792944,bc52:5228:b0a3:1f78:84c:14a6:5da8:a351,315-366-6274,bfea:4f0b:c174:6917:fef5:c7b6:b0e6:3917,NEVE SLIM,HAMED,3,LE TREUT,f4f4:477b:302b:fa95:2ea:2746:3548:6200,FRANCE,25,64db055e06da6bd718e38fa3147d8b1ad0544b66053d499aae,GBVQGB73JE6,1971,22775,3200,EIJI FAUCARD,345-50-6545,GB36BDCS98757107006193,hillvirginia
usa hockey,23f08682c6677eeb5dae36b6764f694c96fcac1dbe3ae4768a1f,96ab:208f:ad7f:539b:1ae5:d93b:ea4:90e1,354-802-2807x563,409c:1d16:e61d:3cc4:9590:cd91:1d50:6455,QMAD DEVAZELHES,CART-GRANDJEAN,5,DEWIFRE,1a10:542a:84d5:17d2:2a0:e5cf:71a2:c971,LAO,7,43a805f06f5407123e7538072dcdb0aca66777cd447b41464a,DJSSGBW2H8D,2011,22776,3201,CARMINE LEONARC,330-56-5364,GB73XQQP95626364894739,tcurtis
phillips exeter academy,18b767a53ab172239706dbc8e122017d8c288d7e27952aa9e3f8,8362:132e:50d1:fa7c:4a65:792:ea1f:9692,491-655-4782x15947,3e45:3c80:b49e:8a2f:ba58:9fac:2223:9b6e,Ardell SCHOEMAECKER,VIGIER,1,ZIMBAN,1585:10a8:278:695a:f907:4e8d:a1e4:7bc5,Sibbie,25,7538631697e14e2493bafc90086ecd4d5ba7b757598801dbaf,UOVFGBAZFRP,1970,22777,3202,CLIOT ANNABI,175-54-2706,GB83SBEA66561806707067,mcgrathsean
triage consulting group,5251a2bd119a8eb63a9c93349ad6454ee90b580c68a8ee6f0da7,e09a:8a93:61c4:cfba:c566:fe9c:dfee:89e8,522.781.4820,2b2c:8f6c:a902:dcef:6892:6409:fb9f:45ee,TATINA ARABIAN,ICHOU,9,JOUENNE,35a7:bfa9:b040:8ba0:b279:1850:58d5:217b,Taurean,22,1867f6f79129ebdfda2aa550f0bde9aebdd3bd169f9cab33d9,KEHMGBDQUCP,2009,22778,3203,PACHA BURY,037-60-2949,GB29KJGR52318987634040,lauren53
pt. trans retail indonesia,228a0f66d1eea1693122dba8187c3c439cdda96c376c5466e746,2eb1:50c2:34e3:dfca:d264:c2ca:c08b:4cf6,(435)988-8713,fb12:410d:a0c4:be9c:687e:986e:6eaa:4385,Genoveva PINEAU,CRABIERES,11,ROUX,54f4:8579:b3c:2d31:420d:bd87:f614:4801,Macel,28,fc4657ebdcfe98f9d78e8f206a742c2a879602864ab85844ed,PBBCGBUQJWK,1994,22779,3204,Williard STEUX,829-93-4139,GB71CBQL44135082073732,uramirez
searching for a new job,aeb9d0c9005d456df710b1411997b8695b58d49eae2aa3382edb,3d8c:345c:ac76:d3da:e255:8b81:7fba:d914,094-849-6620,8430:3423:b155:5326:7a8c:fdf3:faf4:e213,EHHA JENNERET,DUBROCA,4,OUJARI,af4c:2b56:6053:420a:64f3:f56c:212d:6db7,MIGUEL  ANGELO,11,ebbe85d8386b67d99ec581ec6adb535f23832553980de029aa,ZAXWGBQ1QHK,2003,22780,3205,Ovila GOULESQUE,577-26-8168,GB07FGHJ80530221444580,aevans
der - departamento de estradas de rodagem do estado de minas gerais,d8f182040e603c7214b6adad2e4ba51d5645e610dbb1f4f24dea,db56:3506:df77:8324:a82a:c2c8:c8b:aad7,751-953-6424,4572:d407:f97b:32bf:e83d:706e:3566:8fe8,JONAH STRATA,TONNIER,5,GROSELLIER,ce0c:3a46:ac4a:bdb4:b4f7:d439:fa40:8a1,Haden,19,bffb69d6a40c131483f8bcb056974a01aa3dac4f9f589421fe,WUXIGBTIBPZ,2010,22781,3206,Vicki RASSE,252-22-5603,GB03JFAD82196015570174,batesmichael
"home-grown industries of ga, inc. dba mellow mushroom",df5b9a385eaced99d56a5ad68296feb7941af597d6eedd22a316,4bfe:3ecf:7efa:4e92:fe31:7d5d:da3b:e2ba,759-766-5462,8236:d0a1:4310:c759:229c:7f9:bae1:d8a1,HIRINA BOYER-QUERO,YABAS,7,AMALOU,9cfc:5ba0:373:edec:8c19:48:2d8e:6f7a,Jovita,30,c8e9969c98c06893093c987f8e62182187207069a89de2097b,RSLLGB3GNP1,2007,22782,3207,Kwame CAFFE,418-70-3544,GB66YXTB99235049678189,dglover
esdege-reigersdaal,1a7f7c5f3e8a15333da9927576b0cc2b7213320fe4c479413ef6,119c:df40:9b1c:70ea:af09:7520:c419:cc18,827-578-7536,abb5:79:47e7:9d12:cc53:c3be:93a9:4328,TYMOTHE WILLHELM,NIERAT,1,TOURNAYRE,21d3:3775:d3eb:ea25:f9c9:79bc:ccae:8114,LORIANNA,31,353a0704576218384bbab405cdcba3c4c3546b212bcf2b7a26,LFJGGBRTBI0,2015,22783,3208,Kim SCHUWER,502-53-9114,GB57FHQB97160366308391,william38
home care delivered,a2336aada027770fe651e415910cdcbf43bb370696f3543b8cb5,1996:e704:111e:6c98:3d34:a9de:5cc6:1230,115-516-9230,1c09:1e8a:cf14:153a:9792:5061:4feb:9649,HAUD COYAC,DEWINDT,6,SAULET,5728:3b1b:dfc3:296d:7ae6:812e:633:47b6,YANA,13,bd16a40f9646e6f4cbcc55b6a1c9f2ecc1a06ac3ebd710c2ad,PDQOGB5Q1W6,1982,22784,3209,BERTAUX LOUASSINI,217-67-2279,GB55WWPS28634079585372,parker65
