AddressId,organisation,Price,state_name,IPv4,bank_code,CityName,phone_number,zipcode,ZIP,customer_surname,ADDRESS_NO,city_name,CNTRY,IBAN,EmployeeID
address,other,other,address,other,other,address,phone,address,address,name,address,address,address,other,name
address_part,other,other,address_part,other,other,address_part,phone,address_part,address_part,name,address_part,address_part,address_part,other,name
178 CARDIGAN ST,università politecnica delle marche,-4277.7,Montana,179.252.131.18,GB33JYLS38256562700558,Springville,495-893-8892x174,16272,06789,CANOICE MURIE,42 PARKHOLM AVE,Northport,Hawaii,OLXTGBXC,LOU - ANAIS POUTEAU
1111 S Henderson ST,jw marriott,6375.0,AL,205.4.80.191,GB98OVRP21070525464750,Cobleskill,(939)722-5437,64379,99531,Myron VEAUX,2677 S Mccartney LN,Quincy,OH,GSKXGBKB,SEFA KUOR
351 S Madison ST,unionen,-9674.0,Michigan,212.106.134.81,GB21QDVG87236833986777,Phenix City,(890)382-8623,N1H 8B2,55737,Imelda GRABARCZYK,356 E Melrose AVE,Old Saybrook,Iowa,LHIOGBJX,MOUNIRA GRANOTIER
21 JOHN ST,pride industries,-1465.0,Louisiana,177.177.221.246,GB93GIJU47984811601605,Winfield,813-259-7626x515,81588,01863,Hughie MAUERHOFER,6 GRANDRIDGE CRES,Fall River,WA,NUACGB6O,BENALI EWEN
268 VICTORIA RD N,scg,-5011.23,Oklahoma,219.53.34.17,GB65EVXB20226401737981,Brockport,669-718-6812x1115,96008,03604,DAYAN DANEY,739 E Winslow Farm DR,Hudson,Oregon,MUHDGBR3,STEPHANIE GOURHANT
215 IRONWOOD RD,campus living centres,-8914.42,LA,205.51.230.208,GB48XFVD04995549038633,Lancaster,331-041-9721,N1C 1A8,17594,Tanisha PAIXSAO,760 E Sherwood Hills DR,Fairhaven,CT,ZKSYGBMD,Wanita STOUTEN
417 E Wylie ST,jawwal,9282.0,Kansas,205.208.46.12,GB64VAGH40951841336725,Northhampton,282.369.2828,21840,41798,AXELLEROMANE GUERDER,2685 S Mccartney LN,Tuscaloosa,PA,YTPZGBN5,Chante FOURASTE
1006 N Summit ST,nicolaus copernicus university,8870.9,VT,106.176.221.60,GB81DKBL88483863554141,Waterford,786-811-7313,35899,32619,WYATT BEDEZ,62 WALNUT DR,Phenix City,Iowa,OOCNGBD0,SAMIA BARONNET
515 STARWOOD DR,verslavingszorg noord nederland (vnn),-5179.34,Wisconsin,171.51.107.115,GB35OUYB24924233133706,Pelham,965-075-9633x1808,N1E 1N7,42280,Casandra EMERY,132 APPLEWOOD CRES,Hoover,Georgia,MAJBGBFY,Gael DORSAINVIL
324 STEPHANIE DR,lucas group,-8412.0,ND,153.251.133.46,GB71LXEU48573079897169,Phenix City,169-121-1431x7351,82671,21746,Danika COULOUMY,3051 E Amy LN,Glenmont,RI,XXUJGB97,Colvin DUMARTIN
904 E Maxwell LN,chg-meridian,868.0,New Mexico,181.142.23.111,GB94YVNW21306641151337,Latham,271-544-5965x50529,33098,62594,SOLANN DOUAL,9 HAZELWOOD DR,Ware,Ohio,BLCYGBQT,Moira RAVRY
190 STEVENSON ST N,ohioguidestone,-3349.65,AR,15.245.82.83,GB74LAJW16608071812072,Russellville,727-722-5097,N1H 8E4,N1E 4W4,Verdell ABBASSI,120 S Park Ridge RD,Sylacauga,Virginia,PKXEGBUP,YVON CHANTOT
3266 E Braeside DR,tacoma goodwill industries,-3681.0,WY,72.132.46.255,GB06DYOD15198909355277,Chelmsford,(973)424-2290,57097,53909,Ismael BREINER,22 MICHAEL PL,Massena,DC,QEFSGBK0,THEA TRICOIRE
1418 S Madison ST,asics corporation,6401.1,Arizona,203.203.196.142,GB19CWEG24805076261031,Derby,(638)741-7434,29508,N1H 4N1,Brooklynn BRIK,33 ARLINGTON CRES,Oneonta,TN,UODTGBHE,ILAN SOLLAZZO
89 SCHRODER CRES,pt perusahaan gas negara (persero) tbk,-8563.34,Montana,19.119.3.140,GB92TMOC55292033372138,Calera,5331684351,03833,36433,MARJORIE SERRUT,15 FERNBANK PL,Monticello,New Hampshire,VRPFGBJM,Elissa HOFID
321 SUFFOLK ST W,hibu,-4948.1,VT,98.246.181.208,GB62OOQD68110157483130,Framingham,992-569-7739x388,19708,77529,DAYMONE GARCONNET,1423 W 8th ST,Hamilton,Wyoming,BDOSGB3C,Byron ESPENAN
1612 S Pecan LN,institut français,-939.23,ID,111.123.186.208,GB45AEDP16046522591698,Foley,618-062-3570x2485,26749,65139,CLAUDE-ANDY CUETO,424 N Washington ST,Hamden,Mississippi,QWVJGBHS,DENY KAROUI
248 COLONIAL DR,abs group,9823.0,ND,222.246.89.115,GB15ZLXG82718241002725,Albany,001-097-9005x51119,20479,49161,Montgomery PUGGIA,3173 E Covenanter DR,Daphne,CA,INVJGBZM,Joselin ATIR
80 GLENHOLM DR,loyola university health system,-8357.0,MT,125.216.161.39,GB41NDZJ88959668161049,Albany,049-427-3289x380,N1E 5H7,70508,SIYAR SIMAC,2003 S High ST,Greenville,KS,SHFDGBTN,Danial DE-GEILERE
171 SUMMIT RIDGE DR,teleperformance italia,-4514.74,NV,152.192.28.149,GB20ULLD31788800254081,Brockport,723.849.1892,22784,56137,AURELIEN THER-GUILLET,14 PARKSIDE DR,Fredonia,Oklahoma,SMTFGBMK,SHAHIME VRAND
97 DAVIS ST,new york public radio,-8180.66,Tennessee,171.12.23.206,GB53TIKI05308759605158,Birmingham,7720889081,58699,19874,GLORIA MORISSET,14 CAMBRIDGE ST,Fall River,Nebraska,YPPUGBHP,MARZIO CERF
520 N Grandview DR,hac,6550.0,Georgia,36.44.194.131,GB69WMRX18291514774897,Eufaula,164-481-8773x80049,N1H 4Y1,72402,CLOVAN STRICHER,1345 N Lincoln ST,Clanton,Missouri,FEYFGBD1,MAELA FAISY
1210 E Chestnut CT,public library of cincinnati and hamilton county,8977.0,VT,26.96.167.134,GB28OOTK08934060935603,Methuen,717-328-4331x7567,N1H 7P1,N1E 6S5,Janie PREVAL,3502 S Violet LN,Seekonk,RI,SVSCGB83,EMILI DIRRAND
400 N Morton ST,family service association,3226.0,South Carolina,73.202.137.86,GB18CWDR85347086115155,North Attleboro,668-020-7949x121,67001,N1E 6W9,NOUFEL FOURN,24 CARROLL CRES,Lancaster,MI,CIKMGB27,PLEUVRET MAIGNANT
633 N College AVE,georadar levantamentos geofísicos s/a,7961.65,NC,126.243.50.198,GB69IMNF63614571969930,Amsterdam,0376656342,14876,20774,NOA MARIGINIER,224 JANEFIELD AVE,Massapequa,Kentucky,TRSDGB3S,Phebe GALPIN
91 MERION ST,uline,-7220.36,VT,158.118.2.97,GB44LFMI62278566341611,Seekonk,590-682-7149x708,N1E 5C3,46281,Selah VEZINHET,56 EMMA ST,Amsterdam,West Virginia,AURLGBKR,YSELINE NORIS
702 S Clarizz BLVD,santana textil sa,-4749.43,North Dakota,215.62.212.195,GB17ZXBL62350583456981,Hornell,442.466.8526,38045,57542,YOAWN NOIREAU,1306 W 15th ST,Huntsville,Michigan,QEXLGBRI,Garey FRAGLIOLA
607 S Eastside DR,yeshiva university,-3289.63,TN,96.233.8.221,GB40UHDJ61388662145339,Norwalk,5444001836,N1E 4J1,13483,CARLOS TANGIR,193 WILLOW RD,Cromwell,Rhode Island,FRJRGBRR,Joline CHANSON
36 MARSHALL DR,wesleyan college,-7179.96,IL,30.70.119.21,GB18VSWQ00917487322267,Farmingdale,146.164.2737,40247,29187,Thomasina SALEM,20 THOMPSON DR,Central Square,Maryland,RYWAGBXN,PASSINE JAMIN
71 FERNDALE AVE,shentel,4288.0,HI,70.141.36.240,GB12QMQF75738591206290,Hamilton,212-021-1399,N1C 1C9,N1H 7M2,Demetria KRIAA,1513 1/2 S Huntington DR,Catskill,New Mexico,EWQVGBXF,SHAY BRUNELLE
12 JODI PL,gds international,-4387.47,MT,221.151.58.88,GB16NHQK74704722145213,Moulton,(600)744-8515,51371,47624,ARAME BRON EWEN,7 CRANBERRY CRT,Monticello,Oklahoma,QTJPGBWZ,NOEMIE GOSSET
10 VIPOND ST,fire & rescue nsw,-9272.0,OH,189.97.212.133,GB40VXAI54043343576151,Huntsville,7125062829,51627,87783,Jemima MI LOUDI,2100 S Henderson ST,Haleyville,North Carolina,CEVLGBIY,MARITIA DABOVILLE
87 FLEMING RD,american college of emergency physicians,574.45,Kansas,29.220.122.173,GB61VICY50922184922932,Lancaster,(464)410-3119,26923,37219,Draven AGUETTAZ,33 WAVERLEY DR,New Milford,NC,AFCSGBFG,JOLANN ARCHAKIAN
10 LILAC PL,deutsche asset management schweiz,-1968.0,AZ,116.246.96.101,GB80OLVV44561945586564,Camillus,6555376982,25620,N1E 1N5,Georgiann BROOX,20 TERRAVIEW CRES,Springville,MD,BNYQGBEU,SOULEIMAN CARBONE
3222 E Braeside DR,malakoff berhad,385.0,Louisiana,188.178.73.212,GB44SNLU47144321523619,Raynham,647-833-1189x5746,46409,82845,Lilburn KANTER,700 N Walnut ST,Auburn,Illinois,GJUVGB0T,Mario FORELLE
6 KATEMORE DR,axs,-4990.0,NY,52.208.96.252,GB20CIIN84383701823369,Middletown,437.133.7844,35978,N1H 4J6,GALAIS DE CASTRO,30 SCOTTSDALE DR,Halifax,Vermont,DTIIGBM5,NOLHAN FEZARD
66 ZADUK PL,tata hitachi construction mchinery company limited,3952.0,South Carolina,193.97.201.190,GB15SEPV50997188795318,Lockport,406-916-8184x484,69915,89918,REMY GIROUD-JOUVET,195 DEERPATH DR,Wareham,ND,QFZHGBLX,ALI-SABRI POISSONNET
3512 S Roxbury CIR,shell petroleum development company nigeria limited,-5648.53,RI,55.70.39.100,GB11LCHP28358564343191,Florence,409-181-6146x927,46720,N1H 4W2,CORTO BOUBEL,1527 S Maxwell ST,Macedon,Connecticut,BLCVGB7X,Gilda OULD-ALADA
2324 E Linden Hill DR,zenoti,-9993.0,FL,169.219.106.12,GB39VYCD83502335040237,Cromwell,580-027-3737,52745,07925,ALESSANDRO VIGERAL,250 S Pete Ellis DR,Horseheads,Colorado,ZTZOGBJS,Theodocia TELEQUEL
1820 N Walnut ST,fertin pharma a/s,-9888.4,TN,105.21.80.52,GB16NTRH88479474743671,Fall River,943-916-8548x2891,31777,44713,Qiana DHENNIN,120 E Dixie ST,Cheektowaga,ID,HVLZGB66,SOPENN FELICIEN
4 WOOD DUCK CRT,ministerio de medio ambiente y recursos naturales (marn),8369.0,Hawaii,38.43.23.68,GB09PCHS67437868381051,Cullman,465-100-5450x4563,82617,91679,Latonia DEDENIS,39 MCILWRAITH CRES,Clay,OH,EYQJGBSJ,YUNADAVY SIHOES
1 HUNTERS LANE,school of visual arts,5576.0,Georgia,103.86.248.198,GB86GESQ07622068287686,Cicero,222-531-5383x2036,17980,95246,Christel DROISY,709 E Pepperridge DR,Newington,SC,DYHLGBAF,RAFAELLE OSPINA MARIN
79 SANDERSON DR,vornado realty trust,-2732.0,Connecticut,157.190.206.135,GB66WEIE64109457891780,Cortlandville,(608)945-8329,N1E 7G5,27234,LONEE ILUNDAIN LASA,3061 E Amy LN,Monroe,MN,PCIPGB5M,Raoul DESMYTER
3501 S Violet LN,altagas ltd.,-8844.81,TN,165.58.171.57,GB41XWHI67169098634553,West Haven,488-961-3588x9453,24680,61933,FARIEL FRECHES,8 WHITETAIL CRT,Fairhaven,FL,CZKOGBD6,Zoe PROUTF
2820 E 3rd ST,hsil ltd.,3229.19,AK,45.6.111.21,GB02NIZI80301004718875,Bay Minette,975.289.3072,36626,71337,ARBIN JEANSOULIN,3410 S Cedarwood CIR,Northport,NM,ZGRLGBU7,Sherilyn CAMAGNE
1151 S Basswood CIR,siegenia gruppe,-3951.8,Missouri,114.2.185.138,GB62IXUV96743038889820,Amherst,(726)916-5318,N1K 1Z4,N1E 7L6,Chance BETTINGER,48 WOODLAND GLEN DR,Branford,NV,WOAIGB16,Hayley LHAMINADE
98 HEARN AVE,sørlandet sykehus hf,-3834.0,SD,116.35.233.97,GB40KYUV08587852633558,Muscle Shoals,132-849-1960x10075,N1E 2S4,42839,VINCENT PEYROUS,701 S Ransom LN,Foley,IA,KDTZGB0R,AMOURA TREMENBERT
3 MCCARTNEY RD,universitat jaume i de castellón,3880.0,Virginia,89.195.52.97,GB81BPGE75025518073779,Stratford,811-971-4915,67862,22092,MELANIE TROTET,1116 S Willow Tree PL,Thomasville,Pennsylvania,XMGQGBME,LELIA NICARD
1001 E Heather DR,sindicato,6003.19,MS,60.18.255.97,GB24LJGZ68528905460485,Naugatuck,(274)615-5652,10057,N1E 7H7,Craig HEIDEIGER,113 DUMBARTON ST,Auburn,California,UYVHGBFR,Davis TANCHOUX
1267 S Stella DR,yatra online pvt ltd,9038.0,Connecticut,28.52.83.182,GB11AGMS30311640472207,Mobile,378.427.8894,60394,N1H 4Z4,Lamar LE GARJAN,62 ALMA ST N,Dothan,Minnesota,KRZQGBS8,Enrico DELPIERRE
