address_id,Active,staff_id,zip,dd,origin,date_month,iban_digits,Password_hash,DateUpdated,transaction,DepartmentSID,city
address,other,other,address,date,address,date,other,other,date,other,other,address
address_part,other,other,address_part,date_part,address_part,date_part,other,other,date_part,other,other,address_part
86 COULING CRES,n,32733,47285,10,ME,29,DE43337236446971364827,5b3ade46f57ffac4400cbc6ff54bdca301e00c066641,2006,41581,31033,Attalla
637 N College AVE,n,32734,N1E 1V5,12,Wyoming,22,DE23041002227509158703,89cded628418ef0aabbe3afb2700757dd7705653c617,2014,41582,31034,Albany
304 WATERLOO AVE,n,32735,84867,3,Wisconsin,15,DE46705488361875750338,4bf53101c51788ac105318ad105a2273c50a2b8362ff,1981,41583,31035,Hamburg
321 E 10th ST,1,32736,96445,2,Montana,9,DE60496379019381201311,ac7e45747aba0cf04974da35c3c877308863d9efda37,1995,41584,31036,Bessemer
128 MOUNTFORD DR,n,32737,34091,8,NM,12,DE27553720507503442249,920008dc2b6ff8c3ace531a1838c20fcc29ea43b942e,2009,41585,31037,Hadley
505 W Amaryllis DR,1,32738,21254,8,AZ,2,DE74783785432214212728,624261ad293abb685dd683ea1841ec60375e67709dbd,2009,41586,31038,Hamilton
164 EDINBURGH RD N,1,32739,99724,7,KY,19,DE80460345827362266940,b335a2583f28bce4d5cb61d6cc080ebd8a7f806cd560,1981,41587,31039,Hadley
148 E Willow CT,1,32740,85882,11,North Carolina,5,DE62779374199946975037,8a1c0e46a51ac08e4811151dabc78f5ae9dfb3f37e69,2002,41588,31040,Branford
28 PINETREE DR,1,32741,N1H 7J7,4,OH,12,DE90005817670050586827,245753ab0b0bd894d7af73ae3d218f8694d76b29af8a,1999,41589,31041,Jackson
121 N Washington ST,n,32742,81541,12,UT,11,DE92749923672165671035,5cf8f4fa2cbe325ac34f67eedf414ffa719b34707c97,2002,41590,31042,Pell City
2305 N Headley RD,n,32743,26794,6,New York,27,DE50699154037981954064,00dd00839917c2e0d60caf68b732bea0e46f3112a698,2003,41591,31043,New Haven
187 EDINBURGH RD S,n,32744,N1H 2Z6,1,Kentucky,22,DE67969118848824146692,03f296342393926548bd32f3df85c59791233dd12d06,2000,41592,31044,Dothan
210 POPPY DR E,1,32745,55221,2,Colorado,29,DE78048936299427731943,933ebb6421ee590fd2b49183641181c08a6233d5ce0b,1988,41593,31045,Malone
3275 W 3rd ST,1,32746,11158,10,Indiana,15,DE91129128540017173723,f01bcb94ae88c73c1f8b4dae64355a91c7bc66c324f3,2021,41594,31046,Herkimer
128 SUMMIT RIDGE DR,n,32747,62947,6,MD,30,DE98211913327683787665,14b7c94daeee9d5eedd372123b32cb481767f7f747b1,1973,41595,31047,Geneseo
168 SUFFOLK ST W,1,32748,02527,8,UT,11,DE43168740084859098336,32cd4e916538b6ec63968d651fa51f3879fcd14c3e26,1985,41596,31048,Fort Payne
95 FERMAN DR,n,32749,58837,7,Connecticut,15,DE42704778718250282561,62b90fcf9df7e67c43aa33c785b21dd15de4bea9fbfb,1999,41597,31049,Pittsfield
148 DALLAN DR,1,32750,25910,2,Oregon,26,DE87694058418314912553,2339b511379a9f2bc4b70a1d5cd9c77aa6194b9cbe34,2017,41598,31050,East Greenbush
790 E Ridge Crest CT,1,32751,N1E 2L2,12,Washington,20,DE50624534151669264375,bbde01559822060dedfc45f58be99e80bb7e6e11e126,1982,41599,31051,Leominster
2110 S Bayberry DR,1,32752,N1H 8K9,3,AL,9,DE11457034245213066730,a000e061ee0eac20ba1bddc506afebb6831a71899266,2009,41600,31052,Chicopee
23 QUEBEC ST,n,32753,32314,4,Iowa,20,DE27081160468754760063,734487ec0daedcbba368fe09f512958f987f42dd7864,2022,41601,31053,Fishkill
61 FRANKLIN AVE,n,32754,80745,2,North Carolina,19,DE28282606068509514078,e143097a18f9675a0a9a9d6a65cb1e1fb8513703dd2c,1973,41602,31054,Demopolis
150 WESTWOOD RD,n,32755,38950,12,Wyoming,13,DE07586943704809572348,baeba5ebce181c2a1fff79aee9d79693a153c6844665,2010,41603,31055,Geneseo
108 LEMON ST,n,32756,99133,12,MT,13,DE88001647952949916217,600e80136a2ebc4df9c9481cb498ef9789134e997596,1992,41604,31056,Leicester
8 PORTER DR,n,32757,N1E 2A5,4,Indiana,28,DE23721485249583130210,1441f1407247471fe3420586d25eb611a5f5b82c8dce,1985,41605,31057,Malone
7 MCNULTY LANE,1,32758,81749,9,Arizona,19,DE35426355102923558322,2e8b1ebd5d5d5e9ba712aafc3ed6b27f2fe079f6e36d,1982,41606,31058,New Haven
1 MONTREAL RD,n,32759,52335,3,IN,13,DE60448419390318840555,8e89276d6593634b6e4c54a29d07870f62a3797a1b96,1998,41607,31059,Hamilton
144 COULING CRES,1,32760,09595,5,LA,6,DE26284650710198232128,e95b9469ea96eef9a13f51b3ac0594ad7fdd325ac4e2,1977,41608,31060,East Meadow
127 MARY ST,n,32761,71504,2,MI,22,DE63192756942088009559,16358c4bdca1975867b179754bdfb7057e78d03a6420,2015,41609,31061,Fairfield
49 FERMAN DR,n,32762,N1L 1T8,1,OH,20,DE89475351606989737896,956f1ab8f757769cfecb7ab2ecd12750d3ad54649d41,2022,41610,31062,Bay Minette
2729 S Jalen CT,1,32763,N1H 1Z1,5,South Carolina,11,DE42822438771471748881,5c50b726e0cccc0185eef79b452a5c3eeb6b2ca664b0,1984,41611,31063,Brewton
210 COUNTRY CLUB DR,n,32764,22570,3,MO,23,DE61526670490408916520,7db90d233d5bfd3d4126253cb2ef698ce28946c009f6,1979,41612,31064,Cheektowaga
2395 S Winslow CT,n,32765,79945,3,NJ,12,DE90675730232918249455,68a4f885d6a09f53fb3da52cb798a2cd543205e61b86,2006,41613,31065,Halifax
104 N Hampton CT,n,32766,36858,8,WI,5,DE60241072406061125163,c50b2ba142b885397ea41c1743561c0b325b6bd31992,1985,41614,31066,Hadley
18 CAROLYN CRT,1,32767,50841,5,CA,11,DE06505031798620041130,a9bf9818f194cb5fe24a6c9e0770307fbbbe0e560c78,2014,41615,31067,Brent
18 CLARKE ST W,1,32768,49255,9,UT,14,DE88186274522605708823,df43f3ca4aef7256cdefca852cc475f21086a392a774,1978,41616,31068,Norwich
2992 E Amy LN,1,32769,N1H 1Y5,1,TN,4,DE29899077099680813788,a9f3180a38b52b6db4ddf9977921d022fc34e923a3f9,1980,41617,31069,Geneva
130 MUNICIPAL ST,n,32770,53692,3,Wyoming,16,DE30206383380299567518,627fd7a40ca1cc8e28600a7e9dcb6a566f2ecad46f32,1971,41618,31070,Sumiton
33 OLD COLONY TRAIL,n,32771,62566,6,Mississippi,27,DE74573775491038548531,d79a091ce14fbddc1ac743a58838dd538b9c55e99d65,1970,41619,31071,Lynn
207 COULING CRES,1,32772,56845,1,Minnesota,4,DE62422992641428161044,745a329a18793088f0037870ca55d695e1fcc8f6a68b,1990,41620,31072,Hoover
322 W Georgia AVE,n,32773,69776,2,FL,15,DE92968777386930418056,02a772cd5ef53a2528f3a23db0df121a001f29a2e190,2011,41621,31073,Wetumpka
875 N Woodbridge DR,1,32774,N1G 2H3,5,South Dakota,4,DE10575629104820017668,e350e1bde6c9294c978e18b883a6342a89b9d2427c2b,1980,41622,31074,Malone
1758 W Eventide DR,1,32775,N1E 2C2,11,IL,16,DE06241677282043735646,0d63f801c836c1a86ae5266b4092be6f365397d396c6,2015,41623,31075,Guntersville
10 DOVERCLIFFE RD,1,32776,N1H 7R8,4,VA,3,DE65145212318085417871,a9559ccde1c5e6f87887936373538bf2eed28a0e3c67,1998,41624,31076,Pelham
33 SUGARBUSH PL,n,32777,50432,8,MS,11,DE78060487612109952296,dc439a0d35fcb62457d23f1d95d0a50cd83a37ea6d7b,2009,41625,31077,Centereach
800 N Union ST,n,32778,60394,5,FL,16,DE96137245931090487584,00b81c272699b974decc869a9298d18637027ec1d3ed,2014,41626,31078,Lockport
22 MAPLE ST,1,32779,62088,9,KS,22,DE52070288930780426510,b2001f5c9c4f9284cd8585e1973c91f7268587b6a174,2009,41627,31079,Springfield
125 NORFOLK ST,n,32780,13596,1,WY,20,DE30705472817618958395,b7361d457dd9f8a147f8d13f060ee091a6e7f3574fca,2009,41628,31080,Glenmont
2427 E 2nd ST,1,32781,N1H 5K1,4,West Virginia,20,DE64180279772663841702,72619b7212f3687a71284d764eb246d4ec1daf007f6c,2022,41629,31081,Lynn
2668 S Sunflower DR,n,32782,15474,11,NJ,11,DE94376999588867601732,b2286b84c6e7bd9af529c2a3a29d64a4bfee592f2997,1985,41630,31082,Greece
