swift4,Name,BankSuffix,address_line_1,place,ZIP,region
other,other,other,address,address,address,address
other,other,other,address_part,address_part,address_part,address_part
FDYNGBGDJZ4,promega,UYUZ90960528918870,127 MORRIS ST,Lockport,16545,Delaware
QMJJGBCF,goodwill industries,AHMC91353057840620,3 LATENDA PL,Hamilton,75054,PA
FRTWGBTJKXS,cornish college of the arts,DYBC52455335247456,1316 N Maple ST,Brockport,N1L 0N2,LA
EWYFGBWAD9Y,"rajshahi university, bangladesh",PIVI16390925002471,78 SHERIDAN ST,Lowville,51285,MO
HKREGB8LO2E,"coldwell banker united, realtors",JFUF35769949068061,67 CREEKSIDE DR,Danbury,N1H 4R6,PA
AMJYGBKX,union bank of colombo,TEQO37341694532127,12 EASTVIEW RD,Hanover,10244,Nebraska
ZLNYGBZP6L2,university of exeter medical school,LHQB69298151856345,817 W 8th ST,Chelmsford,N1E 1M4,ME
DFUHGBCN,vlaamse gemeenschapscommissie,LIYN60419472914087,67 STARVIEW CRES,Muscle Shoals,72143,KS
JSDXGBRZWBP,afa försäkring,BOXS65206175504763,3758 S Claybridge DR,Fall River,65348,Hawaii
EAAHGBJTS08,long and foster real estate,SYNH18622459637820,47 ROBINSON AVE,Methuen,29218,KY
HLNXGBG8,gsf,MWMZ67255192119210,4223 E Saratoga DR,Horseheads,59369,Nevada
ITICGB9AKZP,mergermarket,BBQI03051466189084,27 DEERFIELD PL,Raynham,15606,North Dakota
YZBYGBQA,square one,KLKG17891745532419,25 DOMINION DR,Semmes,62897,Kansas
MGLVGB0IF8P,property brokers,RPAJ79504631931504,18 BROCKVILLE AVE,Mohegan Lake,96893,Oregon
SIOBGBBCQM8,cofely fabricom - gdf suez group,SHIL06502482843866,424 S Meadowbrook DR,Gadsden,N1L 0C9,New Mexico
FVXEGBCAYX6,inos stichting katholiek onderwijs breda,KBFX86457036653170,20 WYNDHAM ST N,Swansea,95038,IA
TOZUGBKU,wso2,VYOH19979935057006,104 EMMA ST,Middletown,64755,California
UBPEGB7LL0B,dialpad,SVGK33203836060822,11 SINCLAIR ST,Ozark,00920,IA
MTLFGBH8EBR,intergamma,LBFS50658677838985,711 W 17th ST,Gardendale,69233,UT
ERSWGB7O33O,gommers administratie & advies,BQIE58473418389280,1024 N Jackson ST,New Haven,02849,Louisiana
XPSIGBMVX9Y,state bank of patiala,AWPQ06437034328651,78 CURZON CRES,Branford,02118,CO
TLNHGBWE,bae systems applied intelligence,LEJE22203512401541,394 WOOLWICH ST,Arab,53766,ND
BMBDGB0XJ9V,levitt-safety limited,JJNM27340840222505,1110 S Sugar Maple CT,Pittsfield,N1H 8A5,NE
TUJBGB9H,itn mark education,GSVK56309445114108,30 BARTON ST,Selma,21562,New Hampshire
PRAKGBFQA3Q,success academy charter schools,MVCQ90236866446068,40 WILLIAM ST,Johnson City,77077,Wisconsin
BQCDGBH9RGW,weatherford,CWTQ93651296860737,1120 W Briarcliff DR,Lisbon,81814,DC
ITNTGBF3,peppermill resort spa casino,GWPK09002530348283,27 WALNUT DR,Wareham,74948,WA
SFBDGB45,marque inconnue,DBPM14576320407490,119 JOHN BRABSON CRES,Newington,N1E 1Z3,MO
HQZFGBOPWA4,pr и консалтинговое агенство мэтрфинанс,GTJF29785543864795,740 WILLOW RD,Airmont,N1L 1S8,SD
AWQOGBRJOSM,pop-a-lock,JNEF57396263675655,425 W Hoosier Court AVE,Naugatuck,94473,Delaware
BWYZGB12,dunia finance,WTAP06674871337555,68 ARLINGTON CRES,Salem,45982,Nevada
ORMQGBDPJZL,erinoakkids centre for treatment and development,QJYZ98454987113675,1517 E Elliston DR,Wareham,79201,Iowa
YBVIGBJN0LV,govt - government records,ZFKK18181542794630,5 MARSH CRES,Albany,N1H 5N8,Illinois
FNSWGB56,kaufman & canoles,QJNE72799503771202,656 New Haven Ave,Amsterdam,N1G 2J4,GA
JMWRGBUC,motul,FQHY91651033140595,2005 S Renwick BLVD,Eufaula,18908,PA
OQWDGBFA,dvworxstudios,GDVL71459151150198,96 RODGERS RD,Stratford,51832,Delaware
WMNKGBS7,rhode island school of design,YBTO97659558869123,2983 N Bankers DR,Fairhope,71511,CT
HSXPGB42,rockwell collins,PYAT21892711418918,107 AMBROUS CRES,Framingham,96995,IA
RVFJGB1D,andros restauration,TKKE62833367253061,2518 E Caray CT,North Reading,N1E 3Z3,Minnesota
IIWSGBY8,echostar corporation,YDZA02471079711136,40 WHITE PINE WAY,Newington,N1H 3G4,MO
SSVDGBYV,acadian asset management,OYGQ83603717452595,103 VICTORIA RD N,Pelham,N1K 1E4,Wyoming
ESJUGBIA,onpoint community credit union,WDCC65990611246704,421 S Wynnedale DR,Amherst,70279,Connecticut
AEWLGBTX,k - kempfer creative office,GYXL99797230509872,651 N Woodbridge DR,Oxford,N1L 1G8,West Virginia
XZEDGBEF,cdi engineering,HDFC55414864439760,324 W Georgia AVE,Calera,49255,WI
IWWKGBQO,ra sushi bar restaurant,VIJM54148063877368,237 ARTHUR ST N,Clay,14876,OR
TOOTGBHE,croud,PQLL15968113079289,3111 S Walnut Street PIKE,Montgomery,50845,TN
SNPZGBHJEJP,calderdale college,QLRG42457463096711,15 RENFREW PL,Chelmsford,66310,New York
KVMEGBC6,ferris state university,EARM65925407174284,8 CLIVE AVE,Brockport,95232,UT
SPZUGBDD93I,rosalind franklin university,EQDX54431680328773,3454 S Oaklawn CIR,Winfield,25557,Ohio
JVMHGBA0,de la rue,CVIB31266674350056,8 DOMO DR,Danvers,60825,VA
