POSTC,customer_id,Date_Employed_From,DateDeleted,state,Internet_6,relationship_status,street_city_country,place
address,other,date,date,address,other,other,address,address
address_part,other,date,date,address_part,other,other,address_part,address_part
91359,6916,05/12/2002,20.02.2005,New York,e5be:6772:355f:ba95:20f5:952a:afb2:d30c,Digital service transfer,241 SPEEDVALE AVE E,North Oxford
21007,6917,14/10/1972,25.08.1986,Iowa,3d40:8c22:a49f:1371:4cb5:c970:b9cf:4caa,Bank transfer,55 HARRISON AVE,Ozark
86865,6918,18/01/2017,20.01.2020,Kansas,503b:7aa0:4060:6cb4:8350:bb66:1dd:747b,ATM Cash,2379 S Brandon CT,Airmont
73728,6919,03/02/2003,22.07.1975,IL,857c:895b:209d:8366:67ff:6507:76d5:7157,Bank transfer,27 LAVERNE AVE,Opelika
85529,6920,15/12/2007,06.09.2003,NJ,10e6:f5aa:ebb0:18ba:5806:2191:5055:c9d3,Bank transfer,27 SPENCER CRES,Oneonta
N1H 1B4,6921,26/10/1985,03.03.1977,Oregon,e83c:d05:96f9:c1e8:f0f3:6b6e:8:9308,Digital service transfer,3142 N Valleyview DR,Hoover
N1H 5L7,6922,15/04/1987,26.09.1981,Washington,409c:87f:30df:c04e:59a9:737c:9bc4:9621,ATM Cash,310 N Johnson AVE,Huntsville
76799,6923,10/07/2020,09.03.2007,CA,4b9d:284a:3d04:f1a9:6b34:6309:b037:6464,Bank transfer,1106 S Paper Birch CT,Fall River
N1G 3A4,6924,02/08/2022,07.10.2012,NC,7a99:fe12:77c1:8bfb:dd1d:628b:6ecf:ce2b,Digital service transfer,149 LAW DR,Moulton
00575,6925,14/10/2015,21.11.1995,WA,56e5:f61f:d93e:d0b7:561:eaa3:9692:99,Bank transfer,1730 S Olive ST,Thomasville
07669,6926,06/08/1980,07.12.2004,Wyoming,2f78:7201:8389:9f5:e9fc:f015:58f1:c07e,ATM Cash,3911 E Stonegate CT,Tuscaloosa
38306,6927,11/04/2012,04.10.2006,Maine,9ee7:70f4:3048:559d:4645:8284:1053:3c4,Digital service transfer,85 RODGERS RD,Sylacauga
81828,6928,18/07/1994,11.07.2012,CO,bde8:349c:25d:67f2:890c:cd4f:5d5a:3b51,Digital service transfer,3813 S Lindas WAY,Brockton
26286,6929,19/04/1985,13.10.1982,New York,ca49:4db6:c333:da6b:fe8f:611a:2bc6:30bc,Bank transfer,11 LEACOCK AVE,Fort Payne
N1K 1J3,6930,27/01/1990,12.06.1979,LA,1635:9d67:a26b:c890:2353:f679:8ecc:90d8,Cash,110 VANCOUVER DR,Greece
79810,6931,20/01/1980,27.09.1981,Oregon,4d1c:b368:7181:cbc0:c967:e500:7c9c:9794,Cash,48 PAISLEY ST,Thomasville
N1H 3H9,6932,21/08/1994,06.06.2017,Wisconsin,cfd8:eb20:5a4b:3ff8:19a:8ebe:5c51:4dd7,Cash,12 WALTER ST,East Syracuse
62912,6933,19/06/1988,23.06.1980,TX,b120:caa8:e7cc:504d:9cee:7c8:436d:337f,Cash,3509 E 3rd ST,Geneva
49811,6934,15/10/1989,30.05.2001,Louisiana,99ba:f452:fb89:4014:137a:e730:23ec:bc25,Credit card,370 IRONWOOD RD,Orange
N1G 3B5,6935,25/10/2004,29.08.1995,IA,d1ed:5782:5e0b:4aa9:6119:43af:4f26:e245,ATM Cash,33 ELGINFIELD DR,Torrington
N1H 7E3,6936,03/03/2002,23.01.2010,GA,75bb:d65e:d6bc:45a5:8f81:936:ffbc:d3f1,Bank transfer,4 BROMBAL DR,Pelham
24535,6937,06/07/2019,21.01.1982,IL,c134:531c:1dd6:ad5:ec8b:b5ed:16f1:75a1,Credit card,28 CEDAR ST,Thomasville
75729,6938,21/09/2010,19.01.1988,IA,8fb0:1268:732a:5d02:b057:34af:3db2:1a88,Credit card,124 VICTORIA RD N,Enterprise
41516,6939,05/01/2008,01.07.1993,Minnesota,deda:cc38:4b41:a1d2:a753:b7a0:9e58:ca04,Credit card,3378 W 3rd ST,Orange
15505,6940,22/12/2019,26.02.1976,California,f06a:b289:d7e6:63c1:d848:167c:fe4c:1fc2,Credit card,1555 N Lincoln ST,East Windsor
31567,6941,20/04/1972,19.08.2020,Delaware,5bcf:e623:5cc5:ce8a:a74:78bc:b3b1:52d6,Bank transfer,7 WHITE PINE WAY,Greece
62682,6942,31/10/2021,26.04.1978,SC,1957:35f0:8c82:6be7:8a7c:ae35:865c:65d8,ATM Cash,315 E Dodds ST,Wallingford
13756,6943,15/09/1998,16.11.2014,LA,8391:9c1f:a562:2e27:e05a:f5ce:c0a5:337b,Cash,22 SUFFOLK ST E,Branford
N1H 6V6,6944,04/09/1971,09.11.2011,North Carolina,7018:3b1f:172c:f085:29de:801c:f356:f9f1,Digital service transfer,2360 S Henderson ST,Fishkill
15046,6945,27/11/1984,15.02.1982,OK,8a7b:3c4c:6bea:99d8:8581:a436:6baf:9a9d,Cash,8 DOVERCLIFFE RD,Greece
N1K 1R7,6946,13/09/1980,27.02.1977,Nebraska,1237:a717:aaea:3d54:2ad:4ebb:2010:7cd5,Digital service transfer,3 GARIBALDI ST,Bessemer
37525,6947,09/03/1999,07.05.1979,Kansas,6d6d:cee8:3d81:20dd:f719:d832:aca3:a2cb,Bank transfer,83 WILTON RD,Avon
67868,6948,07/08/2009,03.12.2001,DE,8d02:42de:277f:4832:f627:9f3a:bc28:2ffc,ATM Cash,134 DOVERCLIFFE RD,Halifax
96511,6949,05/03/1973,03.02.2000,Tennessee,7514:595d:9683:fe15:c2a3:d025:901c:93aa,Cash,54 ALGOMA DR,Auburn
N1E 5L3,6950,23/08/1990,21.04.2020,MA,605e:7a40:8db4:f761:59ba:f22f:52f1:60bb,Credit card,3232 N Meadow LN,Vestavia Hills
N1H 7B3,6951,31/01/2016,07.11.1995,New Jersey,9a0b:7a12:7dca:f20:2029:2bfd:7547:f3dd,ATM Cash,510 W Hays CT,Bellingham
55253,6952,29/03/1975,09.11.2001,TX,b23:8985:e66a:55b4:c4b0:2994:345:156d,Credit card,5 BLAIR DR,Haleyville
65573,6953,30/08/1974,26.02.1978,MN,18bf:df65:163e:a716:3311:27c:cc6:d724,Bank transfer,413 E Kirkwood AVE,Catskill
97540,6954,18/08/2019,05.12.2013,WY,4fb6:96fd:ba82:8f31:b7b1:1f7e:a895:de5,Cash,2365 S Winslow CT,Leeds
93996,6955,27/05/1999,19.12.1984,AR,d9c:2663:384:7fac:5273:d054:8172:1a1b,Bank transfer,120 GOODWIN DR,Fairhope
21630,6956,29/07/1974,20.12.2012,KS,239a:c658:8e8d:f3e3:70d3:d8b:9b2:13c1,Credit card,71 DUKE ST,New Hartford
74722,6957,09/03/2017,09.05.2022,Iowa,cc9b:20ce:b249:194c:9d35:391c:fa23:8c8d,Digital service transfer,66 DELAWARE AVE,East Meadow
94657,6958,22/10/2017,28.11.1981,Indiana,75b0:75ce:fc97:eb11:f615:75db:baeb:95cd,Cash,1315 W Gourley PIKE,Vestavia Hills
83058,6959,21/03/2017,15.02.2006,Rhode Island,a74a:c1fc:aba6:4c0b:e3ed:4443:2a79:6673,ATM Cash,3143 E Braeside DR,Hanover
N1E 4X3,6960,01/06/1999,07.04.2009,Massachusetts,460:2d4d:5cdb:3f79:7c65:fa68:4914:e2c6,Cash,1023 W 12th ST,Horseheads
48723,6961,01/04/2011,28.06.2010,NC,1992:d2db:e630:3b03:ea31:b8d5:9cc3:98e5,Bank transfer,100 STONE RD W,Montgomery
"N1E 1N3
",6962,24/05/1987,09.03.2015,NE,fd04:a830:7906:c7d6:91a:6fe0:a3e:f109,ATM Cash,84 CLOUGH CRES,Guntersville
N1L 1N6,6963,08/09/2019,09.05.1989,Alaska,1f64:2653:72cb:978:234f:b846:5a44:cbd4,Credit card,2401 N Milo B Sampson LN,North Oxford
64272,6964,31/05/1981,14.10.2017,NE,a655:b13f:c92e:a969:691e:5a06:b725:5873,Bank transfer,10 SILVERSMITH CRT,East Syracuse
87240,6965,12/03/1987,15.03.1999,Hawaii,3792:ac76:b2ea:ddb1:c1e1:d7b2:6281:b7c6,Digital service transfer,3830 S Claybridge DR,Waterford
