pwd_hash,IsApproved,Spouse,EmailPromotion,relationship_status,ContactPersonSurname,customer_address_id,Name_Of_City,zipcode,Region,user_password
other,other,other,phone,other,name,address,address,address,address,other
other,other,other,phone,other,name,address_part,address_part,address_part,address_part,other
c2875ef486f884ff69,no,y,206-190-1359x928,Bank transfer,BELOVAR,19 CHARLES ST,Wetumpka,22824,HI,aa690bd112f1cb415c44205ee5fd74cd39c06bd8
b549c626202cf5ae97,no,y,134-845-9264,Credit card,CORBAZ,3 HOLLYBERRY PL,Enterprise,81167,MS,dd205732be9778cb8e55207c155e767b4b423689
cb293624450fdb84a6,no,n,339-411-9709x98868,ATM Cash,BAYEUL,30 IMPERIAL RD S,Birmingham,62939,AL,ae23cf89f4969f416ff9a162a09729fbd8df097b
4421798dd39d07a87d,no,n,(522)811-5398,Credit card,MAZHOUDA,3697 S Sowder SQ,Sumiton,73060,Hawaii,8224aa2bd32e2d369fc6a3d4436169e7f0f823e8
57da4fd30cb69cd981,yes,y,(762)266-2608,Bank transfer,CRAYTON,1410 W 15th ST,Northborough,35150,OR,f8d6b4663b759c9478965a2fc35bd01b371dbdf6
2b782a416b0d5e7c6a,no,n,765-939-6694,Digital service transfer,RACINE,132 N Lexington DR,Millbrook,N1K 1Y4,Wyoming,fb76a2018e38d228c436680e0223073efabe8cce
8501d04619cf3dd3e5,yes,y,9972964317,ATM Cash,FEARUD,3860 E Regents CIR,Eufaula,83639,UT,5c613ca0b62b7f1afe79295029db6c6269e53523
5bd4217b88dd2b99b2,yes,y,(360)289-4793,Bank transfer,KOUTNOUYAN,67 SURREY ST E,Alabaster,64417,Washington,2220a56d10888932f8d65a4bb29f9a083e85a490
d5123d153d10dc499b,no,y,061-828-8274x880,Credit card,PERRAUDIN,42 ARLINGTON CRES,Wallingford,N1E 5W6,WA,26d96db95a38edc6d2943510da54675d3a2923b2
2197fc092118d2ea2c,yes,n,(546)484-6078,Digital service transfer,BARRETEAU,82 DALLAN DR,East Windsor,01912,TX,830a0d9acf308135c293b0de14df276a3507473a
67ce1fa93c2d8c0c6f,yes,n,(544)623-3667,Cash,CHAMUSSY,9 ELEANOR CRT,Cicero,95142,South Dakota,f352cdeb1eeffd7a5d2120caaa317fe051097054
73bc281e5820863155,no,y,743-876-2318x0066,Digital service transfer,CHEIKH-BOUKAL,25 CASTLEBURY DR,Hudson,57983,Nevada,5844153e278080731f8784e128a84cc9fada84a8
8e15d319a8e6b4ca4b,yes,n,707-611-1707x2846,Credit card,LOSARDO,2600 S Robins BOW,East Windsor,N1E 1K6,Arizona,86c60e174937abbc314806df0cb3a36f331a9cfc
68dc485c4690ab2240,no,y,151-525-4026x72279,ATM Cash,POIVET,1111 W Meadow LN,Tallassee,N1H 5G8,Alaska,c10417cd6caaa7b42ccd3bb2ddae314880c689ee
0615bc37bd85877bd2,no,y,977-034-8755x968,Bank transfer,SOURD,11 MCCURDY RD,Hamburg,N1E 7H9,LA,77a9e07ea257ffe6449ba60d881883aa65b9dc9c
ce47c9a83650380e05,no,y,176-445-2178x701,ATM Cash,KKKK,24 GLENWOOD AVE,Methuen,98769,Washington,89c9d236abd833648d382311f8e2c7a6c061fb88
38bdcb83c8bc85fe58,no,n,282-182-8208x47573,Digital service transfer,MORER,3913 S Allen CT,Abington,90065,NV,14534068ed13b9378e842093746e3182ea97d215
151db63d345d3ea294,yes,n,623.513.4686,Cash,BLANPAIN,142 DOWNEY RD,Derby,N1E 2T7,AR,148590d69daa34f0b61a44b86aa9c66fcfad5acc
4427c6ccf259ef35e3,yes,n,625-721-9951x799,Cash,LELOIR,7 DOOLEY PL,Monticello,01663,ND,3330f80b9bf09a4968be5f2c080227d68d322db7
645a597801383259aa,yes,n,055-534-0663x33075,Cash,QUIOT,38 YOUNGMAN DR,Horseheads,07518,Florida,3016cccf8009656c45d1d9116bd862d45886590c
dcce7eda856f77d08e,yes,n,(272)134-4886,Bank transfer,HUGUEL,3806 E Cobble Creek DR,Guilford,23018,Nevada,7a0383115a1c91fb12a1973e95c457a0fb6b5f42
f5b3035050249ca12b,yes,y,(574)101-1626,ATM Cash,ROMIC-POMMIER,2224 S Laurelwood DR,Arab,68354,North Dakota,b94cfc1f8395d2d92597aacc3d69b2ae75fcf14f
a2a5c1fe5da40e9074,no,n,(866)793-8490,ATM Cash,THETIOT,960 S Clarizz BLVD,Springfield,12250,NV,01969ed40e5f8da8fc8699946cdca5cf87a41129
99da1d64d9b0dce466,no,n,801.124.4403,Credit card,HILARY,112 MERCER ST,Fall River,64291,WY,3bbc626dec0927f3b68e7a81f993980d52d48c3b
96ac91e1f44a51a61a,yes,y,3968967287,ATM Cash,AOITY-OBRY,321 N Maple ST,Horseheads,N1K 1R2,WI,2b0c6d22d0e244effe6c5e27fba675fef443f899
73a7bb574c4cff7404,no,y,1235967087,Credit card,CARLIEN,2 MCLACHLAN PL,New Haven,70200,Arizona,61afa42c77bd08feff7622f203477b5624f8add4
dc393c9dadaa6d21dd,yes,n,217-800-5896x96872,Cash,MECHERFI,126 MOSS PL,Semmes,N1H 5C4,New Jersey,8f620415bb8fc322b051f88d7fb08b51b0c836f6
c2ebca11698314cb5c,yes,n,068-867-8122x89351,Cash,GACKOU,2352 E Winding Brook CIR,Dothan,96504,NY,25efc1647e92cca158d04062620c1c97b1a48630
93ad9ef8029802a065,no,n,496-998-1495x3798,Cash,MANET,11 JOSEPH ST,Hamilton,N1H 2J3,HI,99907968defa5c76f03f9956c9abaa0789929e64
19d5eef002003e7b01,yes,n,(103)514-3859,Cash,LANGUE,81 GOODWIN DR,East Windsor,35141,California,b7066dad7d001756f87c86a0c6fb780849ea14b9
635d3a550ee904f7aa,no,n,090-699-6300,ATM Cash,VAYSSIERE,1345 E Mercedes DR,Haleyville,01929,Pennsylvania,5abad4e4ceb1ac6fa6efd9019cb4c6dd3936f381
7a6d9463c94e1b8782,yes,n,886-727-9813x407,Digital service transfer,HEDUIT,134 WOODLAWN RD W,Framingham,95496,North Dakota,e4a69815771b1d1e8fd23b08dec1109c5affb5d6
35045d6fb22e7d3302,no,y,690-396-3225,Credit card,POINTREAU,1245 S Fenbrook LN,Auburn,66594,Ohio,d4bb0697d09176a1a5c527808bcccb2d7390090e
c3e764c2d0984d2126,yes,n,6147686099,ATM Cash,BILAUD,100 N Grant ST,Newburgh,92373,Idaho,2e8669caea83953e87c505ad3c9c6a2a042651d5
5f5a127a29a63f4e3f,yes,n,798-288-4550x20446,Credit card,LAMOINE,64 ROCHELLE DR,Homewood,91175,Massachusetts,3d1fb8fbb865468c9ad19b2088c90e26678cee88
c4642d4e56f798ee74,yes,y,922-468-7320x23649,Cash,GIAU,372 E Varsity LN,Commack,36503,Delaware,b88ec4d6fba777abbd8fff34a29119c4c0cba890
6a3e02a9272e0116ff,no,y,(098)913-5865,Credit card,GAU,1501 Hwy 14 East,Hueytown,61018,WI,46deef6a92339283931aa86f8f278f5147b11f0f
a8c92ae6f661c697b1,no,n,417.240.6968,Cash,BACCON,93 MERCER ST,Springville,61488,Oregon,bf32ec0da084bd11581370ea2e86f5d9e8bb8da9
2475ce144efcbff419,no,y,746-239-1279x625,Bank transfer,LESOURD,810 S Eastside DR,Winfield,N1E 4Z5,MN,ca19aac173be111e181187ee70185e0fc9e700c7
f72bd4d7afce36643a,no,n,524-972-5859,Bank transfer,HUBAUT,716 GORDON ST,Hamilton,95372,Alabama,f86f41f8e5e7ac11aedfe60038fdccd74e8daf13
c28d282b042bb6306f,no,y,300-774-6538x08696,Digital service transfer,MOSBAH,1327 S Basswood CIR,Amherst,30005,SC,ac663806d844ad4d2f90e69e573f8cc3cd2512a9
95d92b34928927e16c,no,y,(716)569-9955,ATM Cash,LAURENSON,87 ESSEX ST,Thomasville,N1E 6J9,AZ,7178f3ca297a52da366a35a3bb233bcff1c68eeb
d36904291bb64c085a,no,y,655-218-8076x65898,Bank transfer,ALFANO,81 KORTRIGHT RD W,Glenville,52560,Kansas,fabbced60837027883a1d32367d62961607e4160
994533076686d1458b,yes,y,278-526-2971x30948,Credit card,LEVICONTE,153 SUMMERFIELD DR,Geneva,51799,ND,fa29c7e38b0571a8e057c61ac22b580359e99d06
3e0df7656391c7bc09,yes,n,484-877-3726x0189,ATM Cash,CAFFE,3 GOLDENVIEW DR,Pell City,N1G 2N2,Maine,19951432cf9da6ec1fdd620216a4fe762a93a713
2e825990da1e86c7d8,no,y,5486639890,Cash,CRETIN,27 SHADYBROOK CRES,Lowville,44884,Indiana,3edbfd7bf1712008fbbc53f7c2b1bcb29c8fb74d
7e543a307ab910a68b,no,n,(495)214-1680,Credit card,ZAPORTE,1733 W Ezekiel DR,Guntersville,90987,WI,369099ae0433be18b0e033ea7cd8d731e12b83fe
9608b8532283583f34,yes,n,910-007-7633x470,ATM Cash,RICHARD DE LATOU,720 S Morton ST,Thomasville,47874,Washington,99c2acf23e7a28ebc4282d2e947bd0f6e995a9ee
603e0eca94ea96916c,no,y,458-745-5654x7337,Digital service transfer,ERMARCELINE,6 VIPOND ST,Ozark,94587,WI,89f3c7e9f787f83cde6ef47e7664a1b9ec371d8d
3b05ba08fc6c732dc1,yes,n,4572015573,ATM Cash,DELEU,11 BRIDLEWOOD DR,Northhampton,95809,IN,4cc8f489594b2b68098d0029f280a8ab46546e16
