MANAGER_ID,AssistantName,traffic_SID,MM,DATE,ACTIVE_TO,person_last_name,monthly_earnings,IP_6_address
other,name,other,date,date,date,name,other,other
other,name,other,date_part,date_part,date_part,name,other,other
9579,KEVIM COLLOT,22728,30,12,2016,SANECKI,-2695.37,f244:e7a1:f4a7:dab0:95d5:c056:c0e4:4257
9580,Ammon MORILLEAU,22729,22,8,2013,VANDAME,5996.75,aa58:b1dc:4f0e:5f0b:9965:94a7:10fd:1592
9581,EPEA ALHAMIDI,22730,18,6,2010,LAJILI,-587.29,f8db:8c13:2562:5f55:934:4bc5:64a0:8ee1
9582,Matteo BELLUIRE,22731,17,3,2021,MISIAI,1351.0,74fc:3e4e:fa9b:528b:b8c0:a23f:5d3:33d7
9583,FREYA RUIZ ARRAMENOY,22732,21,11,1977,ELMOSTEFA,1128.0,feaf:ef57:70a7:c8d4:240a:e510:b0d:1434
9584,Jeanetta BONDY,22733,1,10,2013,PIETTRE,-4659.0,d82f:1fac:da8b:5f83:964f:9a30:3bb6:6f57
9585,EMRE MANIERES,22734,13,11,2012,TERRASSON,-4155.0,5cae:158c:7d99:8932:5b4d:2462:392b:ca02
9586,KELMENDI TEIXEIRADAVEIGA,22735,10,8,2013,FABE,-7240.86,7671:621d:226e:3cf:2dca:c223:ce43:372
9587,YAGO LANDMANN,22736,9,11,1990,NEGRETTO,-4429.0,1c70:924e:1aee:16f5:4462:6207:c320:4837
9588,GAUTIER ANDRIEUX,22737,17,5,1986,LAHAY,6878.0,c1f4:4138:3762:43b0:6804:dc9c:f379:78bb
9589,DIAS BLANCHON,22738,8,8,1971,ASSAILLY,7038.49,6c6f:d838:57e3:3905:3c09:c3dc:4cb0:6896
9590,MARC-AURELE LAHELY,22739,9,1,2002,PECQUERY,6070.99,d0b:a5eb:244d:f94:b350:fe7c:92ae:a85c
9591,Ferris JUBIN,22740,19,6,1977,PIROLO,-1780.49,68c8:7496:e78:d12f:9055:fa81:a796:8d4c
9592,SANDRO CASTILLO,22741,29,12,1985,CENNE,7051.66,9b19:a104:1e07:9328:2e8a:96fc:7f1f:c3e7
9593,HEDWEGE ABBASKOELLER,22742,15,7,2002,POMMEROLLE,209.0,470:db8c:617:b6f3:6cfe:4735:fb46:15b9
9594,AMANDA FERREIRA DE OLIVE,22743,16,11,1971,BIEMONT,3264.77,6d78:d0a2:8218:fddd:8e59:a894:9c20:828e
9595,Rhett ZERARA,22744,21,10,2002,RAIMBULT,6252.0,33b4:ef08:7e04:7b4c:c4a2:e1b3:4c10:67d6
9596,Octa CHATELAIS,22745,20,12,2013,ELHAMZAOUL,377.0,92e1:6ca7:b15d:3bb1:d943:8d68:886a:ce97
9597,Dorsey GUNTZ,22746,26,8,1996,LECAPITAINE,4234.52,78db:f8cd:2467:a3a3:3f28:6822:6527:792d
9598,SEMRA LAFAILLE,22747,14,7,2013,ODEON,-2399.0,3120:365f:2587:48a7:285a:b79b:a6ed:2c38
9599,Colette MICHALLON,22748,23,10,2010,SHANJIN,9118.44,5c65:745a:1a27:e8a6:a730:4f74:c497:f465
9600,Kandice TARDIEN,22749,22,9,1973,TOUAT- HAEGAK,5872.0,7f54:5727:4d7a:3de8:adeb:fca0:635a:63c5
9601,Liberty KHIM,22750,5,6,2009,BOUTOW,7334.4,af28:cb32:75a7:81d7:d17d:cf7b:6837:3c87
9602,DARCEY MIHOUT,22751,9,5,1981,STUDNICKI,7148.88,6414:2250:a5e:b0d6:ec64:49e3:d1c1:ab1f
9603,JANN DELORT,22752,19,2,1989,MENEUVRIER,-5244.52,db43:7e06:880c:afc0:aac5:b6f3:fc3a:c9d6
9604,DRAME CHAZEI,22753,19,6,1980,MAGEAU,889.32,ff13:c5d9:1aed:e297:a3b9:b74:2134:8489
9605,GODEFROY LE MAOULT,22754,19,6,1997,HEBRANT,7634.0,272b:214a:bc04:f50f:549a:3570:aa2d:57f4
9606,Arvel DAMASSE,22755,2,8,1982,PARADOWSKI,7970.92,c911:fa32:24e:ccad:8040:df30:9990:1f8d
9607,KILLIA FERARA,22756,31,10,2012,CHABANIS,3911.0,fb51:be46:18ed:199a:da5f:44f3:9424:708a
9608,THIRAULT LE BESCO,22757,24,2,2014,SALAF,-9790.63,b216:743c:483f:2d79:314c:c0ac:2200:a1f8
9609,Tessie LE FEVRE,22758,16,11,2004,BENRABIA,-6103.54,c1a9:2992:eca4:8632:f2d9:3168:450f:8722
9610,Kaila LE HENN,22759,26,11,1994,CATTANEO,8789.71,f405:5bba:36bc:2159:91f4:3c0f:a7d7:ed62
9611,Joanne MARSEGUERRA,22760,26,6,2000,JALOB,7145.0,3853:fdc9:287f:70ac:b6ad:32eb:418d:a8ae
9612,Geoff MORANDDEJPUFFREY,22761,16,1,1986,PRIOU,-2850.0,542c:cc8f:1cc9:52c4:3b0f:4a70:b661:d29a
9613,Danna DE MORAES,22762,2,11,2014,POUZAT-DEVILLAINE,6048.19,d518:d61:8732:d9ea:eb61:e870:b534:36fe
9614,Ferd GALLOT,22763,13,3,1990,VERVOORT,-4183.36,9637:9140:117d:75bc:e34a:fad1:da55:60fa
9615,Donia CHAFIZADEH,22764,30,5,1971,BAS,-9710.37,b744:2e0f:118e:1b2e:3254:1bb7:9248:3d86
9616,CEREN BELIT,22765,24,2,2016,TARIS,-5556.33,5054:a6f3:924:8f17:8a14:3311:da28:8d66
9617,Damaris OUBEJJA,22766,11,9,1992,LEUBA,6462.25,d9c4:41a6:b920:8ec3:eab7:4aeb:d219:519e
9618,ALEKSI DARY,22767,25,10,1984,DELLAY,2943.35,5d78:7c8:5c1a:463f:f058:e4cc:7099:a971
9619,AYMANE GINIOUX,22768,6,8,1995,DIPAOD,1600.81,521:ed14:62f6:7889:a516:315a:1bec:3a0f
9620,Elza TARGANI,22769,27,5,2019,BOMKONGNE,6150.0,e4c2:cfae:4a3:b897:2bcf:37c:c1c3:2ba2
9621,Johney JOLV,22770,12,4,2007,FERHAT,-9015.0,9ba8:a050:85de:af0d:468:438a:59:9b75
9622,Latricia ROZIER,22771,14,12,1997,HIANE,-3813.75,3a16:d416:d0d3:ac87:2e00:25a4:6dde:b937
9623,LEFIR MECEGGUEM,22772,4,10,2011,CLEQUIN,4837.0,a1c1:8c36:1810:21fe:4b9a:c45:c26e:73e
9624,Lurena NAGI,22773,1,2,2018,RASAMIZATOVO,8752.21,298e:9bcb:8d23:d1fa:6f1:cf8c:69cb:1724
9625,Darius MARQUESDESOUSA,22774,7,4,2012,BILLANT,9426.23,3d19:4875:9e58:ac32:da82:6e61:ef9d:4b22
9626,BUILLAUME GREMILLON,22775,17,10,1998,CHALAVOUX,-7315.97,c1ef:cd0e:5d76:7f7:b000:15e1:7519:5763
9627,CHOUAIB COURTADE,22776,15,3,2015,FRURE,-230.44,e9fc:2f2f:b31e:6af6:7ab7:1980:a174:3404
9628,Jadyn WICART,22777,5,8,2012,QUESSARD,-6819.31,4c75:8aa7:b2de:6cef:2736:5753:495:c204
