COUNTRY,staff_id,d,cardnumber,PostalCode,bic_number,day,Birthday,zip,SWIFTNo,Password_hash,city,SALARY,swift,organization_name,Wage
address,other,date,other,address,other,date,date,address,other,other,address,other,other,other,other
address_part,other,date_part,other,address_part,other,date_part,date_part,address_part,other,other,address_part,other,other,other,other
LA,7396,20,6594888356673928,30 DOUGLAS ST,VEXBDEPG5GV,2,2005,92519,ZSPDGBLI,_n(2G9iqWNYWEMJZB,Torrington,775931.0,EGOPGBQIKJI,bank south pacific,-615050.0
Michigan,7397,13,4784818151776902,68 SCOTTSDALE DR,ATDZDETP4JI,3,1990,71647,XBIIGBHN,@LtdqLg2W#87+rg@8,Prattville,-966505.25,MMJBGBLTJ5K,appliedmicro,480232.0
Wyoming,7398,25,3584630585311568,2 ROBIN RD,XYBQDEUSSO9,2,2011,90473,ELPCGBB4,8EQLgMGRn#k@4Qvwg,North Reading,-172920.0,UESAGBRPEVB,estarta solutions,-700501.27
AL,7399,16,4949744025754,6 UNIVERSITY AVE E,QTBNDEI5DV5,5,1975,90092,IEWEGBHS,^YzCyKdtf+5GuGQ5),Vestavia Hills,386715.0,RRULGBKQNWL,tyler technologies,-246949.0
ND,7400,27,4538053517855,94 BEECHWOOD AVE,LZQLDECWQ3H,10,1980,67115,MDRYGBDG,%BccJfBVe7HeQtzP_,Leicester,100608.0,LAXOGBHH6W4,u.s. census bureau -- census coverage management,702562.0
Delaware,7401,24,4141966129002565205,344 S Dunn ST,WOAVDES9EVM,2,1977,39246,ZALQGB7S,#Xoqcdp_R8JXHx(6_,Macedon,-24832.7,MACEGB2T1VC,cardinal solutions,-617748.0
WY,7402,12,579823371342,65 DAVIS ST,WLZXDE30952,12,2017,37861,RNGKGBAM,_DGD(UDmK4iX_5KJ6,Springville,922732.0,ICWXGBBLTER,vertex inc.,-118976.0
New York,7403,12,4453815467566720,352 COLE RD,QUYSDEZWWQR,2,1984,40250,GNVJGBCZ,&HDeuZ&@P)k)xtbo3,North Adams,567606.13,NYZYGB0I7NS,mellon financial,131715.0
UT,7404,1,3585550383229268,81 NOTTINGHAM ST,SGLFDEJ751Q,4,1986,99119,BVGPGBHF,^JZp4o#W)dOf_Qzc9,Gulf Shores,-901643.0,GFCUGBTFPBT,nhn entertainment corp (181710),-335992.87
IL,7405,8,6011732124614985,10 ARGYLE DR,GYFDDEMMGU5,6,2009,31427,FFLNGBJ6,T@J11ZhMmP1J6S1kZ,Lancaster,-716344.0,KMLGGBONJ3T,"stonemor partners, l.p.",365003.61
Kansas,7406,8,6562906581695751,81 NOTTINGHAM ST,QGOSDETOQYP,2,1973,N1H 7N6,OGZAGB9E,k7!6HOcn4RtiXj7f),Norwich,-581149.71,ICRKGB0YGS1,"minnesota vikings football, llc",561992.4
AZ,7407,25,3533341749862585,19 FORSTER DR,CRYJDE7ICRQ,8,1994,29801,VDMRGBFZ,^6Is!eE9%tzQS@@)P,Winfield,-529971.0,DUTUGBU0NWL,ufu - universidade federal de uberlândia,312535.0
WI,7408,11,6011620078697215,1700 E Windsor DR,INPFDE0K17H,5,2012,55716,RQESGB69,u_nAndE18r0nV!15@,Bessemer,-82776.0,GZEYGB86E7E,cooper tire & rubber company,689200.43
Michigan,7409,26,3549974811517083,1503 E Dunstan DR,BWTWDEVBKQT,8,1977,30759,CMSYGBK9,6b8B3U06^(uo1gTHX,Glenville,-650895.0,SCFWGBI6R1N,richmond the american international university in london,-857300.0
South Carolina,7410,25,4140073599894656,810 W 7th ST,XJRTDE1FTWY,5,1981,14614,NBDPGB9M,W+&BVXsg9rROX4Bvw,Ithaca,425249.0,IVDNGBFAKBR,suez cement group,324644.75
Vermont,7411,9,2242838021982902,1700 N Kinser PIKE,JSVUDE1DQ8U,5,2002,03572,OCFWGBPD,Tvy(9rWfB$@jxyQ+o,Central Square,718490.0,BSLDGBDYZGM,hospital da bahia,569240.0
SC,7412,15,213194692717972,6 KATELYNN DR,XATHDERP7OQ,11,2004,58312,RZZJGB33,dLpWodD4xS2(o4+d4,Roanoke,257652.0,PPWLGB2RRZM,the university of kansas school of business,-978423.0
AZ,7413,11,4549064035444829288,1972 W Arbor Ridge WAY,ZRLRDEFAADM,6,1979,98381,NEWZGBL6,frPSTMRQl(6fXbx8d,Ithaca,-734592.0,LFLJGBGOITV,re realty experts,-466219.69
Kansas,7414,1,4707644148086435,174 CITYVIEW DR N,HYSYDE6K3WK,12,2000,85218,XDXQGBVQ,@BDM8W$wAtZ43YaUS,Leominster,-592021.0,XLZZGBG8MVJ,amawaterways river cruises,219082.0
NC,7415,7,213119742251672,267 BRISTOL ST,FHOADEAHF2A,7,1990,N1G 4M7,JIPJGBLY,WS^(F1Cvtz$0am^ex,Gadsden,-264024.0,NNZSGBWWKYC,reliance digital retail ltd.,-439551.0
North Carolina,7416,26,4533044288859156,1031 S Persimmon Tree CIR,URLMDEDI9AY,11,2005,27722,QZCIGB2F,+$@drCVgZknx106kr,Muscle Shoals,-283711.0,ODNDGB8XE1B,outerstuff,-916744.87
Iowa,7417,8,213168698581905,219 COUNTRY CLUB DR,AXUBDEJBLVA,3,2022,69076,BELMGBG0,t+G_PNWd!!4+qQeL5,Hanover,738403.31,NOAEGBOQEM1,red rock casino resort & spa,-978382.85
MN,7418,25,30107685583285,65 FARLEY DR,WYZODEN0R0S,8,2010,N1G 5J8,DFIVGBOS,pb!B@tU1%nz5Jd)5^,Cicero,427444.0,KWLQGB0KWD2,allsaints retail ltd,568156.99
CT,7419,14,213198232350541,32 RYDE RD,WYVFDEDQQ7S,1,2020,03682,NGXZGBO7,$bq6EzFnkqMGy!NBt,Fulton,-31673.48,OVZTGBWQCNP,accredo - an express scripts company,891910.47
New Jersey,7420,26,4582610180727111,48 YEWHOLME DR,XSXLDEWJMCU,9,1978,84549,YXDUGBT3,N1QK&d9cVBqsc&H#!,Greece,-549123.6,JEJYGBRLQ0H,crown beverages limited,918077.84
Kentucky,7421,20,4309494932813038,32 PONDVIEW CRES,STZNDEJJHXO,3,2022,13421,JUTNGBQM,)$yREnnyH1NGlAQT),Chelmsford,638419.0,WMCSGBMVGLQ,bbraun medical,483673.5
CA,7422,1,213114482696087,91 BRANT AVE,JBWXDEW5T1A,5,2005,54587,XORIGBQF,eOw!*zs!@0FKgRn&$,Cobleskill,704316.76,GCWTGB68LRQ,atn promo,-374259.37
AR,7423,23,4553855972821094,335 STEPHANIE DR,KABCDEH8GHW,1,1999,90111,LNMAGBSM,^iZfB8mhT#JEyZO+b,Plymouth,-995902.0,YJMCGB3D9BM,autoliv,-147125.59
WY,7424,22,180031779718086,1398 W 8th ST,RBJKDEFQP5D,8,1996,86575,OFXBGB53,T_D1_ftp$3Tnp7I!a,Camillus,-105624.0,XAKPGB288IG,intas pharmaceuticals ltd. (biopharma division),342481.4
Hawaii,7425,2,5590893151166538,183 LAW DR,VIEDDEFX8PL,10,1988,85143,SJIMGBTR,0C2R80n+l&u^kDZX9,Central Square,-110094.21,XUBKGB2F49Y,teoco,467140.75
IN,7426,10,4349669283231409,711 W 17th ST,TBIWDEC0EPP,1,1989,85079,MBCJGBGP,Q(hhy^WXPtY3IMRoK,Centre,-844144.37,NNCKGBFNGM6,east midlands ambulance service,-750162.0
TN,7427,23,503804160946,1275 S College Mall RD,MMEEDE2G0EZ,9,2016,32509,LPEAGBGA,F06TAJCm*E75bvqlU,Enterprise,263638.0,SJUHGBNJH68,cmi,274594.0
MI,7428,4,3543614765143033,145 LONDON RD W,FCYJDE54UQD,3,2020,69620,JQXSGBEA,!@r2YItvXT9dkH$gV,Anniston,651945.88,BXEZGBR50YH,marco technologies,246171.92
VA,7429,8,4450526748296861596,217 DEERPATH DR,PWLEDEXL0O9,6,2015,81123,IVKIGBV5,_a8ICtpt@3@a^w&ZV,West Haven,-693749.85,PYJGGBZGXKU,the service companies,557738.94
North Dakota,7430,17,3511990227316740,3814 E Tamarron DR,LLXFDEVB3O1,3,1989,47278,KZFCGB31,sF!oJtR&W_1mN4jGH,Calera,752117.0,QQPBGBO63UV,rem,802411.0
OR,7431,21,3518868460666059,3021 S Xavier CT,TOWXDEYBYJM,12,1981,87574,KYWMGBBC,6bCvTxi$(Rzv%cTkT,Gadsden,-168739.85,WKNDGBLKWPP,cdnetworks,-990581.2
New Jersey,7432,14,4854318323245725,748 WILLOW RD,XUAXDELKW7E,3,2021,23090,WWJRGBYX,4p3ReJsS!3gS1BGa+,Clanton,871750.0,GDAWGBBJRVN,kyriba,826116.0
MO,7433,3,4695228286034128,65 SEVERN DR,AKQODEUZMCP,8,2009,04166,RMNHGBJ1,@aE$DHNT!8zI9&x_9,Hartselle,659592.0,YBCIGBBRUGA,university of karachi,473329.0
Illinois,7434,15,2676951110442699,621 W Clover TER,BJCSDER2AXL,6,2001,N1H 7M8,KSBXGB0F,H!TYChd917FL(GRm(,Hoover,-583422.0,CANAGBD00ZT,reach air medical services,-771195.13
OR,7435,6,30154501831407,1619 W Arlington RD,VZRRDEQ0I1E,6,1996,24066,DYPPGBHK,wC4hSfA$(L$4La4yT,Malone,-512479.96,OTTKGBEA3GS,fcm travel solutions,875425.0
Vermont,7436,4,6011133325023912,1010 N Summit ST,OGQGDEYQ92Y,6,2001,23869,JAICGBRW,zlRPbB42cdOeQJYn$,Geneva,-508870.6,WNRUGB0WFR5,breitling,-372579.0
Nevada,7437,15,4681444169845144,34 CURZON CRES,GSLGDEHYPVK,1,1975,71278,RYHDGBNF,Myu5Hn1ckg*6ozs%4,Norwalk,-783185.0,INIQGB8VRBQ,alpha bank serbia,-853764.73
Minnesota,7438,24,630401838465,20 HAZELWOOD DR,HNWYDERP3B8,6,1973,N1G 2J2,OOAYGB5F,v($ekkAH#P5SIqnnu,Torrington,-105763.8,NQCIGB00MFZ,conservatorio,-237732.0
Montana,7439,5,30474163208995,446 MASSEY RD,JCGBDEVMSMA,6,2019,29716,UIYRGBTE,&F(7c2%74395NjPP3,Northport,383142.12,DLXRGBN8SMI,qiwi,-604180.37
VT,7440,2,3518513378202205,86 KEATING ST,VGVNDETW5M7,3,2019,N1G 4S8,DCEWGB3O,V4WIT)r2wvCTNd86$,East Windsor,608246.0,LNPFGBH3B9J,"city of roswell, georgia",328254.0
Kentucky,7441,5,4615593055719,16 STRATHMERE PL,GTJPDEI9Q3E,1,1991,N1G 2T6,CDNMGBNO,(aUj7QsF)9vt9_tLm,Groton,481268.0,OYLYGB86ZB8,blue raven solar,-347026.0
UT,7442,13,4221520150277038,1203 W 7th ST,EVDDDE0ZW9V,8,1989,2747,ZDGCGBGR,k7+v0N*O6BC&sS6tD,Lancaster,919078.73,YODUGB25UWC,mercedes-benz india pvt. ltd.,-310088.36
NV,7443,5,6503327495744423,4547 E Deckard DR,CEMYDE8C4X0,1,1996,33811,QESCGBU9,)*Z@Qci$jHeY2U+(),Glenville,-817714.0,SPHQGB0GEEQ,kepler weber,-520769.46
Oregon,7444,5,6559639133075678,724 E University ST,KJHSDE4FENR,3,1985,72129,NWQPGB4W,aO!sx(MV1V59Kubm^,Scottsboro,561393.97,VYABGBWG9NF,red cross youth,343814.0
Iowa,7445,9,4027815590556322539,99 WYNDHAM ST N,VZKYDE04P0Y,10,1996,94359,ZGLVGBML,@+R7REkva7YC%mWRC,Lancaster,704529.9,NRNMGBUJ0P3,hillerød kommune,128244.69
