account_id,org_name,swift_bic_code,Region,location_of_residence,zipcode,PlaceRegion,DateDeleted,FIRST_NAME,company_name,DateOfBirth,ACTIVE_TO,DATE_TIME_ACTIVATED,lname,customer_lname,debit_card_id,LOCATION,City_Name,ZIP,state_name,password
name,other,other,address,address,address,address,date,name,other,date,date,date,name,name,other,address,address,address,address,other
name,other,other,address_part,address_part,address_part,address_part,date,name,other,date_part,date_part,date_part,name,name,other,address_part,address_part,address_part,address_part,other
DORIAN DAVID SEGARD,inktel contact center solutions,JYNHGBET425,119 HARVARD RD,Fort Payne,22284,Delaware,11-05-2018,MOMCEN BAUMARD,itelligence,11,3,2015,Zackery,Maiya,180027627300481,4 LINCOLN CRES,Johnson City,N1H 2C1,NV,9bb1ace44115b634f4426674472f9d92d5fcec29e892ba
TARIK HILAIRE,humana ab,LGNTGBET,19 WHITTAKER CRT,Walpole,51997,Vermont,01-13-2011,Devon FOUKDRIGNIEZ,vorbasse skole,27,1,1972,CLAIRINE,Rosemarie,502003067126,1031 S Graywell DR,Moulton,22884,NC,ec2c35a894bfc00686f12b594a8679b87e7490689070d4
Tavon HENSE,polsinelli,ZOPSGB6GXL6,1311 W 12th ST,Thomasville,08843,Colorado,11-29-1986,Donato RASTELLO,thirdchannel,5,12,2016,Zeb,ALLYCIA,4140374572394213,93 NORTHUMBERLAND ST,Fall River,85216,VA,df89a4f4d626976c1ef6b073c602392efae38496ab6d53
BASIROU DUVEAU,"brown & root industrial services, llc",BMMNGBIM,23 CRANBERRY CRT,Homewood,31841,Texas,08-21-2000,DOWON OUAMARI,mmodal,28,8,1981,Dakoda,THIBAULI,4538950652763872424,1012 S Carleton CT,Leicester,N1G 1K3,Nebraska,a6b99b66358eaeb78c5c8d5dbd8737e30bc2e689a3b43b
Kenyatta GOEPPNER,kiwibank,EZTVGB8F2DM,1908 E Arden DR,Stratford,62599,Oregon,09-17-1989,ELOTL DUBILLOT,au small finance bank,16,1,1997,SAMANTA,Obe,213195797438455,433 STONE RD W,Wallingford,80401,Tennessee,2337903f62e3e33e0860d99821ef0d6947cdebe3606973
RUBEN TARTARE,diocese of san jose,UQGDGB2KIBN,54 CLINTON ST,New Haven,07372,Tennessee,10-13-2019,CECILIANE CUENOT,upplands motor,23,7,1997,ZAIT,Melany,4707128830818149,716 E Ridge Crest CT,Haleyville,38493,NY,cac7c6b65358c76ef86b2bef16a602171e7c3416ad2dd6
Deric HOURQUEBIE,pmu,AAQOGBZFYHI,372 YORK RD,Quincy,55012,NH,08-12-1980,SOTIA GUENASSIA,forman mills,10,3,1985,FANIE,MARGUERITE-MARIE,2289339167633650,3660 E Covenanter DR,Springville,18813,Pennsylvania,ec385e944297aa444ae4bb00592623c1e1b3ba1b2b519a
JULIANE ELMAHSSINI,preem ab,TLDFGBGAI7E,14 GREEN ST,Old Saybrook,N1L 0G4,SD,07-08-2020,TONIN MOULINIER,everest industries limited,25,11,1998,BENJAMIN,Andrew,5214428540159849,2623 S Southern Pines CT,Hartselle,96631,Colorado,bb88c4681893d938f79a58ba1951b8c5f61bc47845317c
YONI MANSION,guildhall school of music & drama,CJNUGB7T,410 S Wynnedale DR,Norwalk,34973,Michigan,12-08-2021,ARISTIDE-DIEGO DINIS DA SILVA,countrywide surveyors,24,5,1990,MATHILDO,RHITHAN,4167431956207086,92 WILLIAM ST,Chelsea,53928,Delaware,eab272f9d454d6c48e25bf01fb4ad9d8088171b5b014cb
Ieshia KIEFFER,university of debrecen (ud),RHDCGBRJVDV,3097 E Covenanter DR,Evans Mills,70262,HI,03-13-1998,HAKIMA ABRAHAH,icici hfc ltd.,18,1,2022,Arnulfo,COLLETER,3549881157358859,214 FARLEY DR,Bristol,94422,New Jersey,af20e7c8f78212ea797e0c9abf38b0ce78eda1dc0e9a14
LEANDRA ALREIDA COSTA,heinen's,TGFGGBGQGK3,522 E Hickory Stick DR,Canandaigua,N1G 3P6,MI,09-24-1977,JEAN HUGES DHOOGHE,fundacion santa fe de bogota,26,9,2021,Janiya,Christop,180012787296745,307 E 3rd ST,Rocky Hill,13277,South Carolina,c79b7cadece319b87c59f75a5bfd79a70de525e4973998
MELYNN CHANG,dod education activity,LJWJGBU74VN,126 N Glenwood AVE W,Alexander City,27618,Washington,01-12-1999,PARET GEMARD,groupe precom,17,8,1986,Zoa,NO LAN,3572993459506240,1183 E Buckingham East ST,Central Square,N1L 0M4,DE,7f6bb21f14d5ccc1f3295e09173b7ab2d16d393f050b1b
AMNA JARLIER,university of parma,FHPOGB93,225 WESTWOOD RD,New Hartford,34955,AK,06-14-1995,LE LAY TOURNON,"mat holdings, inc.",29,7,1977,Leopold,MATYAS,4466676457046,3618 E Morningside DR,Amsterdam,16771,North Dakota,43d048445fc91720cc4584789ac8921fbe25ef73bd17e8
ARIF FEASSON,twinings,MWZRGBSJWUP,539 S Lincoln ST,North Reading,48327,Oregon,03-10-1973,YOUSSEF DIQUELOU,prairie spirit school division,20,6,2007,TAMATEA,ECLEMENT,6011957010348378,224 EXHIBITION ST,Arab,93589,SD,3690c6bd5df17f6164359576fe04d953cb8fb5c0dcc76f
RAIS RORTAIS,abc fine wine & spirits,DYWZGBDJ,715 HANLON RD,North Oxford,90211,AR,04-07-2011,SANI TARRIEU,amtrust europe limited,1,6,1974,LOULS,PIERRE-ANTOINE,4270742771927995,3829 S Laurel CT,Middletown,85013,CT,2253ca21e8e3312801f58466f815fa993ecbac0fa91629
MOHAMED-ALI GARCIASANZ,marubeni corporation,YWUCGBEZY81,361 E Varsity LN,Selma,N1H 5H3,New Jersey,01-19-1978,GIANNA JAKELI,"faculty of medicine, ain shams university, egypt",15,9,2006,Cherry,MAIGRET,373931269536921,60 BUSHMILLS CRES,Middletown,N1H 4Z6,Hawaii,28ba1f7cd759ff96bd17444020bca6770c371918d484d5
Deb BILLON-PIERRON,analogic,LDQSGB69FRJ,21 HONEYSUCKLE DR,Oneonta,99221,New Jersey,10-29-1973,DUBOIS LUCQ,apptis,21,3,2010,Estefani,ISALYNE,4986203996679,270 WOOLWICH ST,Jackson,81668,Maine,c562a6c3c18d227f484c44ceb49485f051ff32345f7148
Tammie BELOUGNE,celstream technologies,YYZEGB4EVSD,68 NORMA CRES,Waterbury,N1H 8B5,CO,06-29-1996,JOEY HAMON-PONCET,trouw nutrition,10,5,2018,KAYA,ATILA,4656554565075798,19 WESTERN AVE,Boaz,03678,AK,f688c4cadb371017507d288dcea5aa95b4257e50edd11f
TIMOUN CHEVROT,hankuk university of foreign studies,TRVAGBII,258 GRANGE RD,Springfield,36602,Iowa,04-01-1981,SAHRA HENMADA,right to play,19,9,2016,SHONA,CHERRAJ,213190839192715,618 N Adams ST,Salem,65018,NM,1dc8baa817384d7eaf8b5007730262b0b1d3fa87650517
Brandt ROCHAT,trend micro,NJZQGBHI18B,22 HONEY CRES,East Meadow,13380,MO,06-13-1972,ASLI POUTAS,aurangabad electricals ltd,11,4,1974,EMORA,Pearly,213143884787582,231 DELHI ST,Newington,26402,North Dakota,f03018734f5de18b14ac7c44f1cd466ef9c995ff59b3fd
MARIA-JOSIE BOURDENET,maize usd 266,WQGWGB6L56Q,274 IMPERIAL RD S,Camillus,62990,WA,01-20-1979,Delina HUOT,gci,2,9,1970,Felecia,MEIVIN,676198666478,315 STEPHANIE DR,Hamilton,N1E 5K2,Massachusetts,a4ddf5a01c153aa2f0e96918713ad906c4eacfa35babb2
SUKRIYE FARAH ILTRE,jenzabar,LQLLGBXZ,2411 S Bryan ST,Eufaula,64816,Michigan,09-16-1978,Pairlee PORCU,söderberg & partners,27,5,1989,Cheri,NERIMENE,502060254864,288 FARLEY DR,Oxford,70515,NE,5ae89846634fee53e958e0a18ee0cc988394433cadbdd4
THEOPHANE MABILE,talkspace - online therapy,JDJHGB01,3360 S Oaklawn CIR,Thomasville,23335,Kentucky,12-08-2014,Clement HEVERT,nb handy,3,12,1994,Jarad,Jennette,4890052475799058,2464 S Burberry LN,Scottsboro,94321,PA,ee37b37b32c9bd843af8ee1aacf757f33cffc68bfe3e8c
RUFUS HUAN,gulf drilling international,AWAWGB002BB,81 HASLER CRES,Old Saybrook,32101,AZ,04-12-1970,Butch LABADIE,youngevity distributer,24,10,1976,ANIP,Alek,3539394507950070,3850 S Laurel CT,Birmingham,02103,OR,8e95c331be8394582f0f69850267041291b584775dabfe
Pernell DRINE,india pistons ltd,YBCKGBHY,995 PAISLEY RD,New Hartford,93930,MN,05-22-2012,Rod ABDELLAOUT,canterbury district health board,27,7,1984,Guillermo,VIETTE,345060870592340,316 E 2nd ST,Mohegan Lake,N1H 5N3,NJ,f043d2067c520f63875a465371baf520925bab43019352
Dee OUMMAHYA,indesit company,GLTQGB8VXZ5,2439 S Woolery Mill DR,Lancaster,27809,RI,12-11-1999,Buel EDUNGU - SHOMBA,audiolab harry coster,25,12,1979,Rudolph,Tamatha,6569155263248785,4421 W Iris LN,Chelsea,23782,Washington,fd4c56552b617dfd4410ca9071b1f3484302da285bca7a
CHRYSLENE GRUJICIC,builders,GBHPGBCIEFS,77 TEAL DR,Springville,67862,Nevada,03-05-2006,Albertus LALILECHE,liquidcapital,26,3,1984,Eligah,BOSSELIN,3585254108095795,727 W Kirkwood AVE,Milford,74774,Michigan,6cfc72b9670fb73628f89b8cacc08fa3c7935e3bb2b864
BAPTTSETE CAC,bosh global services,VFQDGBNG,191 WAVERLEY DR,Clanton,25746,Vermont,09-09-2016,MELINDA BRENNETOT,fisk,15,2,1975,SARANGAN,Francesca,6531128665265801,1230 S Fess AVE,Millbrook,N1H 2R1,WY,f1dd0fcdb409cc49605cd37a00b0801e6f9d9e6134c216
FLORIANI MANET,converse college,CNBVGBGO6TV,8 RAY CRES,Cullman,38227,ME,12-21-1986,CLEOPHAS FABE,"nci building systems, inc.",12,2,2015,Lorenzo,Assunta,38621972100894,3 MCCALL CRES,Guilford,41696,Idaho,6fffc9518cf93bb1b8bcef28c515c05f3be137ab4184c2
COUNADY CASSIGNARD,isabel group,BPOCGBAS9HF,28 HEBERT ST,Hueytown,13367,OK,11-04-2015,Jameson CARQUE,israeli air force,8,6,2012,CHOUAIB,AUDE-MARIE,4793520403901403454,91 RIVERVIEW DR,Valley,37172,NH,e4635ef7ed03ae05d67177fac41c58916cf0b88ce252e5
JIBRIL NAIRI,tube investments of india limited,JPTJGBUIF0C,3501 E Longview AVE,Ware,06300,PA,01-25-2006,ANTHYME BLONDE,health sciences north/horizon santé-nord,11,8,2018,LOAIS,IBRAGA,30136869653473,1101 S Washington ST,Northhampton,79877,Mississippi,d022236f3bb1b9257951e44f1f57c32213f175aa013b4b
Derrek NGUYEN KHOA,health & safety laboratory,KHOIGBEKV7U,50 HASLER CRES,Albion,11035,WA,06-30-1989,Jessica BONAFE,university of alaska anchorage,26,8,2022,PIERRE-ANDRE,Alcee,4176233548126,183 GROVE ST,Farmingdale,95149,North Dakota,dc93b3e9932544ff0d2cf46e44ad9002631dc50dd36c1e
VILLIAN OAYOMI,comandato s.a.,FSJXGBEJ,30 SIMCOE ST,Middletown,N1H 1P2,Colorado,11-07-2006,ATYANA AGUEEFF,ansira,24,8,1976,THEAUD,ILXAN,501814910110,1104 S Henderson ST,Johnstown,45040,Louisiana,c8cde4eff24c5eeb6ef9b924433fc76928060b0255550c
CKIARA MVOGO,secretariat of the pacific community,WFMTGBBBREI,91 RIVERVIEW DR,Halfmoon,14107,NM,05-31-1981,MOINECHA LEES-CANTEL,trf ltd. tata enterprise,18,10,2015,CLEMENCE,Omer,4399068192470845,563 W Amaryllis DR,Semmes,N1G 0G2,AZ,2e34fc8e84ad916bb6ec98d12345246404902e4cd8971a
Geary OOIOOTGF,university medical center of southern nevada,IAUHGBY1OJO,392 GRANGE RD,Walpole,15930,OR,07-20-2007,ROSELINE DESHARES,"ai3, accélérateur d'innovation depuis 10 ans",30,11,2014,AMAYA,LAURENA,3523990980640845,1304 W 15th ST,Lakewood,21036,South Carolina,ba2ae1af08767c8a365cf012b15b416d1d32e4ff401d28
HARRISH ROGEZ,bpi-philam life assurance corp.,MHHQGBJX,338 AUDEN RD,Gulf Shores,13571,NY,02-15-2017,Mariel VALTIER,national airports corporation limited,6,10,1990,GUSTAVE,TITIAN,3513057252739903,26 OAKES CRES,Walpole,28678,New Jersey,d910548baacb0c29d9eacffe33abcba10cb7211784dbeb
LOUENN BOIN,asu,DRTCGBV8S0R,1812 E 2nd ST,Jasper,35150,Mississippi,11-26-1978,Tyreese CASSE,cam,10,11,2017,Loraine,COLINE,6505643557405655,3769 E Cobble Creek DR,Foley,10336,Colorado,a8d8238efb35ff01e219cbf232f9ef3838956aca7af918
LISIG MADOVAS,mona vie,YYVCGBXGWIP,45 CURZON CRES,Framingham,33310,OH,03-23-2014,Bryana RUDENT,intercement,6,7,2020,Krystin,Tabatha,3575382592734751,1921 N Dunn ST,Hamburg,80026,DC,6889e376a076647cd1fdbd3606f9adef6aed69c65392cd
Press LUMEAU,terranet,ZMYXGBP2,63 DERRY ST,Manchester,08458,West Virginia,12-25-2013,ABYSSE RIF,j-w operating company,11,2,2000,LOUIS- CYPRIEN,Marilyn,3528614149195948,132 NEEVE ST,North Windham,N1E 6B1,IA,a74a08636109f81a09909f07d50296140b16964b791621
ANEVA CHICHERY,"daz systems, inc.",NJTRGBCN,10 LOIS LANE,Roanoke,56800,South Dakota,03-29-2002,Page CAILLARD,insee,20,2,1974,PAOLIN,JULIA,4018368833664849476,105 EMMA ST,Lynn,14174,AK,3899cc60bc615f8e90cb771fc4f977342daa7e66515b42
LEANFRE VAUDAINE,consumer portfolio services,FTXVGB2OHD6,2519 E Sandberg CT,Middletown,87746,TX,08-10-1990,JUQACS TESTARO,health alliance of the hudson valley,6,4,2009,AJLA,DJAMEL,6011173811997526,66 PINE RIDGE DR,Wetumpka,17997,Alaska,dd25c4d7e79e7cdcc24f04b462f6d367e5dfed3f9bfd95
CALIA VEYRIAC,imcopa,AGOGGB7J4X4,1001 S Jordan AVE,Macedon,70679,California,06-20-2017,MARAM DRYAB,grands moulins de paris,8,8,1977,Stormy,CPOE,349122902759150,630 WOOLWICH ST,Bristol,59112,DE,1674ac726422444db16b56e30d99e53bce8f603ae8386a
JINNY MEZIANI,toyota motor manufacturing uk,ASXFGB64,10 GLENWOOD AVE,Foley,46429,AZ,01-14-2012,MEGHANE TAZIOUNI,frontex,2,5,2005,Alois,KASSANDRE,2266249974907089,55 CALLANDER DR,Stratford,01149,Utah,80fcdd92058dda4abac12c0af7b074c62837156791fcc8
Bjorn BRIGE,atlant zorggroep,RWAQGBHRLM6,69 HEARN AVE,Latham,40077,Nevada,04-28-1988,PIERRE JEAN BAJAZET,droisys inc,26,4,1973,CRINIABINA,Joesph,3536436711934128,810 N Woodlawn AVE,Hamburg,12575,Washington,e6a1578e48579a711ea0277efb623892d8868d5020e62b
ALODIE BOUKHOUYA,dlg,ONRDGBSFYBP,917 W Graham DR,Leeds,N1H 2K2,Michigan,12-09-2005,CARLINE POHIER,neuroleadership institute,21,7,2016,MAELIG,EMMANUEL,346389964575559,821 N Blair AVE,Geneseo,32147,MS,afcaee8ba358949772e1cf7c6971d8f4e1de4457096808
Concepcion LAFTAH,baku state university,JVJLGBZ0,17 DUDLEY DR,Monroe,N1C 1H2,North Carolina,02-18-2001,Carlene DIEU,leto bank,27,3,1991,LYSIANE,Cloyd,4150923732910,9 ONTARIO ST,New Milford,84882,Nebraska,7107f76e76bede3542fd7842d9a4b126b3211cdf888fcb
ATHANASE VAN MEER,little diversified architectural consulting,BJIAGB9A,530 E Graham PL,Boaz,18897,Virginia,03-13-1970,SHAINA IOUMT,venterra realty,9,3,2000,Hassie,LIZZIE,3564164769542412,47 MUNROE CRES,Geneva,N1E 4V7,NJ,adf0454c787d57610fa10372e14e07d19b286cfb9197a8
Lawson CARMIGNANI,cortez engenharia ltda.,IGJXGB3Y,2679 S Sunflower DR,Sumiton,78977,LA,10-04-2018,Merrily KURITZA,-not announced-,20,12,1989,Hezzie,Sanaa,379578462278761,23 HAZELWOOD DR,Southington,41426,IN,4b79c298f4eddd10423a5344e0e93d461f47571136647d
Hollis ANGOULVANT,det kongelige teater,ENPGGBK4HWX,1303 S Fenbrook LN,New Hartford,86789,Maine,03-04-2021,Doshie EGLER,"allegro microsystems, llc",11,3,2004,Miracle,EMJO,4748567347668468051,839 N Woodbridge DR,Arab,16493,Georgia,d68ea2e4c2f96b259660c1b0b89ef897717c9312eee697
ABIGAELLE DESGRANGES,turizm inc,KXUBGB5F,3844 E Regents CIR,Wareham,63007,Michigan,10-19-2012,HIDEXA CARRERE,illinois department of transportation,14,5,1984,CARLISSE,EIJI,060484974229,30 REVELL DR,Hanover,26615,IA,a2dbd3032c5eff535ae1bfc3b725b5223c859ec1a3bd55
