swift_nmbr,ACTIVE_AT,Personal_identity_code,USER,swift4,traffic_SID,DateUpdated,AddressId,d,cash_card_id,employee_id,date_dim_2,BankCIN
other,date,ssn,other,other,other,date,address,date,other,name,date,other
other,date,ssn,other,other,other,date_part,address,date_part,other,name,date_part,other
QQPZGBFW,8.09.96,775-38-9808,jeremyhunter,OQFQDE5PTZF,41860,9,"28 COLBORN ST, Northport, 75497, North Dakota",2019,4140595885330284,MUTLU,12,UPJOGB65
EAYBGBPF,29.12.07,689-34-0956,ntaylor,WYSPDENBCEM,41861,31,"11 ELIOT PL, Northhampton, 98289, WA",1992,675910352003,NOELINE,1,SHLNGBB0
FBXTGBRZ,25.02.72,662-82-3735,griffinnathaniel,WHEEDEQE2LS,41862,14,"266 LONDON RD W, Massapequa, N1G 2S9, New Hampshire",2018,4606640807868222,Vergil,8,ZJLPGB47
HZVWGBDD,28.02.82,699-03-1753,crystal04,FXMRDEA48MV,41863,18,"2100 S Bayberry DR, Bay Minette, 82189, CT",2007,2293035125400703,Cassidy,2,BTSKGBPO
TTDZGBTZ,1.12.84,878-72-4399,christophercunningham,HFDRDEX047H,41864,31,"37 IRVING CRES, Prattville, 45982, IA",1992,213173123700252,NAILA,5,UDYEGBM6
RRCMGBTK,21.05.73,120-55-6641,heidi00,GSGVDEUW1J8,41865,22,"123 BAGOT ST, Halifax, 6260, Texas",1995,38606938342409,NOUR-ELHOUDA,7,SEYHGBIS
SSYVGB74,22.03.73,196-45-1615,rgarcia,FERHDENUZ4L,41866,28,"2234 S Bent Tree DR, Alabaster, 50710, ME",2021,3526713501082017,Janessa,11,BOCZGBOE
DENFGBJ4,5.05.78,512-03-1045,vbryant,PLSLDE8SY5D,41867,13,"66-4 Parkhurst Rd, Pelham, 1864, Minnesota",2020,4672331017310116492,ZELLER,5,TQSXGBY6
FPNAGBRC,25.03.71,168-67-0057,tammy64,VRRPDE903SL,41868,16,"67 THOMPSON DR, Norwalk, 52910, Montana",1974,4129376498089269,ALBRICE,1,VRQPGBKN
YKRIGBQ1,10.11.86,343-22-2503,fernandezwilliam,SFNSDEXA16J,41869,10,"19 ARGYLE DR, Monroe, 21984, Montana",2017,4461084212462707,Yasmeen,6,YRHZGBP4
CHTKGBMU,11.01.83,063-63-0869,jhayden,RDEYDEWDG2Z,41870,23,"1409 E Dunstan DR, Glenmont, N1E 1Y4, Illinois",2008,2297248826360649,MALIA,9,UVGQGBZT
LMMTGBKR,23.11.93,312-12-4527,arthurjackson,YMOEDE00LJB,41871,24,"4406 E Carrington CT, Old Saybrook, 39817, West Virginia",1979,3547311630296734,MAXIMILIE,9,OJNNGBSO
UMURGBK4,13.09.07,044-81-4043,alejandrosimmons,NRRADEXI8S4,41872,28,"1625 W 7th ST, Glenville, 31319, WY",1974,2720682830781035,Edmon,11,MCCKGBJO
RWPPGB78,19.02.78,510-78-7785,rwhite,KZNBDEDZ1SS,41873,14,"3205 S Acadia CT, Geneseo, 26749, Arizona",1990,4155220544697153,Tobi,1,ULEZGBIK
NZCYGBUX,7.07.85,246-80-4743,vazquezmichael,GWICDEM59SJ,41874,12,"122 E 6th ST, Vestavia Hills, N1G 1Z1, IA",2002,213102886644902,TINHINANE,12,QKDOGBYJ
QZCZGB8C,2.11.83,768-21-8279,dannyvasquez,YXXMDEPMK9E,41875,3,"45 MCNULTY LANE, Monroeville, 24436, AZ",1994,4282822723769368,SEGA,6,OPOWGB2A
PAQVGBET,19.05.70,348-89-3021,michael03,EUNVDE8V0WP,41876,17,"87 MUSSEN ST, East Meadow, 27490, FL",2016,180017106477991,CHONTICHA,5,VXMGGBJD
QDCTGBPL,11.07.07,665-78-3122,sarah78,WBZRDEGIWGY,41877,10,"19 WESTERN AVE, North Attleboro, 45209, DC",2003,584821345710,SAFINA,8,XZRKGBOH
MOGKGBIZ,30.07.22,009-54-2057,karenrichardson,YTUGDEKZ0C4,41878,27,"16 PRIMROSE LANE, Orange, 26154, Mississippi",2000,4989960627147087,BOUBAKER,3,TJMQGB8A
KSWTGBDW,24.01.78,515-96-7323,ellisallison,CDKBDE60P67,41879,12,"412 LAIRD RD, Hadley, 44848, Michigan",2001,213122828323001,BAONAM,2,ULRKGBN1
XFKSGBVF,24.10.83,414-54-6049,kennethrichards,PUUFDE5YL3Z,41880,17,"541 W Terry LN, Sturbridge, 21527, MD",2012,2287112701988399,Annabelle,5,AZFDGB6D
MEPSGBC6,16.01.16,888-30-3148,richardsdawn,MIYBDELGE26,41881,24,"16 DELMAR BLVD, Anniston, N1H 4P5, North Carolina",2012,4647722880873,LEVINEL,7,YWSAGB59
XDVKGBPP,18.07.20,570-29-8359,christinahall,QAXYDEP3BFD,41882,2,"605 W Cherokee DR, Naugatuck, 16617, HI",2009,344417655093392,Nicky,1,MUXSGBGT
EOGWGB2A,22.03.97,867-47-3893,wmoore,GUTPDEJ8Y83,41883,3,"19 AMOS DR, Ithaca, 09796, Nebraska",1989,2430884667729183,EMIME,5,ZKXFGBYW
RWXZGBDF,24.12.95,819-40-0883,diazmichelle,ZZNVDEHCYG4,41884,25,"96 GOODWIN DR, Hamilton, N1E 6J7, MN",2016,4597853513860,China,1,ASYDGBXG
MXCQGBAG,6.05.10,571-78-5155,crystalreed,XEDYDETXUSH,41885,15,"121 E 6th ST, Waterbury, 74577, Washington",2019,676170078148,KALISSA,2,SOFBGBJU
BLNRGBHS,30.10.89,210-48-2029,turneramanda,GTWQDEMG9BX,41886,7,"214 E Brownstone DR, Amherst, 43411, WA",1999,4363680772074,Rudolfo,6,RSPLGBCY
QTAIGBQW,25.03.11,835-96-0504,oroberts,NFYRDE01AR6,41887,28,"832 W Rosewood DR, Centre, N1H 7A3, Idaho",1990,4935645372360705,AUREO,1,POZBGB6Z
KQAHGB3R,17.06.19,020-27-4773,xtucker,RFQCDEGPFM2,41888,28,"3962 E 10th ST, Chicopee, 56980, KY",1988,379129167267384,LAURENCE,1,NMMAGBUB
ULPWGBKH,5.08.02,369-65-6885,andersonanthony,KFEPDEPUUZI,41889,27,"214 CARRINGTON DR, Hamburg, 47882, AL",2017,4870863642999,Dominic,1,KCQJGBD6
ONXQGBBY,17.05.77,012-52-2313,hgray,TKVZDE0PHRW,41890,10,"3375 S Commons DR, Enterprise, 79570, Wyoming",1991,3545276972648036,Breann,5,XDUIGBK0
EVOTGBOA,12.04.19,517-77-4061,qgill,UGNLDEEI102,41891,14,"218 RICKSON AVE, Geneseo, 33545, Oklahoma",2022,4292482338189483944,NINE,2,KKOYGBFD
TPAUGBET,26.12.78,648-19-0050,catherinecrosby,YBIPDEM5C28,41892,1,"522 W Skyline DR, Sumiton, N1G 3M2, DC",1987,6568845920594974,RIRAM,7,XRLKGBHA
LAIJGBOH,11.10.86,681-04-6828,nholmes,HBBRDEVGORV,41893,20,"2003 S Montclair AVE, Stratford, 26534, OH",2010,6011197795379922,RAIHANE,1,AUMFGBSJ
DHTXGBT4,25.06.85,730-25-6265,zachary73,ORDADEQGMB5,41894,27,"20 LAUGHLAND LANE, Waterford, 86366, Mississippi",2021,6011667297353518,AUBANE,1,VWGXGBQA
VWFPGBML,21.05.98,482-75-3699,lisa94,OCEADE7TQAF,41895,22,"211 STEVENSON ST N, Cromwell, 37288, CO",2022,586994471405,Albertina,7,OKMJGB9P
PPDAGBN2,4.01.70,528-17-5978,woodardkenneth,UWBSDEJL64X,41896,6,"47 GALT ST, Commack, 33888, Arkansas",2007,3550237091227385,SOUAND,9,JFCVGBTJ
KMFWGB9Q,5.04.11,815-44-4940,amyevans,DZMDDEHEJIU,41897,4,"44 MCCURDY RD, Halifax, 64391, Washington",1972,2379161907682263,Ozzie,8,TJMWGB4K
HXJQGB08,15.11.87,658-53-5111,cheryl36,PKSHDEV588O,41898,14,"18 PRINCETON PL, Cheektowaga, 58058, Texas",2011,3512155725327289,Cyril,2,CTSCGB1T
VKZYGB9R,24.10.00,839-20-5125,diane22,BVZYDEDAN6P,41899,19,"3810 E Tamarron DR, Madison, 96416, WY",1975,4213681998303,RIDLEY,3,MKTVGBDE
MQQUGBZN,17.07.18,021-58-4366,ijacobs,FUDADEOYT7Q,41900,2,"32 NICKLIN CRES, Airmont, 23595, MA",2019,2291996103185313,Tyrin,8,KTGXGBTJ
POORGB08,17.07.15,294-14-9215,gabrielevans,SHNNDEMKBB3,41901,28,"23 EDWARDS ST, Fishkill, N1H 2G7, West Virginia",1989,4543988187400124,BLEDENN,6,TRSVGBMP
MGGZGBI1,12.10.14,881-04-9891,chayes,IVOMDEHGF2Z,41902,27,"45 MARSH CRES, New Hartford, 61026, MD",2012,4717699553314878,MALORIE,8,BKPJGBQ1
KDRWGBSJ,28.08.85,262-49-2068,christopherrocha,DITCDEVGQK9,41903,12,"214 E Cottage Grove AVE, Homewood, N1G 2R7, Massachusetts",1972,38789596256580,Gerardo,9,RPYQGBLY
OQOTGBQK,15.12.04,410-77-8340,stephen56,CNDRDE1VCES,41904,29,"27 CLYTHE CREEK DR, Lynn, N1H 2Y6, GA",2003,344667936427823,CHAMEL,9,IPHEGBH8
EOICGBLJ,24.08.93,060-69-1814,dawnbrooks,RWIZDEDU9J3,41905,24,"5 MARILYN DR, Hamden, 44848, New Jersey",2019,4890064435837,IHSANE,5,YEWUGBGS
GRKQGBW7,1.02.95,567-09-5352,hillkaren,HQMQDEHXQ8O,41906,11,"138 DEERPATH DR, Monroe, 04127, NY",1996,4034055899743083069,RORY,10,XXBQGBAR
EPSGGBJ7,26.07.19,256-43-5830,slawson,PXSUDEWXOTY,41907,26,"10 TOLTON DR, Brent, N1E 5K8, Idaho",1971,373151391625118,JEAN-LUC,3,XHGUGBUQ
GFWYGBFE,6.01.20,714-19-3667,jacob58,SYBIDE7OYIY,41908,5,"416 CRAWLEY RD, Massapequa, 99671, ND",2003,3562848402136663,AYMANE,12,EYIOGBV3
VTRJGBIH,23.07.02,416-34-8823,boydethan,CMXXDENVXEK,41909,29,"1037 N Summit ST, Macedon, 13665, Hawaii",2012,4772009709385933,ALISSON,11,KECLGB49
